%!PS-Adobe-3.0 EPSF-3.0
%%BoundingBox: (atend)
%%LanguageLevel: 2
%%Creator: Grace-5.1.21
%%CreationDate: Thu Mar  8 09:37:22 2018
%%DocumentData: Clean8Bit
%%Orientation: Portrait
%%Title: fig-zb.agr
%%For: jolletf
%%DocumentNeededResources: (atend)
%%EndComments
%%BeginProlog
/m {moveto} def
/l {lineto} def
/s {stroke} def
/n {newpath} def
/c {closepath} def
/RL {rlineto} def
/SLW {setlinewidth} def
/GS {gsave} def
/GR {grestore} def
/SC {setcolor} def
/SGRY {setgray} def
/SRGB {setrgbcolor} def
/SD {setdash} def
/SLC {setlinecap} def
/SLJ {setlinejoin} def
/SCS {setcolorspace} def
/FFSF {findfont setfont} def
/CC {concat} def
/PXL {n m 0 0 RL s} def
/Color0 {1.0000 1.0000 1.0000} def
/Color1 {0.0000 0.0000 0.0000} def
/Color2 {1.0000 0.0000 0.0000} def
/Color3 {0.0000 1.0000 0.0000} def
/Color4 {0.0000 0.0000 1.0000} def
/Color5 {1.0000 1.0000 0.0000} def
/Color6 {0.7373 0.5608 0.5608} def
/Color7 {0.8627 0.8627 0.8627} def
/Color8 {0.5804 0.0000 0.8275} def
/Color9 {0.0000 1.0000 1.0000} def
/Color10 {1.0000 0.0000 1.0000} def
/Color11 {1.0000 0.6471 0.0000} def
/Color12 {0.4471 0.1294 0.7373} def
/Color13 {0.4039 0.0275 0.2824} def
/Color14 {0.2510 0.8784 0.8157} def
/Color15 {0.0000 0.5451 0.0000} def
/Color16 {0.7529 0.7529 0.7529} def
/Color17 {0.5059 0.5059 0.5059} def
/Color18 {0.2588 0.2588 0.2588} def
/PTRN {
 /pat_bits exch def 
 <<
  /PaintType 2
  /PatternType 1 /TilingType 1
  /BBox[0 0 16 16]
  /XStep 16 /YStep 16
  /PaintProc {
   pop
   16 16 true [-1 0 0 -1 16 16] pat_bits imagemask
  }
 >>
 [0.0016 0 0 0.0016 0 0]
 makepattern
} def
/Pattern0 {<0000000000000000000000000000000000000000000000000000000000000000> PTRN} bind def
/Pattern1 {<ffffffffffffffffffffffffffffffffffffffffffffffffffffffffffffffff> PTRN} bind def
/Pattern2 {<eeeeffffbbbbffffeeeeffffbbbbffffeeeeffffbbbbffffeeeeffffbbbbffff> PTRN} bind def
/Pattern3 {<eeeebbbbeeeebbbbeeeebbbbeeeebbbbeeeebbbbeeeebbbbeeeebbbbeeeebbbb> PTRN} bind def
/Pattern4 {<5555aaaa5555aaaa5555aaaa5555aaaa5555aaaa5555aaaa5555aaaa5555aaaa> PTRN} bind def
/Pattern5 {<1111444411114444111144441111444411114444111144441111444411114444> PTRN} bind def
/Pattern6 {<1111000044440000111100004444000011110000444400001111000044440000> PTRN} bind def
/Pattern7 {<1010000000000000010100000000000010100000000000000101000000000000> PTRN} bind def
/Pattern8 {<0000000000000000000000000000000000000000000000000000000000000000> PTRN} bind def
/Pattern9 {<1e1e0f0f8787c3c3e1e1f0f078783c3c1e1e0f0f8787c3c3e1e1f0f078783c3c> PTRN} bind def
/Pattern10 {<7878f0f0e1e1c3c387870f0f1e1e3c3c7878f0f0e1e1c3c387870f0f1e1e3c3c> PTRN} bind def
/Pattern11 {<3333333333333333333333333333333333333333333333333333333333333333> PTRN} bind def
/Pattern12 {<ffffffff00000000ffffffff00000000ffffffff00000000ffffffff00000000> PTRN} bind def
/Pattern13 {<8181424224241818181824244242818181814242242418181818242442428181> PTRN} bind def
/Pattern14 {<8080404020201010080804040202010180804040202010100808040402020101> PTRN} bind def
/Pattern15 {<0101020204040808101020204040808001010202040408081010202040408080> PTRN} bind def
/Pattern16 {<2222222222222222222222222222222222222222222222222222222222222222> PTRN} bind def
/Pattern17 {<0000ffff000000000000ffff000000000000ffff000000000000ffff00000000> PTRN} bind def
/Pattern18 {<2222ffff222222222222ffff222222222222ffff222222222222ffff22222222> PTRN} bind def
/Pattern19 {<ffffffff33333333ffffffff33333333ffffffff33333333ffffffff33333333> PTRN} bind def
/Pattern20 {<0f0f0f0f0f0f0f0ff0f0f0f0f0f0f0f00f0f0f0f0f0f0f0ff0f0f0f0f0f0f0f0> PTRN} bind def
/Pattern21 {<ff00ff00ff00ff00ff00ff00ff00ff0000ff00ff00ff00ff00ff00ff00ff00ff> PTRN} bind def
/Pattern22 {<8001800180018001800180018001ffffffff8001800180018001800180018001> PTRN} bind def
/Pattern23 {<c003c003c003c003c003c003ffffffffffffffffc003c003c003c003c003c003> PTRN} bind def
/Pattern24 {<040404040404ffff404040404040ffff040404040404ffff404040404040ffff> PTRN} bind def
/Pattern25 {<180018001800180018001800ffffffff001800180018001800180018ffffffff> PTRN} bind def
/Pattern26 {<1111b8b87c7c3a3a1111a3a3c7c78b8b1111b8b87c7c3a3a1111a3a3c7c78b8b> PTRN} bind def
/Pattern27 {<101010102828c7c70101010182827c7c101010102828c7c70101010182827c7c> PTRN} bind def
/Pattern28 {<1c1c121211112121c1c12121111112121c1c121211112121c1c1212111111212> PTRN} bind def
/Pattern29 {<3e3e414180808080e3e31414080808083e3e414180808080e3e3141408080808> PTRN} bind def
/Pattern30 {<4848888884848383848488884848383848488888848483838484888848483838> PTRN} bind def
/Pattern31 {<03030404080808080c0c12122121c0c003030404080808080c0c12122121c0c0> PTRN} bind def
/ellipsedict 8 dict def
ellipsedict /mtrx matrix put
/EARC {
 ellipsedict begin
  /endangle exch def
  /startangle exch def
  /yrad exch def
  /xrad exch def
  /y exch def
  /x exch def
  /savematrix mtrx currentmatrix def
  x y translate
  xrad yrad scale
  0 0 1 startangle endangle arc
  savematrix setmatrix
 end
} def
/TL {
  /kcomp exch def
  /linewidth exch def
  /offset exch def
  GS
  0 offset rmoveto
  linewidth SLW
  dup stringwidth exch kcomp add exch RL s
  GR
} def
/KINIT
{
 /kvector exch def
 /kid 0 def
} def
/KPROC
{
 pop pop
 kvector kid get
 0 rmoveto
 /kid 1 kid add def
} def
/DefEncoding [
 /.notdef
 /.notdef
 /.notdef
 /.notdef
 /.notdef
 /.notdef
 /.notdef
 /.notdef
 /.notdef
 /.notdef
 /.notdef
 /.notdef
 /.notdef
 /.notdef
 /.notdef
 /.notdef
 /.notdef
 /.notdef
 /.notdef
 /.notdef
 /.notdef
 /.notdef
 /.notdef
 /.notdef
 /.notdef
 /.notdef
 /.notdef
 /.notdef
 /.notdef
 /.notdef
 /.notdef
 /.notdef
 /space
 /exclam
 /quotedbl
 /numbersign
 /dollar
 /percent
 /ampersand
 /quoteright
 /parenleft
 /parenright
 /asterisk
 /plus
 /comma
 /hyphen
 /period
 /slash
 /zero
 /one
 /two
 /three
 /four
 /five
 /six
 /seven
 /eight
 /nine
 /colon
 /semicolon
 /less
 /equal
 /greater
 /question
 /at
 /A
 /B
 /C
 /D
 /E
 /F
 /G
 /H
 /I
 /J
 /K
 /L
 /M
 /N
 /O
 /P
 /Q
 /R
 /S
 /T
 /U
 /V
 /W
 /X
 /Y
 /Z
 /bracketleft
 /backslash
 /bracketright
 /asciicircum
 /underscore
 /grave
 /a
 /b
 /c
 /d
 /e
 /f
 /g
 /h
 /i
 /j
 /k
 /l
 /m
 /n
 /o
 /p
 /q
 /r
 /s
 /t
 /u
 /v
 /w
 /x
 /y
 /z
 /braceleft
 /bar
 /braceright
 /asciitilde
 /.notdef
 /.notdef
 /.notdef
 /.notdef
 /.notdef
 /.notdef
 /.notdef
 /.notdef
 /.notdef
 /.notdef
 /.notdef
 /.notdef
 /.notdef
 /.notdef
 /.notdef
 /.notdef
 /.notdef
 /.notdef
 /.notdef
 /.notdef
 /.notdef
 /.notdef
 /.notdef
 /.notdef
 /.notdef
 /.notdef
 /.notdef
 /.notdef
 /.notdef
 /.notdef
 /.notdef
 /.notdef
 /.notdef
 /space
 /exclamdown
 /cent
 /sterling
 /currency
 /yen
 /brokenbar
 /section
 /dieresis
 /copyright
 /ordfeminine
 /guillemotleft
 /logicalnot
 /hyphen
 /registered
 /macron
 /degree
 /plusminus
 /twosuperior
 /threesuperior
 /acute
 /mu
 /paragraph
 /periodcentered
 /cedilla
 /onesuperior
 /ordmasculine
 /guillemotright
 /onequarter
 /onehalf
 /threequarters
 /questiondown
 /Agrave
 /Aacute
 /Acircumflex
 /Atilde
 /Adieresis
 /Aring
 /AE
 /Ccedilla
 /Egrave
 /Eacute
 /Ecircumflex
 /Edieresis
 /Igrave
 /Iacute
 /Icircumflex
 /Idieresis
 /Eth
 /Ntilde
 /Ograve
 /Oacute
 /Ocircumflex
 /Otilde
 /Odieresis
 /multiply
 /Oslash
 /Ugrave
 /Uacute
 /Ucircumflex
 /Udieresis
 /Yacute
 /Thorn
 /germandbls
 /agrave
 /aacute
 /acircumflex
 /atilde
 /adieresis
 /aring
 /ae
 /ccedilla
 /egrave
 /eacute
 /ecircumflex
 /edieresis
 /igrave
 /iacute
 /icircumflex
 /idieresis
 /eth
 /ntilde
 /ograve
 /oacute
 /ocircumflex
 /otilde
 /odieresis
 /divide
 /oslash
 /ugrave
 /uacute
 /ucircumflex
 /udieresis
 /yacute
 /thorn
 /ydieresis
] def
%%EndProlog
%%BeginSetup
%%EndSetup
612.00 612.00 scale
[/DeviceRGB] SCS
Color1 SC
[] 0 SD
0.0015 SLW
0 SLC
0 SLJ
n
0.1500 0.1500 m
1.1500 0.1500 l
s
n
0.1500 0.1900 m
1.1500 0.1900 l
s
n
0.1500 0.2300 m
1.1500 0.2300 l
s
n
0.1500 0.2700 m
1.1500 0.2700 l
s
n
0.1500 0.3100 m
1.1500 0.3100 l
s
n
0.1500 0.3500 m
1.1500 0.3500 l
s
n
0.1500 0.3900 m
1.1500 0.3900 l
s
n
0.1500 0.4300 m
1.1500 0.4300 l
s
n
0.1500 0.4700 m
1.1500 0.4700 l
s
n
0.1500 0.5100 m
1.1500 0.5100 l
s
n
0.1500 0.5500 m
1.1500 0.5500 l
s
[/DeviceRGB] SCS
Color2 SC
[] 0 SD
0.0023 SLW
n
0.1500 0.1727 m
0.1667 0.1578 l
0.1833 0.1525 l
0.2000 0.2597 l
0.2167 0.1735 l
0.2333 0.1520 l
0.2500 0.1750 l
0.2667 0.1740 l
0.2833 0.1886 l
0.3000 0.2137 l
0.3167 0.1702 l
0.3333 0.1856 l
0.3500 0.2472 l
0.3667 0.2410 l
0.3833 0.1522 l
0.4000 0.2236 l
0.4167 0.2462 l
0.4333 0.1603 l
0.4500 0.1587 l
0.4667 0.1524 l
0.4833 0.2182 l
0.5000 0.1827 l
0.5167 0.1531 l
0.5333 0.2088 l
0.5500 0.1812 l
0.5667 0.1660 l
0.5833 0.1596 l
0.6000 0.1728 l
0.6167 0.2083 l
0.6333 0.1588 l
0.6500 0.1618 l
0.6667 0.1804 l
0.6833 0.1569 l
0.7000 0.2108 l
0.7167 0.1787 l
0.7333 0.2216 l
0.7500 0.2128 l
0.7667 0.1874 l
0.7833 0.1545 l
0.8000 0.2583 l
0.8167 0.2681 l
0.8333 0.1725 l
0.8500 0.1587 l
0.8667 0.1732 l
0.8833 0.1891 l
0.9000 0.1802 l
0.9167 0.2708 l
0.9333 0.1742 l
0.9500 0.1578 l
0.9667 0.1562 l
0.9833 0.1838 l
1.0000 0.1822 l
1.0167 0.1842 l
1.0333 0.1685 l
1.0500 0.1935 l
1.0667 0.1761 l
1.0833 0.2189 l
s
n
0.1500 0.1727 0.0049 0.0049 0 360 EARC c
fill
[] 0 SD
0.0015 SLW
n 0.1500 0.1727 0.0049 0.0049 0 360 EARC s
n
0.1667 0.1578 0.0049 0.0049 0 360 EARC c
fill
n 0.1667 0.1578 0.0049 0.0049 0 360 EARC s
n
0.1833 0.1525 0.0049 0.0049 0 360 EARC c
fill
n 0.1833 0.1525 0.0049 0.0049 0 360 EARC s
n
0.2000 0.2597 0.0049 0.0049 0 360 EARC c
fill
n 0.2000 0.2597 0.0049 0.0049 0 360 EARC s
n
0.2167 0.1735 0.0049 0.0049 0 360 EARC c
fill
n 0.2167 0.1735 0.0049 0.0049 0 360 EARC s
n
0.2333 0.1520 0.0049 0.0049 0 360 EARC c
fill
n 0.2333 0.1520 0.0049 0.0049 0 360 EARC s
n
0.2500 0.1750 0.0049 0.0049 0 360 EARC c
fill
n 0.2500 0.1750 0.0049 0.0049 0 360 EARC s
n
0.2667 0.1740 0.0049 0.0049 0 360 EARC c
fill
n 0.2667 0.1740 0.0049 0.0049 0 360 EARC s
n
0.2833 0.1886 0.0049 0.0049 0 360 EARC c
fill
n 0.2833 0.1886 0.0049 0.0049 0 360 EARC s
n
0.3000 0.2137 0.0049 0.0049 0 360 EARC c
fill
n 0.3000 0.2137 0.0049 0.0049 0 360 EARC s
n
0.3167 0.1702 0.0049 0.0049 0 360 EARC c
fill
n 0.3167 0.1702 0.0049 0.0049 0 360 EARC s
n
0.3333 0.1856 0.0049 0.0049 0 360 EARC c
fill
n 0.3333 0.1856 0.0049 0.0049 0 360 EARC s
n
0.3500 0.2472 0.0049 0.0049 0 360 EARC c
fill
n 0.3500 0.2472 0.0049 0.0049 0 360 EARC s
n
0.3667 0.2410 0.0049 0.0049 0 360 EARC c
fill
n 0.3667 0.2410 0.0049 0.0049 0 360 EARC s
n
0.3833 0.1522 0.0049 0.0049 0 360 EARC c
fill
n 0.3833 0.1522 0.0049 0.0049 0 360 EARC s
n
0.4000 0.2236 0.0049 0.0049 0 360 EARC c
fill
n 0.4000 0.2236 0.0049 0.0049 0 360 EARC s
n
0.4167 0.2462 0.0049 0.0049 0 360 EARC c
fill
n 0.4167 0.2462 0.0049 0.0049 0 360 EARC s
n
0.4333 0.1603 0.0049 0.0049 0 360 EARC c
fill
n 0.4333 0.1603 0.0049 0.0049 0 360 EARC s
n
0.4500 0.1587 0.0049 0.0049 0 360 EARC c
fill
n 0.4500 0.1587 0.0049 0.0049 0 360 EARC s
n
0.4667 0.1524 0.0049 0.0049 0 360 EARC c
fill
n 0.4667 0.1524 0.0049 0.0049 0 360 EARC s
n
0.4833 0.2182 0.0049 0.0049 0 360 EARC c
fill
n 0.4833 0.2182 0.0049 0.0049 0 360 EARC s
n
0.5000 0.1827 0.0049 0.0049 0 360 EARC c
fill
n 0.5000 0.1827 0.0049 0.0049 0 360 EARC s
n
0.5167 0.1531 0.0049 0.0049 0 360 EARC c
fill
n 0.5167 0.1531 0.0049 0.0049 0 360 EARC s
n
0.5333 0.2088 0.0049 0.0049 0 360 EARC c
fill
n 0.5333 0.2088 0.0049 0.0049 0 360 EARC s
n
0.5500 0.1812 0.0049 0.0049 0 360 EARC c
fill
n 0.5500 0.1812 0.0049 0.0049 0 360 EARC s
n
0.5667 0.1660 0.0049 0.0049 0 360 EARC c
fill
n 0.5667 0.1660 0.0049 0.0049 0 360 EARC s
n
0.5833 0.1596 0.0049 0.0049 0 360 EARC c
fill
n 0.5833 0.1596 0.0049 0.0049 0 360 EARC s
n
0.6000 0.1728 0.0049 0.0049 0 360 EARC c
fill
n 0.6000 0.1728 0.0049 0.0049 0 360 EARC s
n
0.6167 0.2083 0.0049 0.0049 0 360 EARC c
fill
n 0.6167 0.2083 0.0049 0.0049 0 360 EARC s
n
0.6333 0.1588 0.0049 0.0049 0 360 EARC c
fill
n 0.6333 0.1588 0.0049 0.0049 0 360 EARC s
n
0.6500 0.1618 0.0049 0.0049 0 360 EARC c
fill
n 0.6500 0.1618 0.0049 0.0049 0 360 EARC s
n
0.6667 0.1804 0.0049 0.0049 0 360 EARC c
fill
n 0.6667 0.1804 0.0049 0.0049 0 360 EARC s
n
0.6833 0.1569 0.0049 0.0049 0 360 EARC c
fill
n 0.6833 0.1569 0.0049 0.0049 0 360 EARC s
n
0.7000 0.2108 0.0049 0.0049 0 360 EARC c
fill
n 0.7000 0.2108 0.0049 0.0049 0 360 EARC s
n
0.7167 0.1787 0.0049 0.0049 0 360 EARC c
fill
n 0.7167 0.1787 0.0049 0.0049 0 360 EARC s
n
0.7333 0.2216 0.0049 0.0049 0 360 EARC c
fill
n 0.7333 0.2216 0.0049 0.0049 0 360 EARC s
n
0.7500 0.2128 0.0049 0.0049 0 360 EARC c
fill
n 0.7500 0.2128 0.0049 0.0049 0 360 EARC s
n
0.7667 0.1874 0.0049 0.0049 0 360 EARC c
fill
n 0.7667 0.1874 0.0049 0.0049 0 360 EARC s
n
0.7833 0.1545 0.0049 0.0049 0 360 EARC c
fill
n 0.7833 0.1545 0.0049 0.0049 0 360 EARC s
n
0.8000 0.2583 0.0049 0.0049 0 360 EARC c
fill
n 0.8000 0.2583 0.0049 0.0049 0 360 EARC s
n
0.8167 0.2681 0.0049 0.0049 0 360 EARC c
fill
n 0.8167 0.2681 0.0049 0.0049 0 360 EARC s
n
0.8333 0.1725 0.0049 0.0049 0 360 EARC c
fill
n 0.8333 0.1725 0.0049 0.0049 0 360 EARC s
n
0.8500 0.1587 0.0049 0.0049 0 360 EARC c
fill
n 0.8500 0.1587 0.0049 0.0049 0 360 EARC s
n
0.8667 0.1732 0.0049 0.0049 0 360 EARC c
fill
n 0.8667 0.1732 0.0049 0.0049 0 360 EARC s
n
0.8833 0.1891 0.0049 0.0049 0 360 EARC c
fill
n 0.8833 0.1891 0.0049 0.0049 0 360 EARC s
n
0.9000 0.1802 0.0049 0.0049 0 360 EARC c
fill
n 0.9000 0.1802 0.0049 0.0049 0 360 EARC s
n
0.9167 0.2708 0.0049 0.0049 0 360 EARC c
fill
n 0.9167 0.2708 0.0049 0.0049 0 360 EARC s
n
0.9333 0.1742 0.0049 0.0049 0 360 EARC c
fill
n 0.9333 0.1742 0.0049 0.0049 0 360 EARC s
n
0.9500 0.1578 0.0049 0.0049 0 360 EARC c
fill
n 0.9500 0.1578 0.0049 0.0049 0 360 EARC s
n
0.9667 0.1562 0.0049 0.0049 0 360 EARC c
fill
n 0.9667 0.1562 0.0049 0.0049 0 360 EARC s
n
0.9833 0.1838 0.0049 0.0049 0 360 EARC c
fill
n 0.9833 0.1838 0.0049 0.0049 0 360 EARC s
n
1.0000 0.1822 0.0049 0.0049 0 360 EARC c
fill
n 1.0000 0.1822 0.0049 0.0049 0 360 EARC s
n
1.0167 0.1842 0.0049 0.0049 0 360 EARC c
fill
n 1.0167 0.1842 0.0049 0.0049 0 360 EARC s
n
1.0333 0.1685 0.0049 0.0049 0 360 EARC c
fill
n 1.0333 0.1685 0.0049 0.0049 0 360 EARC s
n
1.0500 0.1935 0.0049 0.0049 0 360 EARC c
fill
n 1.0500 0.1935 0.0049 0.0049 0 360 EARC s
n
1.0667 0.1761 0.0049 0.0049 0 360 EARC c
fill
n 1.0667 0.1761 0.0049 0.0049 0 360 EARC s
n
1.0833 0.2189 0.0049 0.0049 0 360 EARC c
fill
n 1.0833 0.2189 0.0049 0.0049 0 360 EARC s
n
0.1500 0.1727 m
0.1667 0.1578 l
0.1833 0.1525 l
0.2000 0.2597 l
0.2167 0.1735 l
0.2333 0.1520 l
0.2500 0.1750 l
0.2667 0.1740 l
0.2833 0.1886 l
0.3000 0.2137 l
0.3167 0.1702 l
0.3333 0.1856 l
0.3500 0.2472 l
0.3667 0.2410 l
0.3833 0.1522 l
0.4000 0.2236 l
0.4167 0.2462 l
0.4333 0.1603 l
0.4500 0.1587 l
0.4667 0.1524 l
0.4833 0.2182 l
0.5000 0.1827 l
0.5167 0.1531 l
0.5333 0.2094 l
0.5500 0.1812 l
0.5667 0.1660 l
0.5833 0.1596 l
0.6000 0.1728 l
0.6167 0.2083 l
0.6333 0.1588 l
0.6500 0.1618 l
0.6667 0.1804 l
0.6833 0.1569 l
0.7000 0.2108 l
0.7167 0.1787 l
0.7333 0.2216 l
0.7500 0.2128 l
0.7667 0.1874 l
0.7833 0.1545 l
0.8000 0.2583 l
0.8167 0.2681 l
0.8333 0.1725 l
0.8500 0.1587 l
0.8667 0.1732 l
0.8833 0.1891 l
0.9000 0.1802 l
0.9167 0.2708 l
0.9333 0.1742 l
0.9500 0.1578 l
0.9667 0.1562 l
0.9833 0.1838 l
1.0000 0.1822 l
1.0167 0.1842 l
1.0333 0.1685 l
1.0500 0.1935 l
1.0667 0.1761 l
1.0833 0.2189 l
s
[/DeviceRGB] SCS
Color1 SC
n
0.1500 0.1500 m
1.1500 0.1500 l
s
n
0.1500 0.1500 m
0.1500 0.1634 l
s
n
0.1667 0.1500 m
0.1667 0.1634 l
s
n
0.1833 0.1500 m
0.1833 0.1634 l
s
n
0.2000 0.1500 m
0.2000 0.1634 l
s
n
0.2167 0.1500 m
0.2167 0.1634 l
s
n
0.2333 0.1500 m
0.2333 0.1634 l
s
n
0.2500 0.1500 m
0.2500 0.1634 l
s
n
0.2667 0.1500 m
0.2667 0.1634 l
s
n
0.2833 0.1500 m
0.2833 0.1634 l
s
n
0.3000 0.1500 m
0.3000 0.1634 l
s
n
0.3167 0.1500 m
0.3167 0.1634 l
s
n
0.3333 0.1500 m
0.3333 0.1634 l
s
n
0.3500 0.1500 m
0.3500 0.1634 l
s
n
0.3667 0.1500 m
0.3667 0.1634 l
s
n
0.3833 0.1500 m
0.3833 0.1634 l
s
n
0.4000 0.1500 m
0.4000 0.1634 l
s
n
0.4167 0.1500 m
0.4167 0.1634 l
s
n
0.4333 0.1500 m
0.4333 0.1634 l
s
n
0.4500 0.1500 m
0.4500 0.1634 l
s
n
0.4667 0.1500 m
0.4667 0.1634 l
s
n
0.4833 0.1500 m
0.4833 0.1634 l
s
n
0.5000 0.1500 m
0.5000 0.1634 l
s
n
0.5167 0.1500 m
0.5167 0.1634 l
s
n
0.5333 0.1500 m
0.5333 0.1634 l
s
n
0.5500 0.1500 m
0.5500 0.1634 l
s
n
0.5667 0.1500 m
0.5667 0.1634 l
s
n
0.5833 0.1500 m
0.5833 0.1634 l
s
n
0.6000 0.1500 m
0.6000 0.1634 l
s
n
0.6167 0.1500 m
0.6167 0.1634 l
s
n
0.6333 0.1500 m
0.6333 0.1634 l
s
n
0.6500 0.1500 m
0.6500 0.1634 l
s
n
0.6667 0.1500 m
0.6667 0.1634 l
s
n
0.6833 0.1500 m
0.6833 0.1634 l
s
n
0.7000 0.1500 m
0.7000 0.1634 l
s
n
0.7167 0.1500 m
0.7167 0.1634 l
s
n
0.7333 0.1500 m
0.7333 0.1634 l
s
n
0.7500 0.1500 m
0.7500 0.1634 l
s
n
0.7667 0.1500 m
0.7667 0.1634 l
s
n
0.7833 0.1500 m
0.7833 0.1634 l
s
n
0.8000 0.1500 m
0.8000 0.1634 l
s
n
0.8167 0.1500 m
0.8167 0.1634 l
s
n
0.8333 0.1500 m
0.8333 0.1634 l
s
n
0.8500 0.1500 m
0.8500 0.1634 l
s
n
0.8667 0.1500 m
0.8667 0.1634 l
s
n
0.8833 0.1500 m
0.8833 0.1634 l
s
n
0.9000 0.1500 m
0.9000 0.1634 l
s
n
0.9167 0.1500 m
0.9167 0.1634 l
s
n
0.9333 0.1500 m
0.9333 0.1634 l
s
n
0.9500 0.1500 m
0.9500 0.1634 l
s
n
0.9667 0.1500 m
0.9667 0.1634 l
s
n
0.9833 0.1500 m
0.9833 0.1634 l
s
n
1.0000 0.1500 m
1.0000 0.1634 l
s
n
1.0167 0.1500 m
1.0167 0.1634 l
s
n
1.0333 0.1500 m
1.0333 0.1634 l
s
n
1.0500 0.1500 m
1.0500 0.1634 l
s
n
1.0667 0.1500 m
1.0667 0.1634 l
s
n
1.0833 0.1500 m
1.0833 0.1634 l
s
/Times-Roman findfont
dup length dict begin
 {1 index /FID ne {def} {pop pop} ifelse} forall
 /Encoding DefEncoding def
 currentdict
end
/Font0 exch definefont pop
/Font0 FFSF
0.1531 0.1165 m
GS
[0.0000 0.0137 -0.0137 0.0000 0 0] CC
(AgS) show
GR
/Font0 FFSF
0.1714 0.0990 m
GS
[0.0000 0.0137 -0.0137 0.0000 0 0] CC
(AlP) show
GR
/Font0 FFSF
0.1880 0.1165 m
GS
[0.0000 0.0137 -0.0137 0.0000 0 0] CC
(AuS) show
GR
/Font0 FFSF
0.2047 0.0982 m
GS
[0.0000 0.0137 -0.0137 0.0000 0 0] CC
(BaS) show
GR
/Font0 FFSF
0.2214 0.1180 m
GS
[0.0000 0.0137 -0.0137 0.0000 0 0] CC
(BeS) show
GR
/Font0 FFSF
0.2378 0.1037 m
GS
[0.0000 0.0137 -0.0137 0.0000 0 0] CC
(BP) show
GR
/Font0 FFSF
0.2547 0.1180 m
GS
[0.0000 0.0137 -0.0137 0.0000 0 0] CC
(CaS) show
GR
/Font0 FFSF
0.2714 0.0975 m
GS
[0.0000 0.0137 -0.0137 0.0000 0 0] CC
(CdS) show
GR
/Font0 FFSF
0.2880 0.1173 m
GS
[0.0000 0.0137 -0.0137 0.0000 0 0] CC
(CoS) show
GR
/Font0 FFSF
0.3047 0.0998 m
GS
[0.0000 0.0137 -0.0137 0.0000 0 0] CC
(CrS) show
GR
/Font0 FFSF
0.3212 0.1118 m
GS
[0.0000 0.0137 -0.0137 0.0000 0 0] CC
(CsBr) show
GR
/Font0 FFSF
0.3380 0.0998 m
GS
[0.0000 0.0137 -0.0137 0.0000 0 0] CC
(CSi) show
GR
/Font0 FFSF
0.3547 0.1173 m
GS
[0.0000 0.0137 -0.0137 0.0000 0 0] CC
(CuS) show
GR
/Font0 FFSF
0.3714 0.0998 m
GS
[0.0000 0.0137 -0.0137 0.0000 0 0] CC
(FeS) show
GR
/Font0 FFSF
0.3878 0.1094 m
GS
[0.0000 0.0137 -0.0137 0.0000 0 0] CC
(GaAs) show
GR
/Font0 FFSF
0.4045 0.0916 m
GS
[0.0000 0.0137 -0.0137 0.0000 0 0] CC
(GaBi) show
GR
/Font0 FFSF
0.4212 0.1141 m
GS
[0.0000 0.0137 -0.0137 0.0000 0 0] CC
(GaN) show
GR
/Font0 FFSF
0.4378 0.0967 m
GS
[0.0000 0.0137 -0.0137 0.0000 0 0] CC
(GaP) show
GR
/Font0 FFSF
0.4547 0.1102 m
GS
[0.0000 0.0137 -0.0137 0.0000 0 0] CC
(GaSb) show
GR
/Font0 FFSF
0.4714 0.0900 m
GS
[0.0000 0.0137 -0.0137 0.0000 0 0] CC
(GeSn) show
GR
/Font0 FFSF
0.4880 0.1188 m
GS
[0.0000 0.0137 -0.0137 0.0000 0 0] CC
(HfS) show
GR
/Font0 FFSF
0.5031 0.0967 m
GS
[0.0000 0.0137 -0.0137 0.0000 0 0] CC
(HgS) show
GR
/Font0 FFSF
0.5212 0.1212 m
GS
[0.0000 0.0137 -0.0137 0.0000 0 0] CC
(InP) show
GR
/Font0 FFSF
0.5380 0.1045 m
GS
[0.0000 0.0137 -0.0137 0.0000 0 0] CC
(IrS) show
GR
/Font0 FFSF
0.5545 0.1180 m
GS
[0.0000 0.0137 -0.0137 0.0000 0 0] CC
(LaP) show
GR
/Font0 FFSF
0.5712 0.0943 m
GS
[0.0000 0.0137 -0.0137 0.0000 0 0] CC
(LiBr) show
GR
/Font0 FFSF
0.5865 0.1141 m
GS
[0.0000 0.0137 -0.0137 0.0000 0 0] CC
(MgS) show
GR
/Font0 FFSF
0.6047 0.0943 m
GS
[0.0000 0.0137 -0.0137 0.0000 0 0] CC
(MnS) show
GR
/Font0 FFSF
0.6214 0.1141 m
GS
[0.0000 0.0137 -0.0137 0.0000 0 0] CC
(MoS) show
GR
/Font0 FFSF
0.6378 0.0904 m
GS
[0.0000 0.0137 -0.0137 0.0000 0 0] CC
(NaBr) show
GR
/Font0 FFSF
0.6547 0.1114 m
GS
[0.0000 0.0137 -0.0137 0.0000 0 0] CC
(NaCl) show
GR
/Font0 FFSF
0.6712 0.0967 m
GS
[0.0000 0.0137 -0.0137 0.0000 0 0] CC
(NaF) show
GR
/Font0 FFSF
0.6878 0.1196 m
GS
[0.0000 0.0137 -0.0137 0.0000 0 0] CC
(NaI) show
GR
/Font0 FFSF
0.7047 0.0967 m
GS
[0.0000 0.0137 -0.0137 0.0000 0 0] CC
(NbS) show
GR
/Font0 FFSF
0.7214 0.1196 m
GS
[0.0000 0.0137 -0.0137 0.0000 0 0] CC
(NiS) show
GR
/Font0 FFSF
0.7380 0.0982 m
GS
[0.0000 0.0137 -0.0137 0.0000 0 0] CC
(OsS) show
GR
/Font0 FFSF
0.7547 0.1188 m
GS
[0.0000 0.0137 -0.0137 0.0000 0 0] CC
(PdS) show
GR
/Font0 FFSF
0.7714 0.1022 m
GS
[0.0000 0.0137 -0.0137 0.0000 0 0] CC
(PtS) show
GR
/Font0 FFSF
0.7880 0.1180 m
GS
[0.0000 0.0137 -0.0137 0.0000 0 0] CC
(ReS) show
GR
/Font0 FFSF
0.8047 0.0975 m
GS
[0.0000 0.0137 -0.0137 0.0000 0 0] CC
(RhS) show
GR
/Font0 FFSF
0.8214 0.1173 m
GS
[0.0000 0.0137 -0.0137 0.0000 0 0] CC
(RuS) show
GR
/Font0 FFSF
0.8380 0.0990 m
GS
[0.0000 0.0137 -0.0137 0.0000 0 0] CC
(ScP) show
GR
/Font0 FFSF
0.8547 0.1129 m
GS
[0.0000 0.0137 -0.0137 0.0000 0 0] CC
(SiGe) show
GR
/Font0 FFSF
0.8714 0.0920 m
GS
[0.0000 0.0137 -0.0137 0.0000 0 0] CC
(SnPb) show
GR
/Font0 FFSF
0.8880 0.1212 m
GS
[0.0000 0.0137 -0.0137 0.0000 0 0] CC
(SrS) show
GR
/Font0 FFSF
0.9047 0.0990 m
GS
[0.0000 0.0137 -0.0137 0.0000 0 0] CC
(TaS) show
GR
/Font0 FFSF
0.9214 0.1188 m
GS
[0.0000 0.0137 -0.0137 0.0000 0 0] CC
(TcS) show
GR
/Font0 FFSF
0.9380 0.1014 m
GS
[0.0000 0.0137 -0.0137 0.0000 0 0] CC
(TiS) show
GR
/Font0 FFSF
0.9547 0.1204 m
GS
[0.0000 0.0137 -0.0137 0.0000 0 0] CC
(TlP) show
GR
/Font0 FFSF
0.9714 0.1037 m
GS
[0.0000 0.0137 -0.0137 0.0000 0 0] CC
(VS) show
GR
/Font0 FFSF
0.9880 0.1204 m
GS
[0.0000 0.0137 -0.0137 0.0000 0 0] CC
(WS) show
GR
/Font0 FFSF
1.0045 0.1029 m
GS
[0.0000 0.0137 -0.0137 0.0000 0 0] CC
(YP) show
GR
/Font0 FFSF
1.0212 0.1153 m
GS
[0.0000 0.0137 -0.0137 0.0000 0 0] CC
(ZnO) show
GR
/Font0 FFSF
1.0380 0.0982 m
GS
[0.0000 0.0137 -0.0137 0.0000 0 0] CC
(ZnS) show
GR
/Font0 FFSF
1.0547 0.1114 m
GS
[0.0000 0.0137 -0.0137 0.0000 0 0] CC
(ZnSe) show
GR
/Font0 FFSF
1.0712 0.0908 m
GS
[0.0000 0.0137 -0.0137 0.0000 0 0] CC
(ZnTe) show
GR
/Font0 FFSF
1.0880 0.1204 m
GS
[0.0000 0.0137 -0.0137 0.0000 0 0] CC
(ZrS) show
GR
n
0.1500 0.1500 m
0.1500 0.5500 l
s
n
1.1500 0.1500 m
1.1500 0.5500 l
s
n
0.1500 0.1700 m
0.1600 0.1700 l
s
n
1.1500 0.1700 m
1.1400 0.1700 l
s
n
0.1500 0.2100 m
0.1600 0.2100 l
s
n
1.1500 0.2100 m
1.1400 0.2100 l
s
n
0.1500 0.2500 m
0.1600 0.2500 l
s
n
1.1500 0.2500 m
1.1400 0.2500 l
s
n
0.1500 0.2900 m
0.1600 0.2900 l
s
n
1.1500 0.2900 m
1.1400 0.2900 l
s
n
0.1500 0.3300 m
0.1600 0.3300 l
s
n
1.1500 0.3300 m
1.1400 0.3300 l
s
n
0.1500 0.3700 m
0.1600 0.3700 l
s
n
1.1500 0.3700 m
1.1400 0.3700 l
s
n
0.1500 0.4100 m
0.1600 0.4100 l
s
n
1.1500 0.4100 m
1.1400 0.4100 l
s
n
0.1500 0.4500 m
0.1600 0.4500 l
s
n
1.1500 0.4500 m
1.1400 0.4500 l
s
n
0.1500 0.4900 m
0.1600 0.4900 l
s
n
1.1500 0.4900 m
1.1400 0.4900 l
s
n
0.1500 0.5300 m
0.1600 0.5300 l
s
n
1.1500 0.5300 m
1.1400 0.5300 l
s
n
0.1500 0.1500 m
0.1700 0.1500 l
s
n
1.1500 0.1500 m
1.1300 0.1500 l
s
n
0.1500 0.1900 m
0.1700 0.1900 l
s
n
1.1500 0.1900 m
1.1300 0.1900 l
s
n
0.1500 0.2300 m
0.1700 0.2300 l
s
n
1.1500 0.2300 m
1.1300 0.2300 l
s
n
0.1500 0.2700 m
0.1700 0.2700 l
s
n
1.1500 0.2700 m
1.1300 0.2700 l
s
n
0.1500 0.3100 m
0.1700 0.3100 l
s
n
1.1500 0.3100 m
1.1300 0.3100 l
s
n
0.1500 0.3500 m
0.1700 0.3500 l
s
n
1.1500 0.3500 m
1.1300 0.3500 l
s
n
0.1500 0.3900 m
0.1700 0.3900 l
s
n
1.1500 0.3900 m
1.1300 0.3900 l
s
n
0.1500 0.4300 m
0.1700 0.4300 l
s
n
1.1500 0.4300 m
1.1300 0.4300 l
s
n
0.1500 0.4700 m
0.1700 0.4700 l
s
n
1.1500 0.4700 m
1.1300 0.4700 l
s
n
0.1500 0.5100 m
0.1700 0.5100 l
s
n
1.1500 0.5100 m
1.1300 0.5100 l
s
n
0.1500 0.5500 m
0.1700 0.5500 l
s
n
1.1500 0.5500 m
1.1300 0.5500 l
s
/Font0 FFSF
0.1267 0.1408 m
GS
[0.0280 0.0000 0.0000 0.0280 0 0] CC
(0) show
GR
/Font0 FFSF
0.1290 0.1806 m
GS
[0.0280 0.0000 0.0000 0.0280 0 0] CC
(1) show
GR
/Font0 FFSF
0.1267 0.2206 m
GS
[0.0280 0.0000 0.0000 0.0280 0 0] CC
(2) show
GR
/Font0 FFSF
0.1278 0.2608 m
GS
[0.0280 0.0000 0.0000 0.0280 0 0] CC
(3) show
GR
/Font0 FFSF
0.1267 0.3006 m
GS
[0.0280 0.0000 0.0000 0.0280 0 0] CC
(4) show
GR
/Font0 FFSF
0.1278 0.3406 m
GS
[0.0280 0.0000 0.0000 0.0280 0 0] CC
(5) show
GR
/Font0 FFSF
0.1271 0.3806 m
GS
[0.0280 0.0000 0.0000 0.0280 0 0] CC
(6) show
GR
/Font0 FFSF
0.1275 0.4210 m
GS
[0.0280 0.0000 0.0000 0.0280 0 0] CC
(7) show
GR
/Font0 FFSF
0.1275 0.4608 m
GS
[0.0280 0.0000 0.0000 0.0280 0 0] CC
(8) show
GR
/Font0 FFSF
0.1271 0.5010 m
GS
[0.0280 0.0000 0.0000 0.0280 0 0] CC
(9) show
GR
/Font0 FFSF
0.1125 0.5408 m
GS
[0.0280 0.0000 0.0000 0.0280 0 0] CC
(10) show
GR
/Font0 FFSF
0.0975 0.1865 m
GS
[0.0000 0.0280 -0.0280 0.0000 0 0] CC
(Delta \(meV/atom\) versus AE) show
GR
n
0.1500 0.1500 m
0.1500 0.5500 l
1.1500 0.5500 l
1.1500 0.1500 l
0.1500 0.1500 l
c
s
n
0.8500 0.5000 m
0.8500 0.4608 l
1.0368 0.4608 l
1.0368 0.5000 l
c
[/DeviceRGB] SCS
Color0 SC
fill
[/DeviceRGB] SCS
Color1 SC
n
0.8500 0.5000 m
0.8500 0.4608 l
1.0368 0.4608 l
1.0368 0.5000 l
0.8500 0.5000 l
c
s
/Font0 FFSF
0.9257 0.4712 m
GS
[0.0280 0.0000 0.0000 0.0280 0 0] CC
(JTH v1.1) show
GR
[/DeviceRGB] SCS
Color2 SC
[] 0 SD
0.0023 SLW
n
0.8657 0.4804 m
0.9057 0.4804 l
s
n
0.8657 0.4804 0.0049 0.0049 0 360 EARC c
fill
[] 0 SD
0.0015 SLW
n 0.8657 0.4804 0.0049 0.0049 0 360 EARC s
n
0.9057 0.4804 0.0049 0.0049 0 360 EARC c
fill
n 0.9057 0.4804 0.0049 0.0049 0 360 EARC s
%%Trailer
%%BoundingBox: 46 54 706 344
%%DocumentNeededResources: font Times-Roman
%%EOF
