%!PS-Adobe-3.0 EPSF-3.0
%%BoundingBox: (atend)
%%LanguageLevel: 2
%%Creator: Grace-5.1.21
%%CreationDate: Thu Mar  8 09:36:53 2018
%%DocumentData: Clean8Bit
%%Orientation: Portrait
%%Title: fig-per.agr
%%For: jolletf
%%DocumentNeededResources: (atend)
%%EndComments
%%BeginProlog
/m {moveto} def
/l {lineto} def
/s {stroke} def
/n {newpath} def
/c {closepath} def
/RL {rlineto} def
/SLW {setlinewidth} def
/GS {gsave} def
/GR {grestore} def
/SC {setcolor} def
/SGRY {setgray} def
/SRGB {setrgbcolor} def
/SD {setdash} def
/SLC {setlinecap} def
/SLJ {setlinejoin} def
/SCS {setcolorspace} def
/FFSF {findfont setfont} def
/CC {concat} def
/PXL {n m 0 0 RL s} def
/Color0 {1.0000 1.0000 1.0000} def
/Color1 {0.0000 0.0000 0.0000} def
/Color2 {1.0000 0.0000 0.0000} def
/Color3 {0.0000 1.0000 0.0000} def
/Color4 {0.0000 0.0000 1.0000} def
/Color5 {1.0000 1.0000 0.0000} def
/Color6 {0.7373 0.5608 0.5608} def
/Color7 {0.8627 0.8627 0.8627} def
/Color8 {0.5804 0.0000 0.8275} def
/Color9 {0.0000 1.0000 1.0000} def
/Color10 {1.0000 0.0000 1.0000} def
/Color11 {1.0000 0.6471 0.0000} def
/Color12 {0.4471 0.1294 0.7373} def
/Color13 {0.4039 0.0275 0.2824} def
/Color14 {0.2510 0.8784 0.8157} def
/Color15 {0.0000 0.5451 0.0000} def
/Color16 {0.7529 0.7529 0.7529} def
/Color17 {0.5059 0.5059 0.5059} def
/Color18 {0.2588 0.2588 0.2588} def
/PTRN {
 /pat_bits exch def 
 <<
  /PaintType 2
  /PatternType 1 /TilingType 1
  /BBox[0 0 16 16]
  /XStep 16 /YStep 16
  /PaintProc {
   pop
   16 16 true [-1 0 0 -1 16 16] pat_bits imagemask
  }
 >>
 [0.0016 0 0 0.0016 0 0]
 makepattern
} def
/Pattern0 {<0000000000000000000000000000000000000000000000000000000000000000> PTRN} bind def
/Pattern1 {<ffffffffffffffffffffffffffffffffffffffffffffffffffffffffffffffff> PTRN} bind def
/Pattern2 {<eeeeffffbbbbffffeeeeffffbbbbffffeeeeffffbbbbffffeeeeffffbbbbffff> PTRN} bind def
/Pattern3 {<eeeebbbbeeeebbbbeeeebbbbeeeebbbbeeeebbbbeeeebbbbeeeebbbbeeeebbbb> PTRN} bind def
/Pattern4 {<5555aaaa5555aaaa5555aaaa5555aaaa5555aaaa5555aaaa5555aaaa5555aaaa> PTRN} bind def
/Pattern5 {<1111444411114444111144441111444411114444111144441111444411114444> PTRN} bind def
/Pattern6 {<1111000044440000111100004444000011110000444400001111000044440000> PTRN} bind def
/Pattern7 {<1010000000000000010100000000000010100000000000000101000000000000> PTRN} bind def
/Pattern8 {<0000000000000000000000000000000000000000000000000000000000000000> PTRN} bind def
/Pattern9 {<1e1e0f0f8787c3c3e1e1f0f078783c3c1e1e0f0f8787c3c3e1e1f0f078783c3c> PTRN} bind def
/Pattern10 {<7878f0f0e1e1c3c387870f0f1e1e3c3c7878f0f0e1e1c3c387870f0f1e1e3c3c> PTRN} bind def
/Pattern11 {<3333333333333333333333333333333333333333333333333333333333333333> PTRN} bind def
/Pattern12 {<ffffffff00000000ffffffff00000000ffffffff00000000ffffffff00000000> PTRN} bind def
/Pattern13 {<8181424224241818181824244242818181814242242418181818242442428181> PTRN} bind def
/Pattern14 {<8080404020201010080804040202010180804040202010100808040402020101> PTRN} bind def
/Pattern15 {<0101020204040808101020204040808001010202040408081010202040408080> PTRN} bind def
/Pattern16 {<2222222222222222222222222222222222222222222222222222222222222222> PTRN} bind def
/Pattern17 {<0000ffff000000000000ffff000000000000ffff000000000000ffff00000000> PTRN} bind def
/Pattern18 {<2222ffff222222222222ffff222222222222ffff222222222222ffff22222222> PTRN} bind def
/Pattern19 {<ffffffff33333333ffffffff33333333ffffffff33333333ffffffff33333333> PTRN} bind def
/Pattern20 {<0f0f0f0f0f0f0f0ff0f0f0f0f0f0f0f00f0f0f0f0f0f0f0ff0f0f0f0f0f0f0f0> PTRN} bind def
/Pattern21 {<ff00ff00ff00ff00ff00ff00ff00ff0000ff00ff00ff00ff00ff00ff00ff00ff> PTRN} bind def
/Pattern22 {<8001800180018001800180018001ffffffff8001800180018001800180018001> PTRN} bind def
/Pattern23 {<c003c003c003c003c003c003ffffffffffffffffc003c003c003c003c003c003> PTRN} bind def
/Pattern24 {<040404040404ffff404040404040ffff040404040404ffff404040404040ffff> PTRN} bind def
/Pattern25 {<180018001800180018001800ffffffff001800180018001800180018ffffffff> PTRN} bind def
/Pattern26 {<1111b8b87c7c3a3a1111a3a3c7c78b8b1111b8b87c7c3a3a1111a3a3c7c78b8b> PTRN} bind def
/Pattern27 {<101010102828c7c70101010182827c7c101010102828c7c70101010182827c7c> PTRN} bind def
/Pattern28 {<1c1c121211112121c1c12121111112121c1c121211112121c1c1212111111212> PTRN} bind def
/Pattern29 {<3e3e414180808080e3e31414080808083e3e414180808080e3e3141408080808> PTRN} bind def
/Pattern30 {<4848888884848383848488884848383848488888848483838484888848483838> PTRN} bind def
/Pattern31 {<03030404080808080c0c12122121c0c003030404080808080c0c12122121c0c0> PTRN} bind def
/ellipsedict 8 dict def
ellipsedict /mtrx matrix put
/EARC {
 ellipsedict begin
  /endangle exch def
  /startangle exch def
  /yrad exch def
  /xrad exch def
  /y exch def
  /x exch def
  /savematrix mtrx currentmatrix def
  x y translate
  xrad yrad scale
  0 0 1 startangle endangle arc
  savematrix setmatrix
 end
} def
/TL {
  /kcomp exch def
  /linewidth exch def
  /offset exch def
  GS
  0 offset rmoveto
  linewidth SLW
  dup stringwidth exch kcomp add exch RL s
  GR
} def
/KINIT
{
 /kvector exch def
 /kid 0 def
} def
/KPROC
{
 pop pop
 kvector kid get
 0 rmoveto
 /kid 1 kid add def
} def
/DefEncoding [
 /.notdef
 /.notdef
 /.notdef
 /.notdef
 /.notdef
 /.notdef
 /.notdef
 /.notdef
 /.notdef
 /.notdef
 /.notdef
 /.notdef
 /.notdef
 /.notdef
 /.notdef
 /.notdef
 /.notdef
 /.notdef
 /.notdef
 /.notdef
 /.notdef
 /.notdef
 /.notdef
 /.notdef
 /.notdef
 /.notdef
 /.notdef
 /.notdef
 /.notdef
 /.notdef
 /.notdef
 /.notdef
 /space
 /exclam
 /quotedbl
 /numbersign
 /dollar
 /percent
 /ampersand
 /quoteright
 /parenleft
 /parenright
 /asterisk
 /plus
 /comma
 /hyphen
 /period
 /slash
 /zero
 /one
 /two
 /three
 /four
 /five
 /six
 /seven
 /eight
 /nine
 /colon
 /semicolon
 /less
 /equal
 /greater
 /question
 /at
 /A
 /B
 /C
 /D
 /E
 /F
 /G
 /H
 /I
 /J
 /K
 /L
 /M
 /N
 /O
 /P
 /Q
 /R
 /S
 /T
 /U
 /V
 /W
 /X
 /Y
 /Z
 /bracketleft
 /backslash
 /bracketright
 /asciicircum
 /underscore
 /grave
 /a
 /b
 /c
 /d
 /e
 /f
 /g
 /h
 /i
 /j
 /k
 /l
 /m
 /n
 /o
 /p
 /q
 /r
 /s
 /t
 /u
 /v
 /w
 /x
 /y
 /z
 /braceleft
 /bar
 /braceright
 /asciitilde
 /.notdef
 /.notdef
 /.notdef
 /.notdef
 /.notdef
 /.notdef
 /.notdef
 /.notdef
 /.notdef
 /.notdef
 /.notdef
 /.notdef
 /.notdef
 /.notdef
 /.notdef
 /.notdef
 /.notdef
 /.notdef
 /.notdef
 /.notdef
 /.notdef
 /.notdef
 /.notdef
 /.notdef
 /.notdef
 /.notdef
 /.notdef
 /.notdef
 /.notdef
 /.notdef
 /.notdef
 /.notdef
 /.notdef
 /space
 /exclamdown
 /cent
 /sterling
 /currency
 /yen
 /brokenbar
 /section
 /dieresis
 /copyright
 /ordfeminine
 /guillemotleft
 /logicalnot
 /hyphen
 /registered
 /macron
 /degree
 /plusminus
 /twosuperior
 /threesuperior
 /acute
 /mu
 /paragraph
 /periodcentered
 /cedilla
 /onesuperior
 /ordmasculine
 /guillemotright
 /onequarter
 /onehalf
 /threequarters
 /questiondown
 /Agrave
 /Aacute
 /Acircumflex
 /Atilde
 /Adieresis
 /Aring
 /AE
 /Ccedilla
 /Egrave
 /Eacute
 /Ecircumflex
 /Edieresis
 /Igrave
 /Iacute
 /Icircumflex
 /Idieresis
 /Eth
 /Ntilde
 /Ograve
 /Oacute
 /Ocircumflex
 /Otilde
 /Odieresis
 /multiply
 /Oslash
 /Ugrave
 /Uacute
 /Ucircumflex
 /Udieresis
 /Yacute
 /Thorn
 /germandbls
 /agrave
 /aacute
 /acircumflex
 /atilde
 /adieresis
 /aring
 /ae
 /ccedilla
 /egrave
 /eacute
 /ecircumflex
 /edieresis
 /igrave
 /iacute
 /icircumflex
 /idieresis
 /eth
 /ntilde
 /ograve
 /oacute
 /ocircumflex
 /otilde
 /odieresis
 /divide
 /oslash
 /ugrave
 /uacute
 /ucircumflex
 /udieresis
 /yacute
 /thorn
 /ydieresis
] def
%%EndProlog
%%BeginSetup
%%EndSetup
612.00 612.00 scale
[/DeviceRGB] SCS
Color1 SC
[] 0 SD
0.0015 SLW
0 SLC
0 SLJ
n
0.1500 0.1500 m
1.1500 0.1500 l
s
n
0.1500 0.1900 m
1.1500 0.1900 l
s
n
0.1500 0.2300 m
1.1500 0.2300 l
s
n
0.1500 0.2700 m
1.1500 0.2700 l
s
n
0.1500 0.3100 m
1.1500 0.3100 l
s
n
0.1500 0.3500 m
1.1500 0.3500 l
s
n
0.1500 0.3900 m
1.1500 0.3900 l
s
n
0.1500 0.4300 m
1.1500 0.4300 l
s
n
0.1500 0.4700 m
1.1500 0.4700 l
s
n
0.1500 0.5100 m
1.1500 0.5100 l
s
n
0.1500 0.5500 m
1.1500 0.5500 l
s
[/DeviceRGB] SCS
Color4 SC
[] 0 SD
0.0023 SLW
n
0.1500 0.3448 m
0.1685 0.3450 l
0.1870 0.3500 l
0.2056 0.3360 l
0.2241 0.3552 l
0.2426 0.3552 l
0.2611 0.3500 l
0.2796 0.3748 l
0.2981 0.3550 l
0.3167 0.3454 l
0.3352 0.3500 l
0.3537 0.3552 l
0.3722 0.3500 l
0.3907 0.3816 l
0.4093 0.3552 l
0.4278 0.3604 l
0.4463 0.3302 l
0.4648 0.3402 l
0.4833 0.3596 l
0.5019 0.3452 l
0.5204 0.3402 l
0.5389 0.3400 l
0.5574 0.3450 l
0.5759 0.3398 l
0.5944 0.3550 l
0.6130 0.3222 l
0.6315 0.3280 l
0.6500 0.3904 l
0.6685 0.3710 l
0.6870 0.2826 l
0.7056 0.3696 l
0.7241 0.3500 l
0.7426 0.3650 l
0.7611 0.3350 l
0.7796 0.3500 l
0.7981 0.3352 l
0.8167 0.3452 l
0.8352 0.3456 l
0.8537 0.3406 l
0.8722 0.3314 l
0.8907 0.3710 l
0.9093 0.3932 l
0.9278 0.3392 l
0.9463 0.3656 l
0.9648 0.3500 l
0.9833 0.3500 l
1.0019 0.3374 l
1.0204 0.3374 l
1.0389 0.3336 l
1.0574 0.3332 l
1.0759 0.3460 l
1.0944 0.3464 l
1.1130 0.3420 l
1.1315 0.3700 l
1.1500 0.3814 l
s
n
0.1500 0.3448 0.0049 0.0049 0 360 EARC c
fill
[] 0 SD
0.0015 SLW
n 0.1500 0.3448 0.0049 0.0049 0 360 EARC s
n
0.1685 0.3450 0.0049 0.0049 0 360 EARC c
fill
n 0.1685 0.3450 0.0049 0.0049 0 360 EARC s
n
0.1870 0.3500 0.0049 0.0049 0 360 EARC c
fill
n 0.1870 0.3500 0.0049 0.0049 0 360 EARC s
n
0.2056 0.3360 0.0049 0.0049 0 360 EARC c
fill
n 0.2056 0.3360 0.0049 0.0049 0 360 EARC s
n
0.2241 0.3552 0.0049 0.0049 0 360 EARC c
fill
n 0.2241 0.3552 0.0049 0.0049 0 360 EARC s
n
0.2426 0.3552 0.0049 0.0049 0 360 EARC c
fill
n 0.2426 0.3552 0.0049 0.0049 0 360 EARC s
n
0.2611 0.3500 0.0049 0.0049 0 360 EARC c
fill
n 0.2611 0.3500 0.0049 0.0049 0 360 EARC s
n
0.2796 0.3748 0.0049 0.0049 0 360 EARC c
fill
n 0.2796 0.3748 0.0049 0.0049 0 360 EARC s
n
0.2981 0.3550 0.0049 0.0049 0 360 EARC c
fill
n 0.2981 0.3550 0.0049 0.0049 0 360 EARC s
n
0.3167 0.3454 0.0049 0.0049 0 360 EARC c
fill
n 0.3167 0.3454 0.0049 0.0049 0 360 EARC s
n
0.3352 0.3500 0.0049 0.0049 0 360 EARC c
fill
n 0.3352 0.3500 0.0049 0.0049 0 360 EARC s
n
0.3537 0.3552 0.0049 0.0049 0 360 EARC c
fill
n 0.3537 0.3552 0.0049 0.0049 0 360 EARC s
n
0.3722 0.3500 0.0049 0.0049 0 360 EARC c
fill
n 0.3722 0.3500 0.0049 0.0049 0 360 EARC s
n
0.3907 0.3816 0.0049 0.0049 0 360 EARC c
fill
n 0.3907 0.3816 0.0049 0.0049 0 360 EARC s
n
0.4093 0.3552 0.0049 0.0049 0 360 EARC c
fill
n 0.4093 0.3552 0.0049 0.0049 0 360 EARC s
n
0.4278 0.3604 0.0049 0.0049 0 360 EARC c
fill
n 0.4278 0.3604 0.0049 0.0049 0 360 EARC s
n
0.4463 0.3302 0.0049 0.0049 0 360 EARC c
fill
n 0.4463 0.3302 0.0049 0.0049 0 360 EARC s
n
0.4648 0.3402 0.0049 0.0049 0 360 EARC c
fill
n 0.4648 0.3402 0.0049 0.0049 0 360 EARC s
n
0.4833 0.3596 0.0049 0.0049 0 360 EARC c
fill
n 0.4833 0.3596 0.0049 0.0049 0 360 EARC s
n
0.5019 0.3452 0.0049 0.0049 0 360 EARC c
fill
n 0.5019 0.3452 0.0049 0.0049 0 360 EARC s
n
0.5204 0.3402 0.0049 0.0049 0 360 EARC c
fill
n 0.5204 0.3402 0.0049 0.0049 0 360 EARC s
n
0.5389 0.3400 0.0049 0.0049 0 360 EARC c
fill
n 0.5389 0.3400 0.0049 0.0049 0 360 EARC s
n
0.5574 0.3450 0.0049 0.0049 0 360 EARC c
fill
n 0.5574 0.3450 0.0049 0.0049 0 360 EARC s
n
0.5759 0.3398 0.0049 0.0049 0 360 EARC c
fill
n 0.5759 0.3398 0.0049 0.0049 0 360 EARC s
n
0.5944 0.3550 0.0049 0.0049 0 360 EARC c
fill
n 0.5944 0.3550 0.0049 0.0049 0 360 EARC s
n
0.6130 0.3222 0.0049 0.0049 0 360 EARC c
fill
n 0.6130 0.3222 0.0049 0.0049 0 360 EARC s
n
0.6315 0.3280 0.0049 0.0049 0 360 EARC c
fill
n 0.6315 0.3280 0.0049 0.0049 0 360 EARC s
n
0.6500 0.3904 0.0049 0.0049 0 360 EARC c
fill
n 0.6500 0.3904 0.0049 0.0049 0 360 EARC s
n
0.6685 0.3710 0.0049 0.0049 0 360 EARC c
fill
n 0.6685 0.3710 0.0049 0.0049 0 360 EARC s
n
0.6870 0.2826 0.0049 0.0049 0 360 EARC c
fill
n 0.6870 0.2826 0.0049 0.0049 0 360 EARC s
n
0.7056 0.3696 0.0049 0.0049 0 360 EARC c
fill
n 0.7056 0.3696 0.0049 0.0049 0 360 EARC s
n
0.7241 0.3500 0.0049 0.0049 0 360 EARC c
fill
n 0.7241 0.3500 0.0049 0.0049 0 360 EARC s
n
0.7426 0.3650 0.0049 0.0049 0 360 EARC c
fill
n 0.7426 0.3650 0.0049 0.0049 0 360 EARC s
n
0.7611 0.3350 0.0049 0.0049 0 360 EARC c
fill
n 0.7611 0.3350 0.0049 0.0049 0 360 EARC s
n
0.7796 0.3500 0.0049 0.0049 0 360 EARC c
fill
n 0.7796 0.3500 0.0049 0.0049 0 360 EARC s
n
0.7981 0.3352 0.0049 0.0049 0 360 EARC c
fill
n 0.7981 0.3352 0.0049 0.0049 0 360 EARC s
n
0.8167 0.3452 0.0049 0.0049 0 360 EARC c
fill
n 0.8167 0.3452 0.0049 0.0049 0 360 EARC s
n
0.8352 0.3456 0.0049 0.0049 0 360 EARC c
fill
n 0.8352 0.3456 0.0049 0.0049 0 360 EARC s
n
0.8537 0.3406 0.0049 0.0049 0 360 EARC c
fill
n 0.8537 0.3406 0.0049 0.0049 0 360 EARC s
n
0.8722 0.3314 0.0049 0.0049 0 360 EARC c
fill
n 0.8722 0.3314 0.0049 0.0049 0 360 EARC s
n
0.8907 0.3710 0.0049 0.0049 0 360 EARC c
fill
n 0.8907 0.3710 0.0049 0.0049 0 360 EARC s
n
0.9093 0.3932 0.0049 0.0049 0 360 EARC c
fill
n 0.9093 0.3932 0.0049 0.0049 0 360 EARC s
n
0.9278 0.3392 0.0049 0.0049 0 360 EARC c
fill
n 0.9278 0.3392 0.0049 0.0049 0 360 EARC s
n
0.9463 0.3656 0.0049 0.0049 0 360 EARC c
fill
n 0.9463 0.3656 0.0049 0.0049 0 360 EARC s
n
0.9648 0.3500 0.0049 0.0049 0 360 EARC c
fill
n 0.9648 0.3500 0.0049 0.0049 0 360 EARC s
n
0.9833 0.3500 0.0049 0.0049 0 360 EARC c
fill
n 0.9833 0.3500 0.0049 0.0049 0 360 EARC s
n
1.0019 0.3374 0.0049 0.0049 0 360 EARC c
fill
n 1.0019 0.3374 0.0049 0.0049 0 360 EARC s
n
1.0204 0.3374 0.0049 0.0049 0 360 EARC c
fill
n 1.0204 0.3374 0.0049 0.0049 0 360 EARC s
n
1.0389 0.3336 0.0049 0.0049 0 360 EARC c
fill
n 1.0389 0.3336 0.0049 0.0049 0 360 EARC s
n
1.0574 0.3332 0.0049 0.0049 0 360 EARC c
fill
n 1.0574 0.3332 0.0049 0.0049 0 360 EARC s
n
1.0759 0.3460 0.0049 0.0049 0 360 EARC c
fill
n 1.0759 0.3460 0.0049 0.0049 0 360 EARC s
n
1.0944 0.3464 0.0049 0.0049 0 360 EARC c
fill
n 1.0944 0.3464 0.0049 0.0049 0 360 EARC s
n
1.1130 0.3420 0.0049 0.0049 0 360 EARC c
fill
n 1.1130 0.3420 0.0049 0.0049 0 360 EARC s
n
1.1315 0.3700 0.0049 0.0049 0 360 EARC c
fill
n 1.1315 0.3700 0.0049 0.0049 0 360 EARC s
n
1.1500 0.3814 0.0049 0.0049 0 360 EARC c
fill
n 1.1500 0.3814 0.0049 0.0049 0 360 EARC s
[/DeviceRGB] SCS
Color2 SC
[] 0 SD
0.0023 SLW
n
0.1500 0.3330 m
0.1685 0.3200 l
0.1870 0.3456 l
0.2056 0.3698 l
0.2241 0.3472 l
0.2426 0.3436 l
0.2611 0.3370 l
0.2796 0.3802 l
0.2981 0.3492 l
0.3167 0.3238 l
0.3352 0.3526 l
0.3537 0.3318 l
0.3722 0.3642 l
0.3907 0.3328 l
0.4093 0.3454 l
0.4278 0.3372 l
0.4463 0.3250 l
0.4648 0.3004 l
0.4833 0.3302 l
0.5019 0.3238 l
0.5204 0.3116 l
0.5389 0.3110 l
0.5574 0.3140 l
0.5759 0.2950 l
0.5944 0.2994 l
0.6130 0.3018 l
0.6315 0.3102 l
0.6500 0.3500 l
0.6685 0.3546 l
0.6870 0.2826 l
0.7056 0.3240 l
0.7241 0.3304 l
0.7426 0.3478 l
0.7611 0.3708 l
0.7796 0.3308 l
0.7981 0.4198 l
0.8167 0.3688 l
0.8352 0.3518 l
0.8537 0.3436 l
0.8722 0.3142 l
0.8907 0.3318 l
0.9093 0.3502 l
0.9278 0.2992 l
0.9463 0.3630 l
0.9648 0.3358 l
0.9833 0.3392 l
1.0019 0.3252 l
1.0204 0.3274 l
1.0389 0.3310 l
1.0574 0.3256 l
1.0759 0.3504 l
1.0944 0.3436 l
1.1130 0.3420 l
1.1315 0.3846 l
1.1500 0.3968 l
s
n
0.1458 0.3288 m
0.1458 0.3372 l
0.1542 0.3372 l
0.1542 0.3288 l
c
fill
[] 0 SD
0.0015 SLW
n
0.1458 0.3288 m
0.1458 0.3372 l
0.1542 0.3372 l
0.1542 0.3288 l
0.1458 0.3288 l
c
s
n
0.1644 0.3158 m
0.1644 0.3242 l
0.1727 0.3242 l
0.1727 0.3158 l
c
fill
n
0.1644 0.3158 m
0.1644 0.3242 l
0.1727 0.3242 l
0.1727 0.3158 l
0.1644 0.3158 l
c
s
n
0.1829 0.3414 m
0.1829 0.3498 l
0.1912 0.3498 l
0.1912 0.3414 l
c
fill
n
0.1829 0.3414 m
0.1829 0.3498 l
0.1912 0.3498 l
0.1912 0.3414 l
0.1829 0.3414 l
c
s
n
0.2014 0.3656 m
0.2014 0.3740 l
0.2097 0.3740 l
0.2097 0.3656 l
c
fill
n
0.2014 0.3656 m
0.2014 0.3740 l
0.2097 0.3740 l
0.2097 0.3656 l
0.2014 0.3656 l
c
s
n
0.2199 0.3430 m
0.2199 0.3514 l
0.2282 0.3514 l
0.2282 0.3430 l
c
fill
n
0.2199 0.3430 m
0.2199 0.3514 l
0.2282 0.3514 l
0.2282 0.3430 l
0.2199 0.3430 l
c
s
n
0.2384 0.3394 m
0.2384 0.3478 l
0.2468 0.3478 l
0.2468 0.3394 l
c
fill
n
0.2384 0.3394 m
0.2384 0.3478 l
0.2468 0.3478 l
0.2468 0.3394 l
0.2384 0.3394 l
c
s
n
0.2569 0.3328 m
0.2569 0.3412 l
0.2653 0.3412 l
0.2653 0.3328 l
c
fill
n
0.2569 0.3328 m
0.2569 0.3412 l
0.2653 0.3412 l
0.2653 0.3328 l
0.2569 0.3328 l
c
s
n
0.2755 0.3760 m
0.2755 0.3844 l
0.2838 0.3844 l
0.2838 0.3760 l
c
fill
n
0.2755 0.3760 m
0.2755 0.3844 l
0.2838 0.3844 l
0.2838 0.3760 l
0.2755 0.3760 l
c
s
n
0.2940 0.3450 m
0.2940 0.3534 l
0.3023 0.3534 l
0.3023 0.3450 l
c
fill
n
0.2940 0.3450 m
0.2940 0.3534 l
0.3023 0.3534 l
0.3023 0.3450 l
0.2940 0.3450 l
c
s
n
0.3125 0.3196 m
0.3125 0.3280 l
0.3208 0.3280 l
0.3208 0.3196 l
c
fill
n
0.3125 0.3196 m
0.3125 0.3280 l
0.3208 0.3280 l
0.3208 0.3196 l
0.3125 0.3196 l
c
s
n
0.3310 0.3484 m
0.3310 0.3568 l
0.3394 0.3568 l
0.3394 0.3484 l
c
fill
n
0.3310 0.3484 m
0.3310 0.3568 l
0.3394 0.3568 l
0.3394 0.3484 l
0.3310 0.3484 l
c
s
n
0.3495 0.3276 m
0.3495 0.3360 l
0.3579 0.3360 l
0.3579 0.3276 l
c
fill
n
0.3495 0.3276 m
0.3495 0.3360 l
0.3579 0.3360 l
0.3579 0.3276 l
0.3495 0.3276 l
c
s
n
0.3681 0.3600 m
0.3681 0.3684 l
0.3764 0.3684 l
0.3764 0.3600 l
c
fill
n
0.3681 0.3600 m
0.3681 0.3684 l
0.3764 0.3684 l
0.3764 0.3600 l
0.3681 0.3600 l
c
s
n
0.3866 0.3286 m
0.3866 0.3370 l
0.3949 0.3370 l
0.3949 0.3286 l
c
fill
n
0.3866 0.3286 m
0.3866 0.3370 l
0.3949 0.3370 l
0.3949 0.3286 l
0.3866 0.3286 l
c
s
n
0.4051 0.3412 m
0.4051 0.3496 l
0.4134 0.3496 l
0.4134 0.3412 l
c
fill
n
0.4051 0.3412 m
0.4051 0.3496 l
0.4134 0.3496 l
0.4134 0.3412 l
0.4051 0.3412 l
c
s
n
0.4236 0.3330 m
0.4236 0.3414 l
0.4319 0.3414 l
0.4319 0.3330 l
c
fill
n
0.4236 0.3330 m
0.4236 0.3414 l
0.4319 0.3414 l
0.4319 0.3330 l
0.4236 0.3330 l
c
s
n
0.4421 0.3208 m
0.4421 0.3292 l
0.4505 0.3292 l
0.4505 0.3208 l
c
fill
n
0.4421 0.3208 m
0.4421 0.3292 l
0.4505 0.3292 l
0.4505 0.3208 l
0.4421 0.3208 l
c
s
n
0.4606 0.2962 m
0.4606 0.3046 l
0.4690 0.3046 l
0.4690 0.2962 l
c
fill
n
0.4606 0.2962 m
0.4606 0.3046 l
0.4690 0.3046 l
0.4690 0.2962 l
0.4606 0.2962 l
c
s
n
0.4792 0.3260 m
0.4792 0.3344 l
0.4875 0.3344 l
0.4875 0.3260 l
c
fill
n
0.4792 0.3260 m
0.4792 0.3344 l
0.4875 0.3344 l
0.4875 0.3260 l
0.4792 0.3260 l
c
s
n
0.4977 0.3196 m
0.4977 0.3280 l
0.5060 0.3280 l
0.5060 0.3196 l
c
fill
n
0.4977 0.3196 m
0.4977 0.3280 l
0.5060 0.3280 l
0.5060 0.3196 l
0.4977 0.3196 l
c
s
n
0.5162 0.3074 m
0.5162 0.3158 l
0.5245 0.3158 l
0.5245 0.3074 l
c
fill
n
0.5162 0.3074 m
0.5162 0.3158 l
0.5245 0.3158 l
0.5245 0.3074 l
0.5162 0.3074 l
c
s
n
0.5347 0.3068 m
0.5347 0.3152 l
0.5431 0.3152 l
0.5431 0.3068 l
c
fill
n
0.5347 0.3068 m
0.5347 0.3152 l
0.5431 0.3152 l
0.5431 0.3068 l
0.5347 0.3068 l
c
s
n
0.5532 0.3098 m
0.5532 0.3182 l
0.5616 0.3182 l
0.5616 0.3098 l
c
fill
n
0.5532 0.3098 m
0.5532 0.3182 l
0.5616 0.3182 l
0.5616 0.3098 l
0.5532 0.3098 l
c
s
n
0.5718 0.2908 m
0.5718 0.2992 l
0.5801 0.2992 l
0.5801 0.2908 l
c
fill
n
0.5718 0.2908 m
0.5718 0.2992 l
0.5801 0.2992 l
0.5801 0.2908 l
0.5718 0.2908 l
c
s
n
0.5903 0.2952 m
0.5903 0.3036 l
0.5986 0.3036 l
0.5986 0.2952 l
c
fill
n
0.5903 0.2952 m
0.5903 0.3036 l
0.5986 0.3036 l
0.5986 0.2952 l
0.5903 0.2952 l
c
s
n
0.6088 0.2976 m
0.6088 0.3060 l
0.6171 0.3060 l
0.6171 0.2976 l
c
fill
n
0.6088 0.2976 m
0.6088 0.3060 l
0.6171 0.3060 l
0.6171 0.2976 l
0.6088 0.2976 l
c
s
n
0.6273 0.3060 m
0.6273 0.3144 l
0.6356 0.3144 l
0.6356 0.3060 l
c
fill
n
0.6273 0.3060 m
0.6273 0.3144 l
0.6356 0.3144 l
0.6356 0.3060 l
0.6273 0.3060 l
c
s
n
0.6458 0.3458 m
0.6458 0.3542 l
0.6542 0.3542 l
0.6542 0.3458 l
c
fill
n
0.6458 0.3458 m
0.6458 0.3542 l
0.6542 0.3542 l
0.6542 0.3458 l
0.6458 0.3458 l
c
s
n
0.6644 0.3504 m
0.6644 0.3588 l
0.6727 0.3588 l
0.6727 0.3504 l
c
fill
n
0.6644 0.3504 m
0.6644 0.3588 l
0.6727 0.3588 l
0.6727 0.3504 l
0.6644 0.3504 l
c
s
n
0.6829 0.2784 m
0.6829 0.2868 l
0.6912 0.2868 l
0.6912 0.2784 l
c
fill
n
0.6829 0.2784 m
0.6829 0.2868 l
0.6912 0.2868 l
0.6912 0.2784 l
0.6829 0.2784 l
c
s
n
0.7014 0.3198 m
0.7014 0.3282 l
0.7097 0.3282 l
0.7097 0.3198 l
c
fill
n
0.7014 0.3198 m
0.7014 0.3282 l
0.7097 0.3282 l
0.7097 0.3198 l
0.7014 0.3198 l
c
s
n
0.7199 0.3262 m
0.7199 0.3346 l
0.7282 0.3346 l
0.7282 0.3262 l
c
fill
n
0.7199 0.3262 m
0.7199 0.3346 l
0.7282 0.3346 l
0.7282 0.3262 l
0.7199 0.3262 l
c
s
n
0.7384 0.3436 m
0.7384 0.3520 l
0.7468 0.3520 l
0.7468 0.3436 l
c
fill
n
0.7384 0.3436 m
0.7384 0.3520 l
0.7468 0.3520 l
0.7468 0.3436 l
0.7384 0.3436 l
c
s
n
0.7569 0.3666 m
0.7569 0.3750 l
0.7653 0.3750 l
0.7653 0.3666 l
c
fill
n
0.7569 0.3666 m
0.7569 0.3750 l
0.7653 0.3750 l
0.7653 0.3666 l
0.7569 0.3666 l
c
s
n
0.7755 0.3266 m
0.7755 0.3350 l
0.7838 0.3350 l
0.7838 0.3266 l
c
fill
n
0.7755 0.3266 m
0.7755 0.3350 l
0.7838 0.3350 l
0.7838 0.3266 l
0.7755 0.3266 l
c
s
n
0.7940 0.4156 m
0.7940 0.4240 l
0.8023 0.4240 l
0.8023 0.4156 l
c
fill
n
0.7940 0.4156 m
0.7940 0.4240 l
0.8023 0.4240 l
0.8023 0.4156 l
0.7940 0.4156 l
c
s
n
0.8125 0.3646 m
0.8125 0.3730 l
0.8208 0.3730 l
0.8208 0.3646 l
c
fill
n
0.8125 0.3646 m
0.8125 0.3730 l
0.8208 0.3730 l
0.8208 0.3646 l
0.8125 0.3646 l
c
s
n
0.8310 0.3476 m
0.8310 0.3560 l
0.8394 0.3560 l
0.8394 0.3476 l
c
fill
n
0.8310 0.3476 m
0.8310 0.3560 l
0.8394 0.3560 l
0.8394 0.3476 l
0.8310 0.3476 l
c
s
n
0.8495 0.3394 m
0.8495 0.3478 l
0.8579 0.3478 l
0.8579 0.3394 l
c
fill
n
0.8495 0.3394 m
0.8495 0.3478 l
0.8579 0.3478 l
0.8579 0.3394 l
0.8495 0.3394 l
c
s
n
0.8681 0.3100 m
0.8681 0.3184 l
0.8764 0.3184 l
0.8764 0.3100 l
c
fill
n
0.8681 0.3100 m
0.8681 0.3184 l
0.8764 0.3184 l
0.8764 0.3100 l
0.8681 0.3100 l
c
s
n
0.8866 0.3276 m
0.8866 0.3360 l
0.8949 0.3360 l
0.8949 0.3276 l
c
fill
n
0.8866 0.3276 m
0.8866 0.3360 l
0.8949 0.3360 l
0.8949 0.3276 l
0.8866 0.3276 l
c
s
n
0.9051 0.3460 m
0.9051 0.3544 l
0.9134 0.3544 l
0.9134 0.3460 l
c
fill
n
0.9051 0.3460 m
0.9051 0.3544 l
0.9134 0.3544 l
0.9134 0.3460 l
0.9051 0.3460 l
c
s
n
0.9236 0.2950 m
0.9236 0.3034 l
0.9319 0.3034 l
0.9319 0.2950 l
c
fill
n
0.9236 0.2950 m
0.9236 0.3034 l
0.9319 0.3034 l
0.9319 0.2950 l
0.9236 0.2950 l
c
s
n
0.9421 0.3588 m
0.9421 0.3672 l
0.9505 0.3672 l
0.9505 0.3588 l
c
fill
n
0.9421 0.3588 m
0.9421 0.3672 l
0.9505 0.3672 l
0.9505 0.3588 l
0.9421 0.3588 l
c
s
n
0.9606 0.3316 m
0.9606 0.3400 l
0.9690 0.3400 l
0.9690 0.3316 l
c
fill
n
0.9606 0.3316 m
0.9606 0.3400 l
0.9690 0.3400 l
0.9690 0.3316 l
0.9606 0.3316 l
c
s
n
0.9792 0.3350 m
0.9792 0.3434 l
0.9875 0.3434 l
0.9875 0.3350 l
c
fill
n
0.9792 0.3350 m
0.9792 0.3434 l
0.9875 0.3434 l
0.9875 0.3350 l
0.9792 0.3350 l
c
s
n
0.9977 0.3210 m
0.9977 0.3294 l
1.0060 0.3294 l
1.0060 0.3210 l
c
fill
n
0.9977 0.3210 m
0.9977 0.3294 l
1.0060 0.3294 l
1.0060 0.3210 l
0.9977 0.3210 l
c
s
n
1.0162 0.3232 m
1.0162 0.3316 l
1.0245 0.3316 l
1.0245 0.3232 l
c
fill
n
1.0162 0.3232 m
1.0162 0.3316 l
1.0245 0.3316 l
1.0245 0.3232 l
1.0162 0.3232 l
c
s
n
1.0347 0.3268 m
1.0347 0.3352 l
1.0431 0.3352 l
1.0431 0.3268 l
c
fill
n
1.0347 0.3268 m
1.0347 0.3352 l
1.0431 0.3352 l
1.0431 0.3268 l
1.0347 0.3268 l
c
s
n
1.0532 0.3214 m
1.0532 0.3298 l
1.0616 0.3298 l
1.0616 0.3214 l
c
fill
n
1.0532 0.3214 m
1.0532 0.3298 l
1.0616 0.3298 l
1.0616 0.3214 l
1.0532 0.3214 l
c
s
n
1.0718 0.3462 m
1.0718 0.3546 l
1.0801 0.3546 l
1.0801 0.3462 l
c
fill
n
1.0718 0.3462 m
1.0718 0.3546 l
1.0801 0.3546 l
1.0801 0.3462 l
1.0718 0.3462 l
c
s
n
1.0903 0.3394 m
1.0903 0.3478 l
1.0986 0.3478 l
1.0986 0.3394 l
c
fill
n
1.0903 0.3394 m
1.0903 0.3478 l
1.0986 0.3478 l
1.0986 0.3394 l
1.0903 0.3394 l
c
s
n
1.1088 0.3378 m
1.1088 0.3462 l
1.1171 0.3462 l
1.1171 0.3378 l
c
fill
n
1.1088 0.3378 m
1.1088 0.3462 l
1.1171 0.3462 l
1.1171 0.3378 l
1.1088 0.3378 l
c
s
n
1.1273 0.3804 m
1.1273 0.3888 l
1.1356 0.3888 l
1.1356 0.3804 l
c
fill
n
1.1273 0.3804 m
1.1273 0.3888 l
1.1356 0.3888 l
1.1356 0.3804 l
1.1273 0.3804 l
c
s
n
1.1458 0.3926 m
1.1458 0.4010 l
1.1542 0.4010 l
1.1542 0.3926 l
c
fill
n
1.1458 0.3926 m
1.1458 0.4010 l
1.1542 0.4010 l
1.1542 0.3926 l
1.1458 0.3926 l
c
s
[/DeviceRGB] SCS
Color1 SC
n
0.1500 0.1500 m
1.1500 0.1500 l
s
n
0.1500 0.1500 m
0.1500 0.1634 l
s
n
0.1685 0.1500 m
0.1685 0.1634 l
s
n
0.1870 0.1500 m
0.1870 0.1634 l
s
n
0.2056 0.1500 m
0.2056 0.1634 l
s
n
0.2241 0.1500 m
0.2241 0.1634 l
s
n
0.2426 0.1500 m
0.2426 0.1634 l
s
n
0.2611 0.1500 m
0.2611 0.1634 l
s
n
0.2796 0.1500 m
0.2796 0.1634 l
s
n
0.2981 0.1500 m
0.2981 0.1634 l
s
n
0.3167 0.1500 m
0.3167 0.1634 l
s
n
0.3352 0.1500 m
0.3352 0.1634 l
s
n
0.3537 0.1500 m
0.3537 0.1634 l
s
n
0.3722 0.1500 m
0.3722 0.1634 l
s
n
0.3907 0.1500 m
0.3907 0.1634 l
s
n
0.4093 0.1500 m
0.4093 0.1634 l
s
n
0.4278 0.1500 m
0.4278 0.1634 l
s
n
0.4463 0.1500 m
0.4463 0.1634 l
s
n
0.4648 0.1500 m
0.4648 0.1634 l
s
n
0.4833 0.1500 m
0.4833 0.1634 l
s
n
0.5019 0.1500 m
0.5019 0.1634 l
s
n
0.5204 0.1500 m
0.5204 0.1634 l
s
n
0.5389 0.1500 m
0.5389 0.1634 l
s
n
0.5574 0.1500 m
0.5574 0.1634 l
s
n
0.5759 0.1500 m
0.5759 0.1634 l
s
n
0.5944 0.1500 m
0.5944 0.1634 l
s
n
0.6130 0.1500 m
0.6130 0.1634 l
s
n
0.6315 0.1500 m
0.6315 0.1634 l
s
n
0.6500 0.1500 m
0.6500 0.1634 l
s
n
0.6685 0.1500 m
0.6685 0.1634 l
s
n
0.6870 0.1500 m
0.6870 0.1634 l
s
n
0.7056 0.1500 m
0.7056 0.1634 l
s
n
0.7241 0.1500 m
0.7241 0.1634 l
s
n
0.7426 0.1500 m
0.7426 0.1634 l
s
n
0.7611 0.1500 m
0.7611 0.1634 l
s
n
0.7796 0.1500 m
0.7796 0.1634 l
s
n
0.7981 0.1500 m
0.7981 0.1634 l
s
n
0.8167 0.1500 m
0.8167 0.1634 l
s
n
0.8352 0.1500 m
0.8352 0.1634 l
s
n
0.8537 0.1500 m
0.8537 0.1634 l
s
n
0.8722 0.1500 m
0.8722 0.1634 l
s
n
0.8907 0.1500 m
0.8907 0.1634 l
s
n
0.9093 0.1500 m
0.9093 0.1634 l
s
n
0.9278 0.1500 m
0.9278 0.1634 l
s
n
0.9463 0.1500 m
0.9463 0.1634 l
s
n
0.9648 0.1500 m
0.9648 0.1634 l
s
n
0.9833 0.1500 m
0.9833 0.1634 l
s
n
1.0019 0.1500 m
1.0019 0.1634 l
s
n
1.0204 0.1500 m
1.0204 0.1634 l
s
n
1.0389 0.1500 m
1.0389 0.1634 l
s
n
1.0574 0.1500 m
1.0574 0.1634 l
s
n
1.0759 0.1500 m
1.0759 0.1634 l
s
n
1.0944 0.1500 m
1.0944 0.1634 l
s
n
1.1130 0.1500 m
1.1130 0.1634 l
s
n
1.1315 0.1500 m
1.1315 0.1634 l
s
n
1.1500 0.1500 m
1.1500 0.1634 l
s
/Times-Roman findfont
dup length dict begin
 {1 index /FID ne {def} {pop pop} ifelse} forall
 /Encoding DefEncoding def
 currentdict
end
/Font0 exch definefont pop
/Font0 FFSF
0.1547 0.1082 m
GS
[0.0000 0.0137 -0.0137 0.0000 0 0] CC
(SrLiF) show
GR
/Font0 FFSF
0.1732 0.0778 m
GS
[0.0000 0.0137 -0.0137 0.0000 0 0] CC
(NaNbO) show
GR
/Font0 FFSF
0.1900 0.1035 m
GS
[0.0000 0.0137 -0.0137 0.0000 0 0] CC
(KMgF) show
GR
/Font0 FFSF
0.2085 0.0790 m
GS
[0.0000 0.0137 -0.0137 0.0000 0 0] CC
(CsMgF) show
GR
/Font0 FFSF
0.2270 0.0992 m
GS
[0.0000 0.0137 -0.0137 0.0000 0 0] CC
(MgTiO) show
GR
/Font0 FFSF
0.2471 0.0833 m
GS
[0.0000 0.0137 -0.0137 0.0000 0 0] CC
(CaTiO) show
GR
/Font0 FFSF
0.2658 0.1063 m
GS
[0.0000 0.0137 -0.0137 0.0000 0 0] CC
(SrTiO) show
GR
/Font0 FFSF
0.2841 0.0833 m
GS
[0.0000 0.0137 -0.0137 0.0000 0 0] CC
(BaTiO) show
GR
/Font0 FFSF
0.3029 0.1039 m
GS
[0.0000 0.0137 -0.0137 0.0000 0 0] CC
(BiScO) show
GR
/Font0 FFSF
0.3212 0.0880 m
GS
[0.0000 0.0137 -0.0137 0.0000 0 0] CC
(BiYO) show
GR
/Font0 FFSF
0.3399 0.1086 m
GS
[0.0000 0.0137 -0.0137 0.0000 0 0] CC
(SrVO) show
GR
/Font0 FFSF
0.3584 0.0849 m
GS
[0.0000 0.0137 -0.0137 0.0000 0 0] CC
(SrCrO) show
GR
/Font0 FFSF
0.3769 0.0992 m
GS
[0.0000 0.0137 -0.0137 0.0000 0 0] CC
(SrMnO) show
GR
/Font0 FFSF
0.3954 0.0849 m
GS
[0.0000 0.0137 -0.0137 0.0000 0 0] CC
(SrFeO) show
GR
/Font0 FFSF
0.4140 0.1024 m
GS
[0.0000 0.0137 -0.0137 0.0000 0 0] CC
(SrCoO) show
GR
/Font0 FFSF
0.4325 0.0849 m
GS
[0.0000 0.0137 -0.0137 0.0000 0 0] CC
(SrNiO) show
GR
/Font0 FFSF
0.4508 0.1090 m
GS
[0.0000 0.0137 -0.0137 0.0000 0 0] CC
(KNiF) show
GR
/Font0 FFSF
0.4693 0.0869 m
GS
[0.0000 0.0137 -0.0137 0.0000 0 0] CC
(KCuF) show
GR
/Font0 FFSF
0.4878 0.1075 m
GS
[0.0000 0.0137 -0.0137 0.0000 0 0] CC
(KZnF) show
GR
/Font0 FFSF
0.5066 0.0857 m
GS
[0.0000 0.0137 -0.0137 0.0000 0 0] CC
(SrZrO) show
GR
/Font0 FFSF
0.5251 0.1016 m
GS
[0.0000 0.0137 -0.0137 0.0000 0 0] CC
(SrNbO) show
GR
/Font0 FFSF
0.5436 0.0794 m
GS
[0.0000 0.0137 -0.0137 0.0000 0 0] CC
(SrMoO) show
GR
/Font0 FFSF
0.5621 0.1039 m
GS
[0.0000 0.0137 -0.0137 0.0000 0 0] CC
(SrTcO) show
GR
/Font0 FFSF
0.5806 0.0826 m
GS
[0.0000 0.0137 -0.0137 0.0000 0 0] CC
(SrRuO) show
GR
/Font0 FFSF
0.5992 0.1024 m
GS
[0.0000 0.0137 -0.0137 0.0000 0 0] CC
(SrRhO) show
GR
/Font0 FFSF
0.6177 0.0884 m
GS
[0.0000 0.0137 -0.0137 0.0000 0 0] CC
(KPdF) show
GR
/Font0 FFSF
0.6346 0.1035 m
GS
[0.0000 0.0137 -0.0137 0.0000 0 0] CC
(SrAgF) show
GR
/Font0 FFSF
0.6547 0.0869 m
GS
[0.0000 0.0137 -0.0137 0.0000 0 0] CC
(KCdF) show
GR
/Font0 FFSF
0.6732 0.1024 m
GS
[0.0000 0.0137 -0.0137 0.0000 0 0] CC
(LaAlO) show
GR
/Font0 FFSF
0.6917 0.0841 m
GS
[0.0000 0.0137 -0.0137 0.0000 0 0] CC
(SrHfO) show
GR
/Font0 FFSF
0.7103 0.1039 m
GS
[0.0000 0.0137 -0.0137 0.0000 0 0] CC
(SrTaO) show
GR
/Font0 FFSF
0.7288 0.0857 m
GS
[0.0000 0.0137 -0.0137 0.0000 0 0] CC
(SrWO) show
GR
/Font0 FFSF
0.7473 0.1031 m
GS
[0.0000 0.0137 -0.0137 0.0000 0 0] CC
(SrReO) show
GR
/Font0 FFSF
0.7658 0.0833 m
GS
[0.0000 0.0137 -0.0137 0.0000 0 0] CC
(SrOsO) show
GR
/Font0 FFSF
0.7843 0.1094 m
GS
[0.0000 0.0137 -0.0137 0.0000 0 0] CC
(SrIrO) show
GR
/Font0 FFSF
0.8029 0.0873 m
GS
[0.0000 0.0137 -0.0137 0.0000 0 0] CC
(SrPtO) show
GR
/Font0 FFSF
0.8212 0.1008 m
GS
[0.0000 0.0137 -0.0137 0.0000 0 0] CC
(BiAuO) show
GR
/Font0 FFSF
0.8381 0.0861 m
GS
[0.0000 0.0137 -0.0137 0.0000 0 0] CC
(KHgF) show
GR
/Font0 FFSF
0.8584 0.1067 m
GS
[0.0000 0.0137 -0.0137 0.0000 0 0] CC
(TlCTi) show
GR
/Font0 FFSF
0.8769 0.0806 m
GS
[0.0000 0.0137 -0.0137 0.0000 0 0] CC
(LaBRh) show
GR
/Font0 FFSF
0.8954 0.1039 m
GS
[0.0000 0.0137 -0.0137 0.0000 0 0] CC
(BiAlO) show
GR
/Font0 FFSF
0.9138 0.0865 m
GS
[0.0000 0.0137 -0.0137 0.0000 0 0] CC
(BiInO) show
GR
/Font0 FFSF
0.9325 0.1071 m
GS
[0.0000 0.0137 -0.0137 0.0000 0 0] CC
(SrSiO) show
GR
/Font0 FFSF
0.9510 0.0826 m
GS
[0.0000 0.0137 -0.0137 0.0000 0 0] CC
(SrGeO) show
GR
/Font0 FFSF
0.9695 0.1039 m
GS
[0.0000 0.0137 -0.0137 0.0000 0 0] CC
(SnTiO) show
GR
/Font0 FFSF
0.9880 0.0841 m
GS
[0.0000 0.0137 -0.0137 0.0000 0 0] CC
(PbTiO) show
GR
/Font0 FFSF
1.0064 0.1071 m
GS
[0.0000 0.0137 -0.0137 0.0000 0 0] CC
(PNCa) show
GR
/Font0 FFSF
1.0249 0.0798 m
GS
[0.0000 0.0137 -0.0137 0.0000 0 0] CC
(AsNCa) show
GR
/Font0 FFSF
1.0436 0.1004 m
GS
[0.0000 0.0137 -0.0137 0.0000 0 0] CC
(SbNCa) show
GR
/Font0 FFSF
1.0621 0.0892 m
GS
[0.0000 0.0137 -0.0137 0.0000 0 0] CC
(SrTiS) show
GR
/Font0 FFSF
1.0806 0.1024 m
GS
[0.0000 0.0137 -0.0137 0.0000 0 0] CC
(SrTiSe) show
GR
/Font0 FFSF
1.0990 0.0778 m
GS
[0.0000 0.0137 -0.0137 0.0000 0 0] CC
(BaZrTe) show
GR
/Font0 FFSF
1.1161 0.0984 m
GS
[0.0000 0.0137 -0.0137 0.0000 0 0] CC
(KMgCl) show
GR
/Font0 FFSF
1.1362 0.0775 m
GS
[0.0000 0.0137 -0.0137 0.0000 0 0] CC
(CsPbBr) show
GR
/Font0 FFSF
1.1547 0.1067 m
GS
[0.0000 0.0137 -0.0137 0.0000 0 0] CC
(CsPbI) show
GR
n
0.1500 0.1500 m
0.1500 0.5500 l
s
n
1.1500 0.1500 m
1.1500 0.5500 l
s
n
0.1500 0.1700 m
0.1600 0.1700 l
s
n
1.1500 0.1700 m
1.1400 0.1700 l
s
n
0.1500 0.2100 m
0.1600 0.2100 l
s
n
1.1500 0.2100 m
1.1400 0.2100 l
s
n
0.1500 0.2500 m
0.1600 0.2500 l
s
n
1.1500 0.2500 m
1.1400 0.2500 l
s
n
0.1500 0.2900 m
0.1600 0.2900 l
s
n
1.1500 0.2900 m
1.1400 0.2900 l
s
n
0.1500 0.3300 m
0.1600 0.3300 l
s
n
1.1500 0.3300 m
1.1400 0.3300 l
s
n
0.1500 0.3700 m
0.1600 0.3700 l
s
n
1.1500 0.3700 m
1.1400 0.3700 l
s
n
0.1500 0.4100 m
0.1600 0.4100 l
s
n
1.1500 0.4100 m
1.1400 0.4100 l
s
n
0.1500 0.4500 m
0.1600 0.4500 l
s
n
1.1500 0.4500 m
1.1400 0.4500 l
s
n
0.1500 0.4900 m
0.1600 0.4900 l
s
n
1.1500 0.4900 m
1.1400 0.4900 l
s
n
0.1500 0.5300 m
0.1600 0.5300 l
s
n
1.1500 0.5300 m
1.1400 0.5300 l
s
n
0.1500 0.1500 m
0.1700 0.1500 l
s
n
1.1500 0.1500 m
1.1300 0.1500 l
s
n
0.1500 0.1900 m
0.1700 0.1900 l
s
n
1.1500 0.1900 m
1.1300 0.1900 l
s
n
0.1500 0.2300 m
0.1700 0.2300 l
s
n
1.1500 0.2300 m
1.1300 0.2300 l
s
n
0.1500 0.2700 m
0.1700 0.2700 l
s
n
1.1500 0.2700 m
1.1300 0.2700 l
s
n
0.1500 0.3100 m
0.1700 0.3100 l
s
n
1.1500 0.3100 m
1.1300 0.3100 l
s
n
0.1500 0.3500 m
0.1700 0.3500 l
s
n
1.1500 0.3500 m
1.1300 0.3500 l
s
n
0.1500 0.3900 m
0.1700 0.3900 l
s
n
1.1500 0.3900 m
1.1300 0.3900 l
s
n
0.1500 0.4300 m
0.1700 0.4300 l
s
n
1.1500 0.4300 m
1.1300 0.4300 l
s
n
0.1500 0.4700 m
0.1700 0.4700 l
s
n
1.1500 0.4700 m
1.1300 0.4700 l
s
n
0.1500 0.5100 m
0.1700 0.5100 l
s
n
1.1500 0.5100 m
1.1300 0.5100 l
s
n
0.1500 0.5500 m
0.1700 0.5500 l
s
n
1.1500 0.5500 m
1.1300 0.5500 l
s
/Font0 FFSF
0.1196 0.1406 m
GS
[0.0280 0.0000 0.0000 0.0280 0 0] CC
(-1) show
GR
/Font0 FFSF
0.0973 0.1808 m
GS
[0.0280 0.0000 0.0000 0.0280 0 0] CC
(-0.8) show
GR
/Font0 FFSF
0.0969 0.2206 m
GS
[0.0280 0.0000 0.0000 0.0280 0 0] CC
(-0.6) show
GR
/Font0 FFSF
0.0965 0.2608 m
GS
[0.0280 0.0000 0.0000 0.0280 0 0] CC
(-0.4) show
GR
/Font0 FFSF
0.0965 0.3008 m
GS
[0.0280 0.0000 0.0000 0.0280 0 0] CC
(-0.2) show
GR
/Font0 FFSF
0.1267 0.3408 m
GS
[0.0280 0.0000 0.0000 0.0280 0 0] CC
(0) show
GR
/Font0 FFSF
0.1055 0.3808 m
GS
[0.0280 0.0000 0.0000 0.0280 0 0] CC
(0.2) show
GR
/Font0 FFSF
0.1055 0.4208 m
GS
[0.0280 0.0000 0.0000 0.0280 0 0] CC
(0.4) show
GR
/Font0 FFSF
0.1059 0.4606 m
GS
[0.0280 0.0000 0.0000 0.0280 0 0] CC
(0.6) show
GR
/Font0 FFSF
0.1063 0.5008 m
GS
[0.0280 0.0000 0.0000 0.0280 0 0] CC
(0.8) show
GR
/Font0 FFSF
0.1290 0.5406 m
GS
[0.0280 0.0000 0.0000 0.0280 0 0] CC
(1) show
GR
/Font0 FFSF
0.0861 0.2465 m
GS
[0.0000 0.0280 -0.0280 0.0000 0 0] CC
(% error versus AE) show
GR
n
0.1500 0.1500 m
0.1500 0.5500 l
1.1500 0.5500 l
1.1500 0.1500 l
0.1500 0.1500 l
c
s
n
0.8500 0.5000 m
0.8500 0.4312 l
1.1031 0.4312 l
1.1031 0.5000 l
c
[/DeviceRGB] SCS
Color0 SC
fill
[/DeviceRGB] SCS
Color1 SC
n
0.8500 0.5000 m
0.8500 0.4312 l
1.1031 0.4312 l
1.1031 0.5000 l
0.8500 0.5000 l
c
s
/Font0 FFSF
0.9206 0.4708 m
GS
[0.0280 0.0000 0.0000 0.0280 0 0] CC
(GBRV - Abinit) show
GR
[/DeviceRGB] SCS
Color4 SC
[] 0 SD
0.0023 SLW
n
0.8657 0.4802 m
0.9057 0.4802 l
s
n
0.8657 0.4802 0.0049 0.0049 0 360 EARC c
fill
[] 0 SD
0.0015 SLW
n 0.8657 0.4802 0.0049 0.0049 0 360 EARC s
n
0.9057 0.4802 0.0049 0.0049 0 360 EARC c
fill
n 0.9057 0.4802 0.0049 0.0049 0 360 EARC s
/Font0 FFSF
[/DeviceRGB] SCS
Color1 SC
0.9206 0.4416 m
GS
[0.0280 0.0000 0.0000 0.0280 0 0] CC
(JTH v1.1) show
GR
[/DeviceRGB] SCS
Color2 SC
[] 0 SD
0.0023 SLW
n
0.8657 0.4508 m
0.9057 0.4508 l
s
n
0.8615 0.4466 m
0.8615 0.4549 l
0.8698 0.4549 l
0.8698 0.4466 l
c
fill
[] 0 SD
0.0015 SLW
n
0.8615 0.4466 m
0.8615 0.4549 l
0.8698 0.4549 l
0.8698 0.4466 l
0.8615 0.4466 l
c
s
n
0.9015 0.4466 m
0.9015 0.4549 l
0.9098 0.4549 l
0.9098 0.4466 l
c
fill
n
0.9015 0.4466 m
0.9015 0.4549 l
0.9098 0.4549 l
0.9098 0.4466 l
0.9015 0.4466 l
c
s
%%Trailer
%%BoundingBox: 40 46 709 344
%%DocumentNeededResources: font Times-Roman
%%EOF
