%!PS-Adobe-3.0 EPSF-3.0
%%BoundingBox: (atend)
%%LanguageLevel: 2
%%Creator: Grace-5.1.21
%%CreationDate: Thu Mar  8 09:36:18 2018
%%DocumentData: Clean8Bit
%%Orientation: Portrait
%%Title: fig-rs.agr
%%For: jolletf
%%DocumentNeededResources: (atend)
%%EndComments
%%BeginProlog
/m {moveto} def
/l {lineto} def
/s {stroke} def
/n {newpath} def
/c {closepath} def
/RL {rlineto} def
/SLW {setlinewidth} def
/GS {gsave} def
/GR {grestore} def
/SC {setcolor} def
/SGRY {setgray} def
/SRGB {setrgbcolor} def
/SD {setdash} def
/SLC {setlinecap} def
/SLJ {setlinejoin} def
/SCS {setcolorspace} def
/FFSF {findfont setfont} def
/CC {concat} def
/PXL {n m 0 0 RL s} def
/Color0 {1.0000 1.0000 1.0000} def
/Color1 {0.0000 0.0000 0.0000} def
/Color2 {1.0000 0.0000 0.0000} def
/Color3 {0.0000 1.0000 0.0000} def
/Color4 {0.0000 0.0000 1.0000} def
/Color5 {1.0000 1.0000 0.0000} def
/Color6 {0.7373 0.5608 0.5608} def
/Color7 {0.8627 0.8627 0.8627} def
/Color8 {0.5804 0.0000 0.8275} def
/Color9 {0.0000 1.0000 1.0000} def
/Color10 {1.0000 0.0000 1.0000} def
/Color11 {1.0000 0.6471 0.0000} def
/Color12 {0.4471 0.1294 0.7373} def
/Color13 {0.4039 0.0275 0.2824} def
/Color14 {0.2510 0.8784 0.8157} def
/Color15 {0.0000 0.5451 0.0000} def
/Color16 {0.7529 0.7529 0.7529} def
/Color17 {0.5059 0.5059 0.5059} def
/Color18 {0.2588 0.2588 0.2588} def
/PTRN {
 /pat_bits exch def 
 <<
  /PaintType 2
  /PatternType 1 /TilingType 1
  /BBox[0 0 16 16]
  /XStep 16 /YStep 16
  /PaintProc {
   pop
   16 16 true [-1 0 0 -1 16 16] pat_bits imagemask
  }
 >>
 [0.0016 0 0 0.0016 0 0]
 makepattern
} def
/Pattern0 {<0000000000000000000000000000000000000000000000000000000000000000> PTRN} bind def
/Pattern1 {<ffffffffffffffffffffffffffffffffffffffffffffffffffffffffffffffff> PTRN} bind def
/Pattern2 {<eeeeffffbbbbffffeeeeffffbbbbffffeeeeffffbbbbffffeeeeffffbbbbffff> PTRN} bind def
/Pattern3 {<eeeebbbbeeeebbbbeeeebbbbeeeebbbbeeeebbbbeeeebbbbeeeebbbbeeeebbbb> PTRN} bind def
/Pattern4 {<5555aaaa5555aaaa5555aaaa5555aaaa5555aaaa5555aaaa5555aaaa5555aaaa> PTRN} bind def
/Pattern5 {<1111444411114444111144441111444411114444111144441111444411114444> PTRN} bind def
/Pattern6 {<1111000044440000111100004444000011110000444400001111000044440000> PTRN} bind def
/Pattern7 {<1010000000000000010100000000000010100000000000000101000000000000> PTRN} bind def
/Pattern8 {<0000000000000000000000000000000000000000000000000000000000000000> PTRN} bind def
/Pattern9 {<1e1e0f0f8787c3c3e1e1f0f078783c3c1e1e0f0f8787c3c3e1e1f0f078783c3c> PTRN} bind def
/Pattern10 {<7878f0f0e1e1c3c387870f0f1e1e3c3c7878f0f0e1e1c3c387870f0f1e1e3c3c> PTRN} bind def
/Pattern11 {<3333333333333333333333333333333333333333333333333333333333333333> PTRN} bind def
/Pattern12 {<ffffffff00000000ffffffff00000000ffffffff00000000ffffffff00000000> PTRN} bind def
/Pattern13 {<8181424224241818181824244242818181814242242418181818242442428181> PTRN} bind def
/Pattern14 {<8080404020201010080804040202010180804040202010100808040402020101> PTRN} bind def
/Pattern15 {<0101020204040808101020204040808001010202040408081010202040408080> PTRN} bind def
/Pattern16 {<2222222222222222222222222222222222222222222222222222222222222222> PTRN} bind def
/Pattern17 {<0000ffff000000000000ffff000000000000ffff000000000000ffff00000000> PTRN} bind def
/Pattern18 {<2222ffff222222222222ffff222222222222ffff222222222222ffff22222222> PTRN} bind def
/Pattern19 {<ffffffff33333333ffffffff33333333ffffffff33333333ffffffff33333333> PTRN} bind def
/Pattern20 {<0f0f0f0f0f0f0f0ff0f0f0f0f0f0f0f00f0f0f0f0f0f0f0ff0f0f0f0f0f0f0f0> PTRN} bind def
/Pattern21 {<ff00ff00ff00ff00ff00ff00ff00ff0000ff00ff00ff00ff00ff00ff00ff00ff> PTRN} bind def
/Pattern22 {<8001800180018001800180018001ffffffff8001800180018001800180018001> PTRN} bind def
/Pattern23 {<c003c003c003c003c003c003ffffffffffffffffc003c003c003c003c003c003> PTRN} bind def
/Pattern24 {<040404040404ffff404040404040ffff040404040404ffff404040404040ffff> PTRN} bind def
/Pattern25 {<180018001800180018001800ffffffff001800180018001800180018ffffffff> PTRN} bind def
/Pattern26 {<1111b8b87c7c3a3a1111a3a3c7c78b8b1111b8b87c7c3a3a1111a3a3c7c78b8b> PTRN} bind def
/Pattern27 {<101010102828c7c70101010182827c7c101010102828c7c70101010182827c7c> PTRN} bind def
/Pattern28 {<1c1c121211112121c1c12121111112121c1c121211112121c1c1212111111212> PTRN} bind def
/Pattern29 {<3e3e414180808080e3e31414080808083e3e414180808080e3e3141408080808> PTRN} bind def
/Pattern30 {<4848888884848383848488884848383848488888848483838484888848483838> PTRN} bind def
/Pattern31 {<03030404080808080c0c12122121c0c003030404080808080c0c12122121c0c0> PTRN} bind def
/ellipsedict 8 dict def
ellipsedict /mtrx matrix put
/EARC {
 ellipsedict begin
  /endangle exch def
  /startangle exch def
  /yrad exch def
  /xrad exch def
  /y exch def
  /x exch def
  /savematrix mtrx currentmatrix def
  x y translate
  xrad yrad scale
  0 0 1 startangle endangle arc
  savematrix setmatrix
 end
} def
/TL {
  /kcomp exch def
  /linewidth exch def
  /offset exch def
  GS
  0 offset rmoveto
  linewidth SLW
  dup stringwidth exch kcomp add exch RL s
  GR
} def
/KINIT
{
 /kvector exch def
 /kid 0 def
} def
/KPROC
{
 pop pop
 kvector kid get
 0 rmoveto
 /kid 1 kid add def
} def
/DefEncoding [
 /.notdef
 /.notdef
 /.notdef
 /.notdef
 /.notdef
 /.notdef
 /.notdef
 /.notdef
 /.notdef
 /.notdef
 /.notdef
 /.notdef
 /.notdef
 /.notdef
 /.notdef
 /.notdef
 /.notdef
 /.notdef
 /.notdef
 /.notdef
 /.notdef
 /.notdef
 /.notdef
 /.notdef
 /.notdef
 /.notdef
 /.notdef
 /.notdef
 /.notdef
 /.notdef
 /.notdef
 /.notdef
 /space
 /exclam
 /quotedbl
 /numbersign
 /dollar
 /percent
 /ampersand
 /quoteright
 /parenleft
 /parenright
 /asterisk
 /plus
 /comma
 /hyphen
 /period
 /slash
 /zero
 /one
 /two
 /three
 /four
 /five
 /six
 /seven
 /eight
 /nine
 /colon
 /semicolon
 /less
 /equal
 /greater
 /question
 /at
 /A
 /B
 /C
 /D
 /E
 /F
 /G
 /H
 /I
 /J
 /K
 /L
 /M
 /N
 /O
 /P
 /Q
 /R
 /S
 /T
 /U
 /V
 /W
 /X
 /Y
 /Z
 /bracketleft
 /backslash
 /bracketright
 /asciicircum
 /underscore
 /grave
 /a
 /b
 /c
 /d
 /e
 /f
 /g
 /h
 /i
 /j
 /k
 /l
 /m
 /n
 /o
 /p
 /q
 /r
 /s
 /t
 /u
 /v
 /w
 /x
 /y
 /z
 /braceleft
 /bar
 /braceright
 /asciitilde
 /.notdef
 /.notdef
 /.notdef
 /.notdef
 /.notdef
 /.notdef
 /.notdef
 /.notdef
 /.notdef
 /.notdef
 /.notdef
 /.notdef
 /.notdef
 /.notdef
 /.notdef
 /.notdef
 /.notdef
 /.notdef
 /.notdef
 /.notdef
 /.notdef
 /.notdef
 /.notdef
 /.notdef
 /.notdef
 /.notdef
 /.notdef
 /.notdef
 /.notdef
 /.notdef
 /.notdef
 /.notdef
 /.notdef
 /space
 /exclamdown
 /cent
 /sterling
 /currency
 /yen
 /brokenbar
 /section
 /dieresis
 /copyright
 /ordfeminine
 /guillemotleft
 /logicalnot
 /hyphen
 /registered
 /macron
 /degree
 /plusminus
 /twosuperior
 /threesuperior
 /acute
 /mu
 /paragraph
 /periodcentered
 /cedilla
 /onesuperior
 /ordmasculine
 /guillemotright
 /onequarter
 /onehalf
 /threequarters
 /questiondown
 /Agrave
 /Aacute
 /Acircumflex
 /Atilde
 /Adieresis
 /Aring
 /AE
 /Ccedilla
 /Egrave
 /Eacute
 /Ecircumflex
 /Edieresis
 /Igrave
 /Iacute
 /Icircumflex
 /Idieresis
 /Eth
 /Ntilde
 /Ograve
 /Oacute
 /Ocircumflex
 /Otilde
 /Odieresis
 /multiply
 /Oslash
 /Ugrave
 /Uacute
 /Ucircumflex
 /Udieresis
 /Yacute
 /Thorn
 /germandbls
 /agrave
 /aacute
 /acircumflex
 /atilde
 /adieresis
 /aring
 /ae
 /ccedilla
 /egrave
 /eacute
 /ecircumflex
 /edieresis
 /igrave
 /iacute
 /icircumflex
 /idieresis
 /eth
 /ntilde
 /ograve
 /oacute
 /ocircumflex
 /otilde
 /odieresis
 /divide
 /oslash
 /ugrave
 /uacute
 /ucircumflex
 /udieresis
 /yacute
 /thorn
 /ydieresis
] def
%%EndProlog
%%BeginSetup
%%EndSetup
612.00 612.00 scale
[/DeviceRGB] SCS
Color1 SC
[] 0 SD
0.0015 SLW
0 SLC
0 SLJ
n
0.1500 0.1500 m
1.1500 0.1500 l
s
n
0.1500 0.1900 m
1.1500 0.1900 l
s
n
0.1500 0.2300 m
1.1500 0.2300 l
s
n
0.1500 0.2700 m
1.1500 0.2700 l
s
n
0.1500 0.3100 m
1.1500 0.3100 l
s
n
0.1500 0.3500 m
1.1500 0.3500 l
s
n
0.1500 0.3900 m
1.1500 0.3900 l
s
n
0.1500 0.4300 m
1.1500 0.4300 l
s
n
0.1500 0.4700 m
1.1500 0.4700 l
s
n
0.1500 0.5100 m
1.1500 0.5100 l
s
n
0.1500 0.5500 m
1.1500 0.5500 l
s
[/DeviceRGB] SCS
Color4 SC
[] 0 SD
0.0023 SLW
n
0.1500 0.3190 m
0.1643 0.3080 l
0.1786 0.3280 l
0.1929 0.3202 l
0.2071 0.3048 l
0.2214 0.3390 l
0.2357 0.3594 l
0.2500 0.3294 l
0.2643 0.3270 l
0.2786 0.3608 l
0.2929 0.3544 l
0.3071 0.3418 l
0.3214 0.3612 l
0.3357 0.3500 l
0.3500 0.3356 l
0.3643 0.3500 l
0.3786 0.3500 l
0.3929 0.3940 l
0.4071 0.3694 l
0.4214 0.3500 l
0.4357 0.3500 l
0.4500 0.3824 l
0.4643 0.3326 l
0.4786 0.3410 l
0.4929 0.3364 l
0.5071 0.3318 l
0.5214 0.3318 l
0.5357 0.3860 l
0.5500 0.3324 l
0.5643 0.3414 l
0.5786 0.3836 l
0.5929 0.2416 l
0.6071 0.3456 l
0.6214 0.3410 l
0.6357 0.3634 l
0.6500 0.3322 l
0.6643 0.3500 l
0.6786 0.3370 l
0.6929 0.3332 l
0.7071 0.3256 l
0.7214 0.3500 l
0.7357 0.3794 l
0.7500 0.3874 l
0.7643 0.3840 l
0.7786 0.3580 l
0.7929 0.3650 l
0.8071 0.3544 l
0.8214 0.3542 l
0.8357 0.3460 l
0.8500 0.3348 l
0.8643 0.3618 l
0.8786 0.3614 l
0.8929 0.2980 l
0.9071 0.3166 l
0.9214 0.3336 l
0.9357 0.3342 l
0.9500 0.3410 l
0.9643 0.3500 l
0.9786 0.3174 l
0.9929 0.3004 l
1.0071 0.3584 l
1.0214 0.3202 l
1.0357 0.3378 l
s
n
0.1500 0.3190 0.0049 0.0049 0 360 EARC c
fill
[] 0 SD
0.0015 SLW
n 0.1500 0.3190 0.0049 0.0049 0 360 EARC s
n
0.1643 0.3080 0.0049 0.0049 0 360 EARC c
fill
n 0.1643 0.3080 0.0049 0.0049 0 360 EARC s
n
0.1786 0.3280 0.0049 0.0049 0 360 EARC c
fill
n 0.1786 0.3280 0.0049 0.0049 0 360 EARC s
n
0.1929 0.3202 0.0049 0.0049 0 360 EARC c
fill
n 0.1929 0.3202 0.0049 0.0049 0 360 EARC s
n
0.2071 0.3048 0.0049 0.0049 0 360 EARC c
fill
n 0.2071 0.3048 0.0049 0.0049 0 360 EARC s
n
0.2214 0.3390 0.0049 0.0049 0 360 EARC c
fill
n 0.2214 0.3390 0.0049 0.0049 0 360 EARC s
n
0.2357 0.3594 0.0049 0.0049 0 360 EARC c
fill
n 0.2357 0.3594 0.0049 0.0049 0 360 EARC s
n
0.2500 0.3294 0.0049 0.0049 0 360 EARC c
fill
n 0.2500 0.3294 0.0049 0.0049 0 360 EARC s
n
0.2643 0.3270 0.0049 0.0049 0 360 EARC c
fill
n 0.2643 0.3270 0.0049 0.0049 0 360 EARC s
n
0.2786 0.3608 0.0049 0.0049 0 360 EARC c
fill
n 0.2786 0.3608 0.0049 0.0049 0 360 EARC s
n
0.2929 0.3544 0.0049 0.0049 0 360 EARC c
fill
n 0.2929 0.3544 0.0049 0.0049 0 360 EARC s
n
0.3071 0.3418 0.0049 0.0049 0 360 EARC c
fill
n 0.3071 0.3418 0.0049 0.0049 0 360 EARC s
n
0.3214 0.3612 0.0049 0.0049 0 360 EARC c
fill
n 0.3214 0.3612 0.0049 0.0049 0 360 EARC s
n
0.3357 0.3500 0.0049 0.0049 0 360 EARC c
fill
n 0.3357 0.3500 0.0049 0.0049 0 360 EARC s
n
0.3500 0.3356 0.0049 0.0049 0 360 EARC c
fill
n 0.3500 0.3356 0.0049 0.0049 0 360 EARC s
n
0.3643 0.3500 0.0049 0.0049 0 360 EARC c
fill
n 0.3643 0.3500 0.0049 0.0049 0 360 EARC s
n
0.3786 0.3500 0.0049 0.0049 0 360 EARC c
fill
n 0.3786 0.3500 0.0049 0.0049 0 360 EARC s
n
0.3929 0.3940 0.0049 0.0049 0 360 EARC c
fill
n 0.3929 0.3940 0.0049 0.0049 0 360 EARC s
n
0.4071 0.3694 0.0049 0.0049 0 360 EARC c
fill
n 0.4071 0.3694 0.0049 0.0049 0 360 EARC s
n
0.4214 0.3500 0.0049 0.0049 0 360 EARC c
fill
n 0.4214 0.3500 0.0049 0.0049 0 360 EARC s
n
0.4357 0.3500 0.0049 0.0049 0 360 EARC c
fill
n 0.4357 0.3500 0.0049 0.0049 0 360 EARC s
n
0.4500 0.3824 0.0049 0.0049 0 360 EARC c
fill
n 0.4500 0.3824 0.0049 0.0049 0 360 EARC s
n
0.4643 0.3326 0.0049 0.0049 0 360 EARC c
fill
n 0.4643 0.3326 0.0049 0.0049 0 360 EARC s
n
0.4786 0.3410 0.0049 0.0049 0 360 EARC c
fill
n 0.4786 0.3410 0.0049 0.0049 0 360 EARC s
n
0.4929 0.3364 0.0049 0.0049 0 360 EARC c
fill
n 0.4929 0.3364 0.0049 0.0049 0 360 EARC s
n
0.5071 0.3318 0.0049 0.0049 0 360 EARC c
fill
n 0.5071 0.3318 0.0049 0.0049 0 360 EARC s
n
0.5214 0.3318 0.0049 0.0049 0 360 EARC c
fill
n 0.5214 0.3318 0.0049 0.0049 0 360 EARC s
n
0.5357 0.3860 0.0049 0.0049 0 360 EARC c
fill
n 0.5357 0.3860 0.0049 0.0049 0 360 EARC s
n
0.5500 0.3324 0.0049 0.0049 0 360 EARC c
fill
n 0.5500 0.3324 0.0049 0.0049 0 360 EARC s
n
0.5643 0.3414 0.0049 0.0049 0 360 EARC c
fill
n 0.5643 0.3414 0.0049 0.0049 0 360 EARC s
n
0.5786 0.3836 0.0049 0.0049 0 360 EARC c
fill
n 0.5786 0.3836 0.0049 0.0049 0 360 EARC s
n
0.5929 0.2416 0.0049 0.0049 0 360 EARC c
fill
n 0.5929 0.2416 0.0049 0.0049 0 360 EARC s
n
0.6071 0.3456 0.0049 0.0049 0 360 EARC c
fill
n 0.6071 0.3456 0.0049 0.0049 0 360 EARC s
n
0.6214 0.3410 0.0049 0.0049 0 360 EARC c
fill
n 0.6214 0.3410 0.0049 0.0049 0 360 EARC s
n
0.6357 0.3634 0.0049 0.0049 0 360 EARC c
fill
n 0.6357 0.3634 0.0049 0.0049 0 360 EARC s
n
0.6500 0.3322 0.0049 0.0049 0 360 EARC c
fill
n 0.6500 0.3322 0.0049 0.0049 0 360 EARC s
n
0.6643 0.3500 0.0049 0.0049 0 360 EARC c
fill
n 0.6643 0.3500 0.0049 0.0049 0 360 EARC s
n
0.6786 0.3370 0.0049 0.0049 0 360 EARC c
fill
n 0.6786 0.3370 0.0049 0.0049 0 360 EARC s
n
0.6929 0.3332 0.0049 0.0049 0 360 EARC c
fill
n 0.6929 0.3332 0.0049 0.0049 0 360 EARC s
n
0.7071 0.3256 0.0049 0.0049 0 360 EARC c
fill
n 0.7071 0.3256 0.0049 0.0049 0 360 EARC s
n
0.7214 0.3500 0.0049 0.0049 0 360 EARC c
fill
n 0.7214 0.3500 0.0049 0.0049 0 360 EARC s
n
0.7357 0.3794 0.0049 0.0049 0 360 EARC c
fill
n 0.7357 0.3794 0.0049 0.0049 0 360 EARC s
n
0.7500 0.3874 0.0049 0.0049 0 360 EARC c
fill
n 0.7500 0.3874 0.0049 0.0049 0 360 EARC s
n
0.7643 0.3840 0.0049 0.0049 0 360 EARC c
fill
n 0.7643 0.3840 0.0049 0.0049 0 360 EARC s
n
0.7786 0.3580 0.0049 0.0049 0 360 EARC c
fill
n 0.7786 0.3580 0.0049 0.0049 0 360 EARC s
n
0.7929 0.3650 0.0049 0.0049 0 360 EARC c
fill
n 0.7929 0.3650 0.0049 0.0049 0 360 EARC s
n
0.8071 0.3544 0.0049 0.0049 0 360 EARC c
fill
n 0.8071 0.3544 0.0049 0.0049 0 360 EARC s
n
0.8214 0.3542 0.0049 0.0049 0 360 EARC c
fill
n 0.8214 0.3542 0.0049 0.0049 0 360 EARC s
n
0.8357 0.3460 0.0049 0.0049 0 360 EARC c
fill
n 0.8357 0.3460 0.0049 0.0049 0 360 EARC s
n
0.8500 0.3348 0.0049 0.0049 0 360 EARC c
fill
n 0.8500 0.3348 0.0049 0.0049 0 360 EARC s
n
0.8643 0.3618 0.0049 0.0049 0 360 EARC c
fill
n 0.8643 0.3618 0.0049 0.0049 0 360 EARC s
n
0.8786 0.3614 0.0049 0.0049 0 360 EARC c
fill
n 0.8786 0.3614 0.0049 0.0049 0 360 EARC s
n
0.8929 0.2980 0.0049 0.0049 0 360 EARC c
fill
n 0.8929 0.2980 0.0049 0.0049 0 360 EARC s
n
0.9071 0.3166 0.0049 0.0049 0 360 EARC c
fill
n 0.9071 0.3166 0.0049 0.0049 0 360 EARC s
n
0.9214 0.3336 0.0049 0.0049 0 360 EARC c
fill
n 0.9214 0.3336 0.0049 0.0049 0 360 EARC s
n
0.9357 0.3342 0.0049 0.0049 0 360 EARC c
fill
n 0.9357 0.3342 0.0049 0.0049 0 360 EARC s
n
0.9500 0.3410 0.0049 0.0049 0 360 EARC c
fill
n 0.9500 0.3410 0.0049 0.0049 0 360 EARC s
n
0.9643 0.3500 0.0049 0.0049 0 360 EARC c
fill
n 0.9643 0.3500 0.0049 0.0049 0 360 EARC s
n
0.9786 0.3174 0.0049 0.0049 0 360 EARC c
fill
n 0.9786 0.3174 0.0049 0.0049 0 360 EARC s
n
0.9929 0.3004 0.0049 0.0049 0 360 EARC c
fill
n 0.9929 0.3004 0.0049 0.0049 0 360 EARC s
n
1.0071 0.3584 0.0049 0.0049 0 360 EARC c
fill
n 1.0071 0.3584 0.0049 0.0049 0 360 EARC s
n
1.0214 0.3202 0.0049 0.0049 0 360 EARC c
fill
n 1.0214 0.3202 0.0049 0.0049 0 360 EARC s
n
1.0357 0.3378 0.0049 0.0049 0 360 EARC c
fill
n 1.0357 0.3378 0.0049 0.0049 0 360 EARC s
[/DeviceRGB] SCS
Color2 SC
[] 0 SD
0.0023 SLW
n
0.1500 0.3224 m
0.1643 0.3384 l
0.1786 0.3500 l
0.1929 0.3698 l
0.2071 0.3620 l
0.2214 0.3296 l
0.2357 0.3410 l
0.2500 0.3146 l
0.2643 0.3074 l
0.2786 0.4118 l
0.2929 0.3434 l
0.3071 0.3262 l
0.3214 0.3698 l
0.3357 0.3314 l
0.3500 0.3394 l
0.3643 0.3496 l
0.3786 0.3578 l
0.3929 0.3400 l
0.4071 0.3374 l
0.4214 0.3354 l
0.4357 0.2956 l
0.4500 0.3338 l
0.4643 0.3188 l
0.4786 0.3150 l
0.4929 0.3194 l
0.5071 0.3022 l
0.5214 0.2792 l
0.5357 0.3154 l
0.5500 0.2986 l
0.5643 0.3230 l
0.5786 0.3246 l
0.5929 0.2328 l
0.6071 0.3004 l
0.6214 0.3266 l
0.6357 0.3398 l
0.6500 0.3478 l
0.6643 0.3280 l
0.6786 0.3278 l
0.6929 0.3256 l
0.7071 0.3340 l
0.7214 0.3356 l
0.7357 0.3440 l
0.7500 0.3508 l
0.7643 0.3532 l
0.7786 0.3622 l
0.7929 0.3110 l
0.8071 0.3224 l
0.8214 0.3460 l
0.8357 0.3292 l
0.8500 0.3354 l
0.8643 0.3294 l
0.8786 0.3272 l
0.8929 0.3000 l
0.9071 0.3092 l
0.9214 0.3238 l
0.9357 0.3284 l
0.9500 0.3298 l
0.9643 0.3416 l
0.9786 0.3160 l
0.9929 0.2938 l
1.0071 0.3760 l
1.0214 0.3458 l
1.0357 0.3298 l
s
n
0.1458 0.3182 m
0.1458 0.3266 l
0.1542 0.3266 l
0.1542 0.3182 l
c
fill
[] 0 SD
0.0015 SLW
n
0.1458 0.3182 m
0.1458 0.3266 l
0.1542 0.3266 l
0.1542 0.3182 l
0.1458 0.3182 l
c
s
n
0.1601 0.3342 m
0.1601 0.3426 l
0.1685 0.3426 l
0.1685 0.3342 l
c
fill
n
0.1601 0.3342 m
0.1601 0.3426 l
0.1685 0.3426 l
0.1685 0.3342 l
0.1601 0.3342 l
c
s
n
0.1744 0.3458 m
0.1744 0.3542 l
0.1827 0.3542 l
0.1827 0.3458 l
c
fill
n
0.1744 0.3458 m
0.1744 0.3542 l
0.1827 0.3542 l
0.1827 0.3458 l
0.1744 0.3458 l
c
s
n
0.1887 0.3656 m
0.1887 0.3740 l
0.1970 0.3740 l
0.1970 0.3656 l
c
fill
n
0.1887 0.3656 m
0.1887 0.3740 l
0.1970 0.3740 l
0.1970 0.3656 l
0.1887 0.3656 l
c
s
n
0.2030 0.3578 m
0.2030 0.3662 l
0.2113 0.3662 l
0.2113 0.3578 l
c
fill
n
0.2030 0.3578 m
0.2030 0.3662 l
0.2113 0.3662 l
0.2113 0.3578 l
0.2030 0.3578 l
c
s
n
0.2173 0.3254 m
0.2173 0.3338 l
0.2256 0.3338 l
0.2256 0.3254 l
c
fill
n
0.2173 0.3254 m
0.2173 0.3338 l
0.2256 0.3338 l
0.2256 0.3254 l
0.2173 0.3254 l
c
s
n
0.2315 0.3368 m
0.2315 0.3452 l
0.2399 0.3452 l
0.2399 0.3368 l
c
fill
n
0.2315 0.3368 m
0.2315 0.3452 l
0.2399 0.3452 l
0.2399 0.3368 l
0.2315 0.3368 l
c
s
n
0.2458 0.3104 m
0.2458 0.3188 l
0.2542 0.3188 l
0.2542 0.3104 l
c
fill
n
0.2458 0.3104 m
0.2458 0.3188 l
0.2542 0.3188 l
0.2542 0.3104 l
0.2458 0.3104 l
c
s
n
0.2601 0.3032 m
0.2601 0.3116 l
0.2685 0.3116 l
0.2685 0.3032 l
c
fill
n
0.2601 0.3032 m
0.2601 0.3116 l
0.2685 0.3116 l
0.2685 0.3032 l
0.2601 0.3032 l
c
s
n
0.2744 0.4076 m
0.2744 0.4160 l
0.2827 0.4160 l
0.2827 0.4076 l
c
fill
n
0.2744 0.4076 m
0.2744 0.4160 l
0.2827 0.4160 l
0.2827 0.4076 l
0.2744 0.4076 l
c
s
n
0.2887 0.3392 m
0.2887 0.3476 l
0.2970 0.3476 l
0.2970 0.3392 l
c
fill
n
0.2887 0.3392 m
0.2887 0.3476 l
0.2970 0.3476 l
0.2970 0.3392 l
0.2887 0.3392 l
c
s
n
0.3030 0.3220 m
0.3030 0.3304 l
0.3113 0.3304 l
0.3113 0.3220 l
c
fill
n
0.3030 0.3220 m
0.3030 0.3304 l
0.3113 0.3304 l
0.3113 0.3220 l
0.3030 0.3220 l
c
s
n
0.3173 0.3656 m
0.3173 0.3740 l
0.3256 0.3740 l
0.3256 0.3656 l
c
fill
n
0.3173 0.3656 m
0.3173 0.3740 l
0.3256 0.3740 l
0.3256 0.3656 l
0.3173 0.3656 l
c
s
n
0.3315 0.3272 m
0.3315 0.3356 l
0.3399 0.3356 l
0.3399 0.3272 l
c
fill
n
0.3315 0.3272 m
0.3315 0.3356 l
0.3399 0.3356 l
0.3399 0.3272 l
0.3315 0.3272 l
c
s
n
0.3458 0.3352 m
0.3458 0.3436 l
0.3542 0.3436 l
0.3542 0.3352 l
c
fill
n
0.3458 0.3352 m
0.3458 0.3436 l
0.3542 0.3436 l
0.3542 0.3352 l
0.3458 0.3352 l
c
s
n
0.3601 0.3454 m
0.3601 0.3538 l
0.3685 0.3538 l
0.3685 0.3454 l
c
fill
n
0.3601 0.3454 m
0.3601 0.3538 l
0.3685 0.3538 l
0.3685 0.3454 l
0.3601 0.3454 l
c
s
n
0.3744 0.3536 m
0.3744 0.3620 l
0.3827 0.3620 l
0.3827 0.3536 l
c
fill
n
0.3744 0.3536 m
0.3744 0.3620 l
0.3827 0.3620 l
0.3827 0.3536 l
0.3744 0.3536 l
c
s
n
0.3887 0.3358 m
0.3887 0.3442 l
0.3970 0.3442 l
0.3970 0.3358 l
c
fill
n
0.3887 0.3358 m
0.3887 0.3442 l
0.3970 0.3442 l
0.3970 0.3358 l
0.3887 0.3358 l
c
s
n
0.4030 0.3332 m
0.4030 0.3416 l
0.4113 0.3416 l
0.4113 0.3332 l
c
fill
n
0.4030 0.3332 m
0.4030 0.3416 l
0.4113 0.3416 l
0.4113 0.3332 l
0.4030 0.3332 l
c
s
n
0.4173 0.3312 m
0.4173 0.3396 l
0.4256 0.3396 l
0.4256 0.3312 l
c
fill
n
0.4173 0.3312 m
0.4173 0.3396 l
0.4256 0.3396 l
0.4256 0.3312 l
0.4173 0.3312 l
c
s
n
0.4315 0.2914 m
0.4315 0.2998 l
0.4399 0.2998 l
0.4399 0.2914 l
c
fill
n
0.4315 0.2914 m
0.4315 0.2998 l
0.4399 0.2998 l
0.4399 0.2914 l
0.4315 0.2914 l
c
s
n
0.4458 0.3296 m
0.4458 0.3380 l
0.4542 0.3380 l
0.4542 0.3296 l
c
fill
n
0.4458 0.3296 m
0.4458 0.3380 l
0.4542 0.3380 l
0.4542 0.3296 l
0.4458 0.3296 l
c
s
n
0.4601 0.3146 m
0.4601 0.3230 l
0.4685 0.3230 l
0.4685 0.3146 l
c
fill
n
0.4601 0.3146 m
0.4601 0.3230 l
0.4685 0.3230 l
0.4685 0.3146 l
0.4601 0.3146 l
c
s
n
0.4744 0.3108 m
0.4744 0.3192 l
0.4827 0.3192 l
0.4827 0.3108 l
c
fill
n
0.4744 0.3108 m
0.4744 0.3192 l
0.4827 0.3192 l
0.4827 0.3108 l
0.4744 0.3108 l
c
s
n
0.4887 0.3152 m
0.4887 0.3236 l
0.4970 0.3236 l
0.4970 0.3152 l
c
fill
n
0.4887 0.3152 m
0.4887 0.3236 l
0.4970 0.3236 l
0.4970 0.3152 l
0.4887 0.3152 l
c
s
n
0.5030 0.2980 m
0.5030 0.3064 l
0.5113 0.3064 l
0.5113 0.2980 l
c
fill
n
0.5030 0.2980 m
0.5030 0.3064 l
0.5113 0.3064 l
0.5113 0.2980 l
0.5030 0.2980 l
c
s
n
0.5173 0.2750 m
0.5173 0.2834 l
0.5256 0.2834 l
0.5256 0.2750 l
c
fill
n
0.5173 0.2750 m
0.5173 0.2834 l
0.5256 0.2834 l
0.5256 0.2750 l
0.5173 0.2750 l
c
s
n
0.5315 0.3112 m
0.5315 0.3196 l
0.5399 0.3196 l
0.5399 0.3112 l
c
fill
n
0.5315 0.3112 m
0.5315 0.3196 l
0.5399 0.3196 l
0.5399 0.3112 l
0.5315 0.3112 l
c
s
n
0.5458 0.2944 m
0.5458 0.3028 l
0.5542 0.3028 l
0.5542 0.2944 l
c
fill
n
0.5458 0.2944 m
0.5458 0.3028 l
0.5542 0.3028 l
0.5542 0.2944 l
0.5458 0.2944 l
c
s
n
0.5601 0.3188 m
0.5601 0.3272 l
0.5685 0.3272 l
0.5685 0.3188 l
c
fill
n
0.5601 0.3188 m
0.5601 0.3272 l
0.5685 0.3272 l
0.5685 0.3188 l
0.5601 0.3188 l
c
s
n
0.5744 0.3204 m
0.5744 0.3288 l
0.5827 0.3288 l
0.5827 0.3204 l
c
fill
n
0.5744 0.3204 m
0.5744 0.3288 l
0.5827 0.3288 l
0.5827 0.3204 l
0.5744 0.3204 l
c
s
n
0.5887 0.2286 m
0.5887 0.2370 l
0.5970 0.2370 l
0.5970 0.2286 l
c
fill
n
0.5887 0.2286 m
0.5887 0.2370 l
0.5970 0.2370 l
0.5970 0.2286 l
0.5887 0.2286 l
c
s
n
0.6030 0.2962 m
0.6030 0.3046 l
0.6113 0.3046 l
0.6113 0.2962 l
c
fill
n
0.6030 0.2962 m
0.6030 0.3046 l
0.6113 0.3046 l
0.6113 0.2962 l
0.6030 0.2962 l
c
s
n
0.6173 0.3224 m
0.6173 0.3308 l
0.6256 0.3308 l
0.6256 0.3224 l
c
fill
n
0.6173 0.3224 m
0.6173 0.3308 l
0.6256 0.3308 l
0.6256 0.3224 l
0.6173 0.3224 l
c
s
n
0.6315 0.3356 m
0.6315 0.3440 l
0.6399 0.3440 l
0.6399 0.3356 l
c
fill
n
0.6315 0.3356 m
0.6315 0.3440 l
0.6399 0.3440 l
0.6399 0.3356 l
0.6315 0.3356 l
c
s
n
0.6458 0.3436 m
0.6458 0.3520 l
0.6542 0.3520 l
0.6542 0.3436 l
c
fill
n
0.6458 0.3436 m
0.6458 0.3520 l
0.6542 0.3520 l
0.6542 0.3436 l
0.6458 0.3436 l
c
s
n
0.6601 0.3238 m
0.6601 0.3322 l
0.6685 0.3322 l
0.6685 0.3238 l
c
fill
n
0.6601 0.3238 m
0.6601 0.3322 l
0.6685 0.3322 l
0.6685 0.3238 l
0.6601 0.3238 l
c
s
n
0.6744 0.3236 m
0.6744 0.3320 l
0.6827 0.3320 l
0.6827 0.3236 l
c
fill
n
0.6744 0.3236 m
0.6744 0.3320 l
0.6827 0.3320 l
0.6827 0.3236 l
0.6744 0.3236 l
c
s
n
0.6887 0.3214 m
0.6887 0.3298 l
0.6970 0.3298 l
0.6970 0.3214 l
c
fill
n
0.6887 0.3214 m
0.6887 0.3298 l
0.6970 0.3298 l
0.6970 0.3214 l
0.6887 0.3214 l
c
s
n
0.7030 0.3298 m
0.7030 0.3382 l
0.7113 0.3382 l
0.7113 0.3298 l
c
fill
n
0.7030 0.3298 m
0.7030 0.3382 l
0.7113 0.3382 l
0.7113 0.3298 l
0.7030 0.3298 l
c
s
n
0.7173 0.3314 m
0.7173 0.3398 l
0.7256 0.3398 l
0.7256 0.3314 l
c
fill
n
0.7173 0.3314 m
0.7173 0.3398 l
0.7256 0.3398 l
0.7256 0.3314 l
0.7173 0.3314 l
c
s
n
0.7315 0.3398 m
0.7315 0.3482 l
0.7399 0.3482 l
0.7399 0.3398 l
c
fill
n
0.7315 0.3398 m
0.7315 0.3482 l
0.7399 0.3482 l
0.7399 0.3398 l
0.7315 0.3398 l
c
s
n
0.7458 0.3466 m
0.7458 0.3550 l
0.7542 0.3550 l
0.7542 0.3466 l
c
fill
n
0.7458 0.3466 m
0.7458 0.3550 l
0.7542 0.3550 l
0.7542 0.3466 l
0.7458 0.3466 l
c
s
n
0.7601 0.3490 m
0.7601 0.3574 l
0.7685 0.3574 l
0.7685 0.3490 l
c
fill
n
0.7601 0.3490 m
0.7601 0.3574 l
0.7685 0.3574 l
0.7685 0.3490 l
0.7601 0.3490 l
c
s
n
0.7744 0.3580 m
0.7744 0.3664 l
0.7827 0.3664 l
0.7827 0.3580 l
c
fill
n
0.7744 0.3580 m
0.7744 0.3664 l
0.7827 0.3664 l
0.7827 0.3580 l
0.7744 0.3580 l
c
s
n
0.7887 0.3068 m
0.7887 0.3152 l
0.7970 0.3152 l
0.7970 0.3068 l
c
fill
n
0.7887 0.3068 m
0.7887 0.3152 l
0.7970 0.3152 l
0.7970 0.3068 l
0.7887 0.3068 l
c
s
n
0.8030 0.3182 m
0.8030 0.3266 l
0.8113 0.3266 l
0.8113 0.3182 l
c
fill
n
0.8030 0.3182 m
0.8030 0.3266 l
0.8113 0.3266 l
0.8113 0.3182 l
0.8030 0.3182 l
c
s
n
0.8173 0.3418 m
0.8173 0.3502 l
0.8256 0.3502 l
0.8256 0.3418 l
c
fill
n
0.8173 0.3418 m
0.8173 0.3502 l
0.8256 0.3502 l
0.8256 0.3418 l
0.8173 0.3418 l
c
s
n
0.8315 0.3250 m
0.8315 0.3334 l
0.8399 0.3334 l
0.8399 0.3250 l
c
fill
n
0.8315 0.3250 m
0.8315 0.3334 l
0.8399 0.3334 l
0.8399 0.3250 l
0.8315 0.3250 l
c
s
n
0.8458 0.3312 m
0.8458 0.3396 l
0.8542 0.3396 l
0.8542 0.3312 l
c
fill
n
0.8458 0.3312 m
0.8458 0.3396 l
0.8542 0.3396 l
0.8542 0.3312 l
0.8458 0.3312 l
c
s
n
0.8601 0.3252 m
0.8601 0.3336 l
0.8685 0.3336 l
0.8685 0.3252 l
c
fill
n
0.8601 0.3252 m
0.8601 0.3336 l
0.8685 0.3336 l
0.8685 0.3252 l
0.8601 0.3252 l
c
s
n
0.8744 0.3230 m
0.8744 0.3314 l
0.8827 0.3314 l
0.8827 0.3230 l
c
fill
n
0.8744 0.3230 m
0.8744 0.3314 l
0.8827 0.3314 l
0.8827 0.3230 l
0.8744 0.3230 l
c
s
n
0.8887 0.2958 m
0.8887 0.3042 l
0.8970 0.3042 l
0.8970 0.2958 l
c
fill
n
0.8887 0.2958 m
0.8887 0.3042 l
0.8970 0.3042 l
0.8970 0.2958 l
0.8887 0.2958 l
c
s
n
0.9030 0.3050 m
0.9030 0.3134 l
0.9113 0.3134 l
0.9113 0.3050 l
c
fill
n
0.9030 0.3050 m
0.9030 0.3134 l
0.9113 0.3134 l
0.9113 0.3050 l
0.9030 0.3050 l
c
s
n
0.9173 0.3196 m
0.9173 0.3280 l
0.9256 0.3280 l
0.9256 0.3196 l
c
fill
n
0.9173 0.3196 m
0.9173 0.3280 l
0.9256 0.3280 l
0.9256 0.3196 l
0.9173 0.3196 l
c
s
n
0.9315 0.3242 m
0.9315 0.3326 l
0.9399 0.3326 l
0.9399 0.3242 l
c
fill
n
0.9315 0.3242 m
0.9315 0.3326 l
0.9399 0.3326 l
0.9399 0.3242 l
0.9315 0.3242 l
c
s
n
0.9458 0.3256 m
0.9458 0.3340 l
0.9542 0.3340 l
0.9542 0.3256 l
c
fill
n
0.9458 0.3256 m
0.9458 0.3340 l
0.9542 0.3340 l
0.9542 0.3256 l
0.9458 0.3256 l
c
s
n
0.9601 0.3374 m
0.9601 0.3458 l
0.9685 0.3458 l
0.9685 0.3374 l
c
fill
n
0.9601 0.3374 m
0.9601 0.3458 l
0.9685 0.3458 l
0.9685 0.3374 l
0.9601 0.3374 l
c
s
n
0.9744 0.3118 m
0.9744 0.3202 l
0.9827 0.3202 l
0.9827 0.3118 l
c
fill
n
0.9744 0.3118 m
0.9744 0.3202 l
0.9827 0.3202 l
0.9827 0.3118 l
0.9744 0.3118 l
c
s
n
0.9887 0.2896 m
0.9887 0.2980 l
0.9970 0.2980 l
0.9970 0.2896 l
c
fill
n
0.9887 0.2896 m
0.9887 0.2980 l
0.9970 0.2980 l
0.9970 0.2896 l
0.9887 0.2896 l
c
s
n
1.0030 0.3718 m
1.0030 0.3802 l
1.0113 0.3802 l
1.0113 0.3718 l
c
fill
n
1.0030 0.3718 m
1.0030 0.3802 l
1.0113 0.3802 l
1.0113 0.3718 l
1.0030 0.3718 l
c
s
n
1.0173 0.3416 m
1.0173 0.3500 l
1.0256 0.3500 l
1.0256 0.3416 l
c
fill
n
1.0173 0.3416 m
1.0173 0.3500 l
1.0256 0.3500 l
1.0256 0.3416 l
1.0173 0.3416 l
c
s
n
1.0315 0.3256 m
1.0315 0.3340 l
1.0399 0.3340 l
1.0399 0.3256 l
c
fill
n
1.0315 0.3256 m
1.0315 0.3340 l
1.0399 0.3340 l
1.0399 0.3256 l
1.0315 0.3256 l
c
s
[/DeviceRGB] SCS
Color1 SC
n
0.1500 0.1500 m
1.1500 0.1500 l
s
n
0.1500 0.1500 m
0.1500 0.1634 l
s
n
0.1643 0.1500 m
0.1643 0.1634 l
s
n
0.1786 0.1500 m
0.1786 0.1634 l
s
n
0.1929 0.1500 m
0.1929 0.1634 l
s
n
0.2071 0.1500 m
0.2071 0.1634 l
s
n
0.2214 0.1500 m
0.2214 0.1634 l
s
n
0.2357 0.1500 m
0.2357 0.1634 l
s
n
0.2500 0.1500 m
0.2500 0.1634 l
s
n
0.2643 0.1500 m
0.2643 0.1634 l
s
n
0.2786 0.1500 m
0.2786 0.1634 l
s
n
0.2929 0.1500 m
0.2929 0.1634 l
s
n
0.3071 0.1500 m
0.3071 0.1634 l
s
n
0.3214 0.1500 m
0.3214 0.1634 l
s
n
0.3357 0.1500 m
0.3357 0.1634 l
s
n
0.3500 0.1500 m
0.3500 0.1634 l
s
n
0.3643 0.1500 m
0.3643 0.1634 l
s
n
0.3786 0.1500 m
0.3786 0.1634 l
s
n
0.3929 0.1500 m
0.3929 0.1634 l
s
n
0.4071 0.1500 m
0.4071 0.1634 l
s
n
0.4214 0.1500 m
0.4214 0.1634 l
s
n
0.4357 0.1500 m
0.4357 0.1634 l
s
n
0.4500 0.1500 m
0.4500 0.1634 l
s
n
0.4643 0.1500 m
0.4643 0.1634 l
s
n
0.4786 0.1500 m
0.4786 0.1634 l
s
n
0.4929 0.1500 m
0.4929 0.1634 l
s
n
0.5071 0.1500 m
0.5071 0.1634 l
s
n
0.5214 0.1500 m
0.5214 0.1634 l
s
n
0.5357 0.1500 m
0.5357 0.1634 l
s
n
0.5500 0.1500 m
0.5500 0.1634 l
s
n
0.5643 0.1500 m
0.5643 0.1634 l
s
n
0.5786 0.1500 m
0.5786 0.1634 l
s
n
0.5929 0.1500 m
0.5929 0.1634 l
s
n
0.6071 0.1500 m
0.6071 0.1634 l
s
n
0.6214 0.1500 m
0.6214 0.1634 l
s
n
0.6357 0.1500 m
0.6357 0.1634 l
s
n
0.6500 0.1500 m
0.6500 0.1634 l
s
n
0.6643 0.1500 m
0.6643 0.1634 l
s
n
0.6786 0.1500 m
0.6786 0.1634 l
s
n
0.6929 0.1500 m
0.6929 0.1634 l
s
n
0.7071 0.1500 m
0.7071 0.1634 l
s
n
0.7214 0.1500 m
0.7214 0.1634 l
s
n
0.7357 0.1500 m
0.7357 0.1634 l
s
n
0.7500 0.1500 m
0.7500 0.1634 l
s
n
0.7643 0.1500 m
0.7643 0.1634 l
s
n
0.7786 0.1500 m
0.7786 0.1634 l
s
n
0.7929 0.1500 m
0.7929 0.1634 l
s
n
0.8071 0.1500 m
0.8071 0.1634 l
s
n
0.8214 0.1500 m
0.8214 0.1634 l
s
n
0.8357 0.1500 m
0.8357 0.1634 l
s
n
0.8500 0.1500 m
0.8500 0.1634 l
s
n
0.8643 0.1500 m
0.8643 0.1634 l
s
n
0.8786 0.1500 m
0.8786 0.1634 l
s
n
0.8929 0.1500 m
0.8929 0.1634 l
s
n
0.9071 0.1500 m
0.9071 0.1634 l
s
n
0.9214 0.1500 m
0.9214 0.1634 l
s
n
0.9357 0.1500 m
0.9357 0.1634 l
s
n
0.9500 0.1500 m
0.9500 0.1634 l
s
n
0.9643 0.1500 m
0.9643 0.1634 l
s
n
0.9786 0.1500 m
0.9786 0.1634 l
s
n
0.9929 0.1500 m
0.9929 0.1634 l
s
n
1.0071 0.1500 m
1.0071 0.1634 l
s
n
1.0214 0.1500 m
1.0214 0.1634 l
s
n
1.0357 0.1500 m
1.0357 0.1634 l
s
/Times-Roman findfont
dup length dict begin
 {1 index /FID ne {def} {pop pop} ifelse} forall
 /Encoding DefEncoding def
 currentdict
end
/Font0 exch definefont pop
/Font0 FFSF
0.1547 0.1153 m
GS
[0.0000 0.0137 -0.0137 0.0000 0 0] CC
(LiCl) show
GR
/Font0 FFSF
0.1690 0.0916 m
GS
[0.0000 0.0137 -0.0137 0.0000 0 0] CC
(NaCl) show
GR
/Font0 FFSF
0.1833 0.1173 m
GS
[0.0000 0.0137 -0.0137 0.0000 0 0] CC
(KCl) show
GR
/Font0 FFSF
0.1976 0.0916 m
GS
[0.0000 0.0137 -0.0137 0.0000 0 0] CC
(RbCl) show
GR
/Font0 FFSF
0.2118 0.1129 m
GS
[0.0000 0.0137 -0.0137 0.0000 0 0] CC
(CsCl) show
GR
/Font0 FFSF
0.2259 0.0955 m
GS
[0.0000 0.0137 -0.0137 0.0000 0 0] CC
(BeO) show
GR
/Font0 FFSF
0.2387 0.1114 m
GS
[0.0000 0.0137 -0.0137 0.0000 0 0] CC
(MgO) show
GR
/Font0 FFSF
0.2545 0.0955 m
GS
[0.0000 0.0137 -0.0137 0.0000 0 0] CC
(CaO) show
GR
/Font0 FFSF
0.2690 0.1184 m
GS
[0.0000 0.0137 -0.0137 0.0000 0 0] CC
(SrO) show
GR
/Font0 FFSF
0.2831 0.0955 m
GS
[0.0000 0.0137 -0.0137 0.0000 0 0] CC
(BaO) show
GR
/Font0 FFSF
0.2976 0.1165 m
GS
[0.0000 0.0137 -0.0137 0.0000 0 0] CC
(ScN) show
GR
/Font0 FFSF
0.3117 0.1006 m
GS
[0.0000 0.0137 -0.0137 0.0000 0 0] CC
(YN) show
GR
/Font0 FFSF
0.3259 0.1157 m
GS
[0.0000 0.0137 -0.0137 0.0000 0 0] CC
(LaN) show
GR
/Font0 FFSF
0.3402 0.0986 m
GS
[0.0000 0.0137 -0.0137 0.0000 0 0] CC
(TiO) show
GR
/Font0 FFSF
0.3545 0.1208 m
GS
[0.0000 0.0137 -0.0137 0.0000 0 0] CC
(VO) show
GR
/Font0 FFSF
0.3688 0.0971 m
GS
[0.0000 0.0137 -0.0137 0.0000 0 0] CC
(CrO) show
GR
/Font0 FFSF
0.3831 0.1114 m
GS
[0.0000 0.0137 -0.0137 0.0000 0 0] CC
(MnO) show
GR
/Font0 FFSF
0.3974 0.0971 m
GS
[0.0000 0.0137 -0.0137 0.0000 0 0] CC
(FeO) show
GR
/Font0 FFSF
0.4117 0.1145 m
GS
[0.0000 0.0137 -0.0137 0.0000 0 0] CC
(CoO) show
GR
/Font0 FFSF
0.4259 0.0971 m
GS
[0.0000 0.0137 -0.0137 0.0000 0 0] CC
(NiO) show
GR
/Font0 FFSF
0.4402 0.1145 m
GS
[0.0000 0.0137 -0.0137 0.0000 0 0] CC
(CuO) show
GR
/Font0 FFSF
0.4545 0.0955 m
GS
[0.0000 0.0137 -0.0137 0.0000 0 0] CC
(ZnO) show
GR
/Font0 FFSF
0.4688 0.1176 m
GS
[0.0000 0.0137 -0.0137 0.0000 0 0] CC
(ZrO) show
GR
/Font0 FFSF
0.4833 0.0939 m
GS
[0.0000 0.0137 -0.0137 0.0000 0 0] CC
(NbO) show
GR
/Font0 FFSF
0.4974 0.1114 m
GS
[0.0000 0.0137 -0.0137 0.0000 0 0] CC
(MoO) show
GR
/Font0 FFSF
0.5117 0.0963 m
GS
[0.0000 0.0137 -0.0137 0.0000 0 0] CC
(TcO) show
GR
/Font0 FFSF
0.5259 0.1145 m
GS
[0.0000 0.0137 -0.0137 0.0000 0 0] CC
(RuO) show
GR
/Font0 FFSF
0.5404 0.0947 m
GS
[0.0000 0.0137 -0.0137 0.0000 0 0] CC
(RhO) show
GR
/Font0 FFSF
0.5547 0.1161 m
GS
[0.0000 0.0137 -0.0137 0.0000 0 0] CC
(PdO) show
GR
/Font0 FFSF
0.5672 0.0939 m
GS
[0.0000 0.0137 -0.0137 0.0000 0 0] CC
(AgO) show
GR
/Font0 FFSF
0.5833 0.1145 m
GS
[0.0000 0.0137 -0.0137 0.0000 0 0] CC
(CdO) show
GR
/Font0 FFSF
0.5974 0.0963 m
GS
[0.0000 0.0137 -0.0137 0.0000 0 0] CC
(HfO) show
GR
/Font0 FFSF
0.6117 0.1161 m
GS
[0.0000 0.0137 -0.0137 0.0000 0 0] CC
(TaO) show
GR
/Font0 FFSF
0.6259 0.0978 m
GS
[0.0000 0.0137 -0.0137 0.0000 0 0] CC
(WO) show
GR
/Font0 FFSF
0.6402 0.1153 m
GS
[0.0000 0.0137 -0.0137 0.0000 0 0] CC
(ReO) show
GR
/Font0 FFSF
0.6545 0.0955 m
GS
[0.0000 0.0137 -0.0137 0.0000 0 0] CC
(OsO) show
GR
/Font0 FFSF
0.6688 0.1216 m
GS
[0.0000 0.0137 -0.0137 0.0000 0 0] CC
(IrO) show
GR
/Font0 FFSF
0.6831 0.0994 m
GS
[0.0000 0.0137 -0.0137 0.0000 0 0] CC
(PtO) show
GR
/Font0 FFSF
0.6974 0.1137 m
GS
[0.0000 0.0137 -0.0137 0.0000 0 0] CC
(AuO) show
GR
/Font0 FFSF
0.7101 0.0939 m
GS
[0.0000 0.0137 -0.0137 0.0000 0 0] CC
(HgO) show
GR
/Font0 FFSF
0.7259 0.1212 m
GS
[0.0000 0.0137 -0.0137 0.0000 0 0] CC
(BN) show
GR
/Font0 FFSF
0.7404 0.0967 m
GS
[0.0000 0.0137 -0.0137 0.0000 0 0] CC
(AlN) show
GR
/Font0 FFSF
0.7545 0.1141 m
GS
[0.0000 0.0137 -0.0137 0.0000 0 0] CC
(GaN) show
GR
/Font0 FFSF
0.7688 0.0990 m
GS
[0.0000 0.0137 -0.0137 0.0000 0 0] CC
(InN) show
GR
/Font0 FFSF
0.7833 0.1180 m
GS
[0.0000 0.0137 -0.0137 0.0000 0 0] CC
(TlN) show
GR
/Font0 FFSF
0.7974 0.1018 m
GS
[0.0000 0.0137 -0.0137 0.0000 0 0] CC
(CO) show
GR
/Font0 FFSF
0.8118 0.1192 m
GS
[0.0000 0.0137 -0.0137 0.0000 0 0] CC
(SiO) show
GR
/Font0 FFSF
0.8259 0.0947 m
GS
[0.0000 0.0137 -0.0137 0.0000 0 0] CC
(GeO) show
GR
/Font0 FFSF
0.8404 0.1161 m
GS
[0.0000 0.0137 -0.0137 0.0000 0 0] CC
(SnO) show
GR
/Font0 FFSF
0.8547 0.0963 m
GS
[0.0000 0.0137 -0.0137 0.0000 0 0] CC
(PbO) show
GR
/Font0 FFSF
0.8690 0.1188 m
GS
[0.0000 0.0137 -0.0137 0.0000 0 0] CC
(AlP) show
GR
/Font0 FFSF
0.8833 0.0920 m
GS
[0.0000 0.0137 -0.0137 0.0000 0 0] CC
(AlAs) show
GR
/Font0 FFSF
0.8976 0.1125 m
GS
[0.0000 0.0137 -0.0137 0.0000 0 0] CC
(AlSb) show
GR
/Font0 FFSF
0.9118 0.0939 m
GS
[0.0000 0.0137 -0.0137 0.0000 0 0] CC
(AlBi) show
GR
/Font0 FFSF
0.9261 0.1212 m
GS
[0.0000 0.0137 -0.0137 0.0000 0 0] CC
(SrS) show
GR
/Font0 FFSF
0.9404 0.0947 m
GS
[0.0000 0.0137 -0.0137 0.0000 0 0] CC
(SrSe) show
GR
/Font0 FFSF
0.9547 0.1137 m
GS
[0.0000 0.0137 -0.0137 0.0000 0 0] CC
(SrTe) show
GR
/Font0 FFSF
0.9688 0.1006 m
GS
[0.0000 0.0137 -0.0137 0.0000 0 0] CC
(LiF) show
GR
/Font0 FFSF
0.9831 0.1141 m
GS
[0.0000 0.0137 -0.0137 0.0000 0 0] CC
(LiBr) show
GR
/Font0 FFSF
0.9974 0.1037 m
GS
[0.0000 0.0137 -0.0137 0.0000 0 0] CC
(LiI) show
GR
/Font0 FFSF
1.0117 0.1165 m
GS
[0.0000 0.0137 -0.0137 0.0000 0 0] CC
(NaF) show
GR
/Font0 FFSF
1.0259 0.0904 m
GS
[0.0000 0.0137 -0.0137 0.0000 0 0] CC
(NaBr) show
GR
/Font0 FFSF
1.0402 0.1196 m
GS
[0.0000 0.0137 -0.0137 0.0000 0 0] CC
(NaI) show
GR
n
0.1500 0.1500 m
0.1500 0.5500 l
s
n
1.1500 0.1500 m
1.1500 0.5500 l
s
n
0.1500 0.1700 m
0.1600 0.1700 l
s
n
1.1500 0.1700 m
1.1400 0.1700 l
s
n
0.1500 0.2100 m
0.1600 0.2100 l
s
n
1.1500 0.2100 m
1.1400 0.2100 l
s
n
0.1500 0.2500 m
0.1600 0.2500 l
s
n
1.1500 0.2500 m
1.1400 0.2500 l
s
n
0.1500 0.2900 m
0.1600 0.2900 l
s
n
1.1500 0.2900 m
1.1400 0.2900 l
s
n
0.1500 0.3300 m
0.1600 0.3300 l
s
n
1.1500 0.3300 m
1.1400 0.3300 l
s
n
0.1500 0.3700 m
0.1600 0.3700 l
s
n
1.1500 0.3700 m
1.1400 0.3700 l
s
n
0.1500 0.4100 m
0.1600 0.4100 l
s
n
1.1500 0.4100 m
1.1400 0.4100 l
s
n
0.1500 0.4500 m
0.1600 0.4500 l
s
n
1.1500 0.4500 m
1.1400 0.4500 l
s
n
0.1500 0.4900 m
0.1600 0.4900 l
s
n
1.1500 0.4900 m
1.1400 0.4900 l
s
n
0.1500 0.5300 m
0.1600 0.5300 l
s
n
1.1500 0.5300 m
1.1400 0.5300 l
s
n
0.1500 0.1500 m
0.1700 0.1500 l
s
n
1.1500 0.1500 m
1.1300 0.1500 l
s
n
0.1500 0.1900 m
0.1700 0.1900 l
s
n
1.1500 0.1900 m
1.1300 0.1900 l
s
n
0.1500 0.2300 m
0.1700 0.2300 l
s
n
1.1500 0.2300 m
1.1300 0.2300 l
s
n
0.1500 0.2700 m
0.1700 0.2700 l
s
n
1.1500 0.2700 m
1.1300 0.2700 l
s
n
0.1500 0.3100 m
0.1700 0.3100 l
s
n
1.1500 0.3100 m
1.1300 0.3100 l
s
n
0.1500 0.3500 m
0.1700 0.3500 l
s
n
1.1500 0.3500 m
1.1300 0.3500 l
s
n
0.1500 0.3900 m
0.1700 0.3900 l
s
n
1.1500 0.3900 m
1.1300 0.3900 l
s
n
0.1500 0.4300 m
0.1700 0.4300 l
s
n
1.1500 0.4300 m
1.1300 0.4300 l
s
n
0.1500 0.4700 m
0.1700 0.4700 l
s
n
1.1500 0.4700 m
1.1300 0.4700 l
s
n
0.1500 0.5100 m
0.1700 0.5100 l
s
n
1.1500 0.5100 m
1.1300 0.5100 l
s
n
0.1500 0.5500 m
0.1700 0.5500 l
s
n
1.1500 0.5500 m
1.1300 0.5500 l
s
/Font0 FFSF
0.1196 0.1406 m
GS
[0.0280 0.0000 0.0000 0.0280 0 0] CC
(-1) show
GR
/Font0 FFSF
0.0973 0.1808 m
GS
[0.0280 0.0000 0.0000 0.0280 0 0] CC
(-0.8) show
GR
/Font0 FFSF
0.0969 0.2206 m
GS
[0.0280 0.0000 0.0000 0.0280 0 0] CC
(-0.6) show
GR
/Font0 FFSF
0.0965 0.2608 m
GS
[0.0280 0.0000 0.0000 0.0280 0 0] CC
(-0.4) show
GR
/Font0 FFSF
0.0965 0.3008 m
GS
[0.0280 0.0000 0.0000 0.0280 0 0] CC
(-0.2) show
GR
/Font0 FFSF
0.1267 0.3408 m
GS
[0.0280 0.0000 0.0000 0.0280 0 0] CC
(0) show
GR
/Font0 FFSF
0.1055 0.3808 m
GS
[0.0280 0.0000 0.0000 0.0280 0 0] CC
(0.2) show
GR
/Font0 FFSF
0.1055 0.4208 m
GS
[0.0280 0.0000 0.0000 0.0280 0 0] CC
(0.4) show
GR
/Font0 FFSF
0.1059 0.4606 m
GS
[0.0280 0.0000 0.0000 0.0280 0 0] CC
(0.6) show
GR
/Font0 FFSF
0.1063 0.5008 m
GS
[0.0280 0.0000 0.0000 0.0280 0 0] CC
(0.8) show
GR
/Font0 FFSF
0.1290 0.5406 m
GS
[0.0280 0.0000 0.0000 0.0280 0 0] CC
(1) show
GR
/Font0 FFSF
0.0861 0.2465 m
GS
[0.0000 0.0280 -0.0280 0.0000 0 0] CC
(% error versus AE) show
GR
n
0.1500 0.1500 m
0.1500 0.5500 l
1.1500 0.5500 l
1.1500 0.1500 l
0.1500 0.1500 l
c
s
n
0.8500 0.5000 m
0.8500 0.4312 l
1.1031 0.4312 l
1.1031 0.5000 l
c
[/DeviceRGB] SCS
Color0 SC
fill
[/DeviceRGB] SCS
Color1 SC
n
0.8500 0.5000 m
0.8500 0.4312 l
1.1031 0.4312 l
1.1031 0.5000 l
0.8500 0.5000 l
c
s
/Font0 FFSF
0.9206 0.4708 m
GS
[0.0280 0.0000 0.0000 0.0280 0 0] CC
(GBRV - Abinit) show
GR
[/DeviceRGB] SCS
Color4 SC
[] 0 SD
0.0023 SLW
n
0.8657 0.4802 m
0.9057 0.4802 l
s
n
0.8657 0.4802 0.0049 0.0049 0 360 EARC c
fill
[] 0 SD
0.0015 SLW
n 0.8657 0.4802 0.0049 0.0049 0 360 EARC s
n
0.9057 0.4802 0.0049 0.0049 0 360 EARC c
fill
n 0.9057 0.4802 0.0049 0.0049 0 360 EARC s
/Font0 FFSF
[/DeviceRGB] SCS
Color1 SC
0.9206 0.4416 m
GS
[0.0280 0.0000 0.0000 0.0280 0 0] CC
(JTH v1.1) show
GR
[/DeviceRGB] SCS
Color2 SC
[] 0 SD
0.0023 SLW
n
0.8657 0.4508 m
0.9057 0.4508 l
s
n
0.8615 0.4466 m
0.8615 0.4549 l
0.8698 0.4549 l
0.8698 0.4466 l
c
fill
[] 0 SD
0.0015 SLW
n
0.8615 0.4466 m
0.8615 0.4549 l
0.8698 0.4549 l
0.8698 0.4466 l
0.8615 0.4466 l
c
s
n
0.9015 0.4466 m
0.9015 0.4549 l
0.9098 0.4549 l
0.9098 0.4466 l
c
fill
n
0.9015 0.4466 m
0.9015 0.4549 l
0.9098 0.4549 l
0.9098 0.4466 l
0.9015 0.4466 l
c
s
%%Trailer
%%BoundingBox: 40 54 706 344
%%DocumentNeededResources: font Times-Roman
%%EOF
