%!PS-Adobe-3.0 EPSF-3.0
%%BoundingBox: (atend)
%%LanguageLevel: 2
%%Creator: Grace-5.1.21
%%CreationDate: Fri Mar  9 09:20:04 2018
%%DocumentData: Clean8Bit
%%Orientation: Portrait
%%Title: fig-hh.agr
%%For: jolletf
%%DocumentNeededResources: (atend)
%%EndComments
%%BeginProlog
/m {moveto} def
/l {lineto} def
/s {stroke} def
/n {newpath} def
/c {closepath} def
/RL {rlineto} def
/SLW {setlinewidth} def
/GS {gsave} def
/GR {grestore} def
/SC {setcolor} def
/SGRY {setgray} def
/SRGB {setrgbcolor} def
/SD {setdash} def
/SLC {setlinecap} def
/SLJ {setlinejoin} def
/SCS {setcolorspace} def
/FFSF {findfont setfont} def
/CC {concat} def
/PXL {n m 0 0 RL s} def
/Color0 {1.0000 1.0000 1.0000} def
/Color1 {0.0000 0.0000 0.0000} def
/Color2 {1.0000 0.0000 0.0000} def
/Color3 {0.0000 1.0000 0.0000} def
/Color4 {0.0000 0.0000 1.0000} def
/Color5 {1.0000 1.0000 0.0000} def
/Color6 {0.7373 0.5608 0.5608} def
/Color7 {0.8627 0.8627 0.8627} def
/Color8 {0.5804 0.0000 0.8275} def
/Color9 {0.0000 1.0000 1.0000} def
/Color10 {1.0000 0.0000 1.0000} def
/Color11 {1.0000 0.6471 0.0000} def
/Color12 {0.4471 0.1294 0.7373} def
/Color13 {0.4039 0.0275 0.2824} def
/Color14 {0.2510 0.8784 0.8157} def
/Color15 {0.0000 0.5451 0.0000} def
/Color16 {0.7529 0.7529 0.7529} def
/Color17 {0.5059 0.5059 0.5059} def
/Color18 {0.2588 0.2588 0.2588} def
/PTRN {
 /pat_bits exch def 
 <<
  /PaintType 2
  /PatternType 1 /TilingType 1
  /BBox[0 0 16 16]
  /XStep 16 /YStep 16
  /PaintProc {
   pop
   16 16 true [-1 0 0 -1 16 16] pat_bits imagemask
  }
 >>
 [0.0016 0 0 0.0016 0 0]
 makepattern
} def
/Pattern0 {<0000000000000000000000000000000000000000000000000000000000000000> PTRN} bind def
/Pattern1 {<ffffffffffffffffffffffffffffffffffffffffffffffffffffffffffffffff> PTRN} bind def
/Pattern2 {<eeeeffffbbbbffffeeeeffffbbbbffffeeeeffffbbbbffffeeeeffffbbbbffff> PTRN} bind def
/Pattern3 {<eeeebbbbeeeebbbbeeeebbbbeeeebbbbeeeebbbbeeeebbbbeeeebbbbeeeebbbb> PTRN} bind def
/Pattern4 {<5555aaaa5555aaaa5555aaaa5555aaaa5555aaaa5555aaaa5555aaaa5555aaaa> PTRN} bind def
/Pattern5 {<1111444411114444111144441111444411114444111144441111444411114444> PTRN} bind def
/Pattern6 {<1111000044440000111100004444000011110000444400001111000044440000> PTRN} bind def
/Pattern7 {<1010000000000000010100000000000010100000000000000101000000000000> PTRN} bind def
/Pattern8 {<0000000000000000000000000000000000000000000000000000000000000000> PTRN} bind def
/Pattern9 {<1e1e0f0f8787c3c3e1e1f0f078783c3c1e1e0f0f8787c3c3e1e1f0f078783c3c> PTRN} bind def
/Pattern10 {<7878f0f0e1e1c3c387870f0f1e1e3c3c7878f0f0e1e1c3c387870f0f1e1e3c3c> PTRN} bind def
/Pattern11 {<3333333333333333333333333333333333333333333333333333333333333333> PTRN} bind def
/Pattern12 {<ffffffff00000000ffffffff00000000ffffffff00000000ffffffff00000000> PTRN} bind def
/Pattern13 {<8181424224241818181824244242818181814242242418181818242442428181> PTRN} bind def
/Pattern14 {<8080404020201010080804040202010180804040202010100808040402020101> PTRN} bind def
/Pattern15 {<0101020204040808101020204040808001010202040408081010202040408080> PTRN} bind def
/Pattern16 {<2222222222222222222222222222222222222222222222222222222222222222> PTRN} bind def
/Pattern17 {<0000ffff000000000000ffff000000000000ffff000000000000ffff00000000> PTRN} bind def
/Pattern18 {<2222ffff222222222222ffff222222222222ffff222222222222ffff22222222> PTRN} bind def
/Pattern19 {<ffffffff33333333ffffffff33333333ffffffff33333333ffffffff33333333> PTRN} bind def
/Pattern20 {<0f0f0f0f0f0f0f0ff0f0f0f0f0f0f0f00f0f0f0f0f0f0f0ff0f0f0f0f0f0f0f0> PTRN} bind def
/Pattern21 {<ff00ff00ff00ff00ff00ff00ff00ff0000ff00ff00ff00ff00ff00ff00ff00ff> PTRN} bind def
/Pattern22 {<8001800180018001800180018001ffffffff8001800180018001800180018001> PTRN} bind def
/Pattern23 {<c003c003c003c003c003c003ffffffffffffffffc003c003c003c003c003c003> PTRN} bind def
/Pattern24 {<040404040404ffff404040404040ffff040404040404ffff404040404040ffff> PTRN} bind def
/Pattern25 {<180018001800180018001800ffffffff001800180018001800180018ffffffff> PTRN} bind def
/Pattern26 {<1111b8b87c7c3a3a1111a3a3c7c78b8b1111b8b87c7c3a3a1111a3a3c7c78b8b> PTRN} bind def
/Pattern27 {<101010102828c7c70101010182827c7c101010102828c7c70101010182827c7c> PTRN} bind def
/Pattern28 {<1c1c121211112121c1c12121111112121c1c121211112121c1c1212111111212> PTRN} bind def
/Pattern29 {<3e3e414180808080e3e31414080808083e3e414180808080e3e3141408080808> PTRN} bind def
/Pattern30 {<4848888884848383848488884848383848488888848483838484888848483838> PTRN} bind def
/Pattern31 {<03030404080808080c0c12122121c0c003030404080808080c0c12122121c0c0> PTRN} bind def
/ellipsedict 8 dict def
ellipsedict /mtrx matrix put
/EARC {
 ellipsedict begin
  /endangle exch def
  /startangle exch def
  /yrad exch def
  /xrad exch def
  /y exch def
  /x exch def
  /savematrix mtrx currentmatrix def
  x y translate
  xrad yrad scale
  0 0 1 startangle endangle arc
  savematrix setmatrix
 end
} def
/TL {
  /kcomp exch def
  /linewidth exch def
  /offset exch def
  GS
  0 offset rmoveto
  linewidth SLW
  dup stringwidth exch kcomp add exch RL s
  GR
} def
/KINIT
{
 /kvector exch def
 /kid 0 def
} def
/KPROC
{
 pop pop
 kvector kid get
 0 rmoveto
 /kid 1 kid add def
} def
/DefEncoding [
 /.notdef
 /.notdef
 /.notdef
 /.notdef
 /.notdef
 /.notdef
 /.notdef
 /.notdef
 /.notdef
 /.notdef
 /.notdef
 /.notdef
 /.notdef
 /.notdef
 /.notdef
 /.notdef
 /.notdef
 /.notdef
 /.notdef
 /.notdef
 /.notdef
 /.notdef
 /.notdef
 /.notdef
 /.notdef
 /.notdef
 /.notdef
 /.notdef
 /.notdef
 /.notdef
 /.notdef
 /.notdef
 /space
 /exclam
 /quotedbl
 /numbersign
 /dollar
 /percent
 /ampersand
 /quoteright
 /parenleft
 /parenright
 /asterisk
 /plus
 /comma
 /hyphen
 /period
 /slash
 /zero
 /one
 /two
 /three
 /four
 /five
 /six
 /seven
 /eight
 /nine
 /colon
 /semicolon
 /less
 /equal
 /greater
 /question
 /at
 /A
 /B
 /C
 /D
 /E
 /F
 /G
 /H
 /I
 /J
 /K
 /L
 /M
 /N
 /O
 /P
 /Q
 /R
 /S
 /T
 /U
 /V
 /W
 /X
 /Y
 /Z
 /bracketleft
 /backslash
 /bracketright
 /asciicircum
 /underscore
 /grave
 /a
 /b
 /c
 /d
 /e
 /f
 /g
 /h
 /i
 /j
 /k
 /l
 /m
 /n
 /o
 /p
 /q
 /r
 /s
 /t
 /u
 /v
 /w
 /x
 /y
 /z
 /braceleft
 /bar
 /braceright
 /asciitilde
 /.notdef
 /.notdef
 /.notdef
 /.notdef
 /.notdef
 /.notdef
 /.notdef
 /.notdef
 /.notdef
 /.notdef
 /.notdef
 /.notdef
 /.notdef
 /.notdef
 /.notdef
 /.notdef
 /.notdef
 /.notdef
 /.notdef
 /.notdef
 /.notdef
 /.notdef
 /.notdef
 /.notdef
 /.notdef
 /.notdef
 /.notdef
 /.notdef
 /.notdef
 /.notdef
 /.notdef
 /.notdef
 /.notdef
 /space
 /exclamdown
 /cent
 /sterling
 /currency
 /yen
 /brokenbar
 /section
 /dieresis
 /copyright
 /ordfeminine
 /guillemotleft
 /logicalnot
 /hyphen
 /registered
 /macron
 /degree
 /plusminus
 /twosuperior
 /threesuperior
 /acute
 /mu
 /paragraph
 /periodcentered
 /cedilla
 /onesuperior
 /ordmasculine
 /guillemotright
 /onequarter
 /onehalf
 /threequarters
 /questiondown
 /Agrave
 /Aacute
 /Acircumflex
 /Atilde
 /Adieresis
 /Aring
 /AE
 /Ccedilla
 /Egrave
 /Eacute
 /Ecircumflex
 /Edieresis
 /Igrave
 /Iacute
 /Icircumflex
 /Idieresis
 /Eth
 /Ntilde
 /Ograve
 /Oacute
 /Ocircumflex
 /Otilde
 /Odieresis
 /multiply
 /Oslash
 /Ugrave
 /Uacute
 /Ucircumflex
 /Udieresis
 /Yacute
 /Thorn
 /germandbls
 /agrave
 /aacute
 /acircumflex
 /atilde
 /adieresis
 /aring
 /ae
 /ccedilla
 /egrave
 /eacute
 /ecircumflex
 /edieresis
 /igrave
 /iacute
 /icircumflex
 /idieresis
 /eth
 /ntilde
 /ograve
 /oacute
 /ocircumflex
 /otilde
 /odieresis
 /divide
 /oslash
 /ugrave
 /uacute
 /ucircumflex
 /udieresis
 /yacute
 /thorn
 /ydieresis
] def
%%EndProlog
%%BeginSetup
%%EndSetup
612.00 612.00 scale
[/DeviceRGB] SCS
Color1 SC
[] 0 SD
0.0015 SLW
0 SLC
0 SLJ
n
0.1500 0.1500 m
1.2500 0.1500 l
s
n
0.1500 0.1900 m
1.2500 0.1900 l
s
n
0.1500 0.2300 m
1.2500 0.2300 l
s
n
0.1500 0.2700 m
1.2500 0.2700 l
s
n
0.1500 0.3100 m
1.2500 0.3100 l
s
n
0.1500 0.3500 m
1.2500 0.3500 l
s
n
0.1500 0.3900 m
1.2500 0.3900 l
s
n
0.1500 0.4300 m
1.2500 0.4300 l
s
n
0.1500 0.4700 m
1.2500 0.4700 l
s
n
0.1500 0.5100 m
1.2500 0.5100 l
s
n
0.1500 0.5500 m
1.2500 0.5500 l
s
[/DeviceRGB] SCS
Color4 SC
[] 0 SD
0.0023 SLW
n
0.1500 0.3308 m
0.1580 0.3318 l
0.1661 0.3472 l
0.1741 0.3346 l
0.1821 0.3540 l
0.1901 0.3234 l
0.1982 0.3668 l
0.2062 0.3158 l
0.2142 0.3788 l
0.2223 0.3538 l
0.2303 0.3500 l
0.2383 0.3340 l
0.2464 0.3316 l
0.2544 0.3410 l
0.2624 0.3276 l
0.2704 0.3182 l
0.2785 0.3384 l
0.2865 0.3178 l
0.2945 0.3098 l
0.3026 0.3432 l
0.3106 0.3210 l
0.3186 0.3172 l
0.3266 0.3146 l
0.3347 0.3102 l
0.3427 0.3370 l
0.3507 0.3248 l
0.3588 0.3568 l
0.3668 0.3276 l
0.3748 0.3128 l
0.3828 0.3152 l
0.3909 0.3500 l
0.3989 0.3158 l
0.4069 0.3190 l
0.4150 0.3184 l
0.4230 0.3232 l
0.4310 0.3500 l
0.4391 0.3374 l
0.4471 0.3036 l
0.4551 0.3420 l
0.4631 0.3252 l
0.4712 0.2834 l
0.4792 0.3808 l
0.4872 0.3408 l
0.4953 0.3736 l
0.5033 0.3464 l
0.5113 0.3330 l
0.5193 0.3628 l
0.5274 0.3384 l
0.5354 0.3860 l
0.5434 0.3534 l
0.5515 0.3264 l
0.5595 0.3382 l
0.5675 0.3300 l
0.5755 0.3906 l
0.5836 0.3638 l
0.5916 0.3276 l
0.5996 0.3204 l
0.6077 0.3406 l
0.6157 0.3342 l
0.6237 0.3372 l
0.6318 0.3444 l
0.6398 0.3442 l
0.6478 0.3338 l
0.6558 0.3408 l
0.6639 0.4094 l
0.6719 0.3430 l
0.6799 0.3170 l
0.6880 0.3200 l
0.6960 0.3710 l
0.7040 0.3534 l
0.7120 0.3102 l
0.7201 0.3534 l
0.7281 0.3068 l
0.7361 0.3106 l
0.7442 0.3170 l
0.7522 0.3200 l
0.7602 0.3276 l
0.7682 0.3172 l
0.7763 0.3040 l
0.7843 0.3394 l
0.7923 0.3312 l
0.8004 0.3604 l
0.8084 0.3794 l
0.8164 0.3442 l
0.8245 0.3252 l
0.8325 0.3558 l
0.8405 0.3434 l
0.8485 0.3204 l
0.8566 0.3342 l
0.8646 0.3266 l
0.8726 0.3340 l
0.8807 0.3306 l
0.8887 0.3026 l
0.8967 0.3500 l
0.9047 0.3144 l
0.9128 0.3208 l
0.9208 0.3128 l
0.9288 0.3174 l
0.9369 0.3266 l
0.9449 0.3192 l
0.9529 0.3134 l
0.9609 0.3166 l
0.9690 0.3316 l
0.9770 0.3190 l
0.9850 0.3166 l
0.9931 0.3234 l
1.0011 0.3316 l
1.0091 0.3820 l
1.0172 0.3396 l
1.0252 0.3196 l
1.0332 0.3162 l
1.0412 0.3440 l
1.0493 0.3470 l
1.0573 0.3378 l
1.0653 0.3352 l
1.0734 0.3206 l
1.0814 0.3406 l
1.0894 0.3344 l
1.0974 0.3132 l
1.1055 0.3306 l
1.1135 0.3534 l
1.1215 0.3298 l
1.1296 0.3132 l
1.1376 0.3306 l
1.1456 0.3604 l
1.1536 0.3672 l
1.1617 0.3500 l
1.1697 0.3202 l
1.1777 0.3154 l
1.1858 0.3350 l
1.1938 0.3374 l
1.2018 0.3312 l
1.2099 0.3346 l
1.2179 0.3198 l
1.2259 0.3212 l
1.2339 0.3296 l
1.2420 0.3472 l
1.2500 0.3348 l
s
n
0.1500 0.3308 0.0049 0.0049 0 360 EARC c
fill
[] 0 SD
0.0015 SLW
n 0.1500 0.3308 0.0049 0.0049 0 360 EARC s
n
0.1580 0.3318 0.0049 0.0049 0 360 EARC c
fill
n 0.1580 0.3318 0.0049 0.0049 0 360 EARC s
n
0.1661 0.3472 0.0049 0.0049 0 360 EARC c
fill
n 0.1661 0.3472 0.0049 0.0049 0 360 EARC s
n
0.1741 0.3346 0.0049 0.0049 0 360 EARC c
fill
n 0.1741 0.3346 0.0049 0.0049 0 360 EARC s
n
0.1821 0.3540 0.0049 0.0049 0 360 EARC c
fill
n 0.1821 0.3540 0.0049 0.0049 0 360 EARC s
n
0.1901 0.3234 0.0049 0.0049 0 360 EARC c
fill
n 0.1901 0.3234 0.0049 0.0049 0 360 EARC s
n
0.1982 0.3668 0.0049 0.0049 0 360 EARC c
fill
n 0.1982 0.3668 0.0049 0.0049 0 360 EARC s
n
0.2062 0.3158 0.0049 0.0049 0 360 EARC c
fill
n 0.2062 0.3158 0.0049 0.0049 0 360 EARC s
n
0.2142 0.3788 0.0049 0.0049 0 360 EARC c
fill
n 0.2142 0.3788 0.0049 0.0049 0 360 EARC s
n
0.2223 0.3538 0.0049 0.0049 0 360 EARC c
fill
n 0.2223 0.3538 0.0049 0.0049 0 360 EARC s
n
0.2303 0.3500 0.0049 0.0049 0 360 EARC c
fill
n 0.2303 0.3500 0.0049 0.0049 0 360 EARC s
n
0.2383 0.3340 0.0049 0.0049 0 360 EARC c
fill
n 0.2383 0.3340 0.0049 0.0049 0 360 EARC s
n
0.2464 0.3316 0.0049 0.0049 0 360 EARC c
fill
n 0.2464 0.3316 0.0049 0.0049 0 360 EARC s
n
0.2544 0.3410 0.0049 0.0049 0 360 EARC c
fill
n 0.2544 0.3410 0.0049 0.0049 0 360 EARC s
n
0.2624 0.3276 0.0049 0.0049 0 360 EARC c
fill
n 0.2624 0.3276 0.0049 0.0049 0 360 EARC s
n
0.2704 0.3182 0.0049 0.0049 0 360 EARC c
fill
n 0.2704 0.3182 0.0049 0.0049 0 360 EARC s
n
0.2785 0.3384 0.0049 0.0049 0 360 EARC c
fill
n 0.2785 0.3384 0.0049 0.0049 0 360 EARC s
n
0.2865 0.3178 0.0049 0.0049 0 360 EARC c
fill
n 0.2865 0.3178 0.0049 0.0049 0 360 EARC s
n
0.2945 0.3098 0.0049 0.0049 0 360 EARC c
fill
n 0.2945 0.3098 0.0049 0.0049 0 360 EARC s
n
0.3026 0.3432 0.0049 0.0049 0 360 EARC c
fill
n 0.3026 0.3432 0.0049 0.0049 0 360 EARC s
n
0.3106 0.3210 0.0049 0.0049 0 360 EARC c
fill
n 0.3106 0.3210 0.0049 0.0049 0 360 EARC s
n
0.3186 0.3172 0.0049 0.0049 0 360 EARC c
fill
n 0.3186 0.3172 0.0049 0.0049 0 360 EARC s
n
0.3266 0.3146 0.0049 0.0049 0 360 EARC c
fill
n 0.3266 0.3146 0.0049 0.0049 0 360 EARC s
n
0.3347 0.3102 0.0049 0.0049 0 360 EARC c
fill
n 0.3347 0.3102 0.0049 0.0049 0 360 EARC s
n
0.3427 0.3370 0.0049 0.0049 0 360 EARC c
fill
n 0.3427 0.3370 0.0049 0.0049 0 360 EARC s
n
0.3507 0.3248 0.0049 0.0049 0 360 EARC c
fill
n 0.3507 0.3248 0.0049 0.0049 0 360 EARC s
n
0.3588 0.3568 0.0049 0.0049 0 360 EARC c
fill
n 0.3588 0.3568 0.0049 0.0049 0 360 EARC s
n
0.3668 0.3276 0.0049 0.0049 0 360 EARC c
fill
n 0.3668 0.3276 0.0049 0.0049 0 360 EARC s
n
0.3748 0.3128 0.0049 0.0049 0 360 EARC c
fill
n 0.3748 0.3128 0.0049 0.0049 0 360 EARC s
n
0.3828 0.3152 0.0049 0.0049 0 360 EARC c
fill
n 0.3828 0.3152 0.0049 0.0049 0 360 EARC s
n
0.3909 0.3500 0.0049 0.0049 0 360 EARC c
fill
n 0.3909 0.3500 0.0049 0.0049 0 360 EARC s
n
0.3989 0.3158 0.0049 0.0049 0 360 EARC c
fill
n 0.3989 0.3158 0.0049 0.0049 0 360 EARC s
n
0.4069 0.3190 0.0049 0.0049 0 360 EARC c
fill
n 0.4069 0.3190 0.0049 0.0049 0 360 EARC s
n
0.4150 0.3184 0.0049 0.0049 0 360 EARC c
fill
n 0.4150 0.3184 0.0049 0.0049 0 360 EARC s
n
0.4230 0.3232 0.0049 0.0049 0 360 EARC c
fill
n 0.4230 0.3232 0.0049 0.0049 0 360 EARC s
n
0.4310 0.3500 0.0049 0.0049 0 360 EARC c
fill
n 0.4310 0.3500 0.0049 0.0049 0 360 EARC s
n
0.4391 0.3374 0.0049 0.0049 0 360 EARC c
fill
n 0.4391 0.3374 0.0049 0.0049 0 360 EARC s
n
0.4471 0.3036 0.0049 0.0049 0 360 EARC c
fill
n 0.4471 0.3036 0.0049 0.0049 0 360 EARC s
n
0.4551 0.3420 0.0049 0.0049 0 360 EARC c
fill
n 0.4551 0.3420 0.0049 0.0049 0 360 EARC s
n
0.4631 0.3252 0.0049 0.0049 0 360 EARC c
fill
n 0.4631 0.3252 0.0049 0.0049 0 360 EARC s
n
0.4712 0.2834 0.0049 0.0049 0 360 EARC c
fill
n 0.4712 0.2834 0.0049 0.0049 0 360 EARC s
n
0.4792 0.3808 0.0049 0.0049 0 360 EARC c
fill
n 0.4792 0.3808 0.0049 0.0049 0 360 EARC s
n
0.4872 0.3408 0.0049 0.0049 0 360 EARC c
fill
n 0.4872 0.3408 0.0049 0.0049 0 360 EARC s
n
0.4953 0.3736 0.0049 0.0049 0 360 EARC c
fill
n 0.4953 0.3736 0.0049 0.0049 0 360 EARC s
n
0.5033 0.3464 0.0049 0.0049 0 360 EARC c
fill
n 0.5033 0.3464 0.0049 0.0049 0 360 EARC s
n
0.5113 0.3330 0.0049 0.0049 0 360 EARC c
fill
n 0.5113 0.3330 0.0049 0.0049 0 360 EARC s
n
0.5193 0.3628 0.0049 0.0049 0 360 EARC c
fill
n 0.5193 0.3628 0.0049 0.0049 0 360 EARC s
n
0.5274 0.3384 0.0049 0.0049 0 360 EARC c
fill
n 0.5274 0.3384 0.0049 0.0049 0 360 EARC s
n
0.5354 0.3860 0.0049 0.0049 0 360 EARC c
fill
n 0.5354 0.3860 0.0049 0.0049 0 360 EARC s
n
0.5434 0.3534 0.0049 0.0049 0 360 EARC c
fill
n 0.5434 0.3534 0.0049 0.0049 0 360 EARC s
n
0.5515 0.3264 0.0049 0.0049 0 360 EARC c
fill
n 0.5515 0.3264 0.0049 0.0049 0 360 EARC s
n
0.5595 0.3382 0.0049 0.0049 0 360 EARC c
fill
n 0.5595 0.3382 0.0049 0.0049 0 360 EARC s
n
0.5675 0.3300 0.0049 0.0049 0 360 EARC c
fill
n 0.5675 0.3300 0.0049 0.0049 0 360 EARC s
n
0.5755 0.3906 0.0049 0.0049 0 360 EARC c
fill
n 0.5755 0.3906 0.0049 0.0049 0 360 EARC s
n
0.5836 0.3638 0.0049 0.0049 0 360 EARC c
fill
n 0.5836 0.3638 0.0049 0.0049 0 360 EARC s
n
0.5916 0.3276 0.0049 0.0049 0 360 EARC c
fill
n 0.5916 0.3276 0.0049 0.0049 0 360 EARC s
n
0.5996 0.3204 0.0049 0.0049 0 360 EARC c
fill
n 0.5996 0.3204 0.0049 0.0049 0 360 EARC s
n
0.6077 0.3406 0.0049 0.0049 0 360 EARC c
fill
n 0.6077 0.3406 0.0049 0.0049 0 360 EARC s
n
0.6157 0.3342 0.0049 0.0049 0 360 EARC c
fill
n 0.6157 0.3342 0.0049 0.0049 0 360 EARC s
n
0.6237 0.3372 0.0049 0.0049 0 360 EARC c
fill
n 0.6237 0.3372 0.0049 0.0049 0 360 EARC s
n
0.6318 0.3444 0.0049 0.0049 0 360 EARC c
fill
n 0.6318 0.3444 0.0049 0.0049 0 360 EARC s
n
0.6398 0.3442 0.0049 0.0049 0 360 EARC c
fill
n 0.6398 0.3442 0.0049 0.0049 0 360 EARC s
n
0.6478 0.3338 0.0049 0.0049 0 360 EARC c
fill
n 0.6478 0.3338 0.0049 0.0049 0 360 EARC s
n
0.6558 0.3408 0.0049 0.0049 0 360 EARC c
fill
n 0.6558 0.3408 0.0049 0.0049 0 360 EARC s
n
0.6639 0.4094 0.0049 0.0049 0 360 EARC c
fill
n 0.6639 0.4094 0.0049 0.0049 0 360 EARC s
n
0.6719 0.3430 0.0049 0.0049 0 360 EARC c
fill
n 0.6719 0.3430 0.0049 0.0049 0 360 EARC s
n
0.6799 0.3170 0.0049 0.0049 0 360 EARC c
fill
n 0.6799 0.3170 0.0049 0.0049 0 360 EARC s
n
0.6880 0.3200 0.0049 0.0049 0 360 EARC c
fill
n 0.6880 0.3200 0.0049 0.0049 0 360 EARC s
n
0.6960 0.3710 0.0049 0.0049 0 360 EARC c
fill
n 0.6960 0.3710 0.0049 0.0049 0 360 EARC s
n
0.7040 0.3534 0.0049 0.0049 0 360 EARC c
fill
n 0.7040 0.3534 0.0049 0.0049 0 360 EARC s
n
0.7120 0.3102 0.0049 0.0049 0 360 EARC c
fill
n 0.7120 0.3102 0.0049 0.0049 0 360 EARC s
n
0.7201 0.3534 0.0049 0.0049 0 360 EARC c
fill
n 0.7201 0.3534 0.0049 0.0049 0 360 EARC s
n
0.7281 0.3068 0.0049 0.0049 0 360 EARC c
fill
n 0.7281 0.3068 0.0049 0.0049 0 360 EARC s
n
0.7361 0.3106 0.0049 0.0049 0 360 EARC c
fill
n 0.7361 0.3106 0.0049 0.0049 0 360 EARC s
n
0.7442 0.3170 0.0049 0.0049 0 360 EARC c
fill
n 0.7442 0.3170 0.0049 0.0049 0 360 EARC s
n
0.7522 0.3200 0.0049 0.0049 0 360 EARC c
fill
n 0.7522 0.3200 0.0049 0.0049 0 360 EARC s
n
0.7602 0.3276 0.0049 0.0049 0 360 EARC c
fill
n 0.7602 0.3276 0.0049 0.0049 0 360 EARC s
n
0.7682 0.3172 0.0049 0.0049 0 360 EARC c
fill
n 0.7682 0.3172 0.0049 0.0049 0 360 EARC s
n
0.7763 0.3040 0.0049 0.0049 0 360 EARC c
fill
n 0.7763 0.3040 0.0049 0.0049 0 360 EARC s
n
0.7843 0.3394 0.0049 0.0049 0 360 EARC c
fill
n 0.7843 0.3394 0.0049 0.0049 0 360 EARC s
n
0.7923 0.3312 0.0049 0.0049 0 360 EARC c
fill
n 0.7923 0.3312 0.0049 0.0049 0 360 EARC s
n
0.8004 0.3604 0.0049 0.0049 0 360 EARC c
fill
n 0.8004 0.3604 0.0049 0.0049 0 360 EARC s
n
0.8084 0.3794 0.0049 0.0049 0 360 EARC c
fill
n 0.8084 0.3794 0.0049 0.0049 0 360 EARC s
n
0.8164 0.3442 0.0049 0.0049 0 360 EARC c
fill
n 0.8164 0.3442 0.0049 0.0049 0 360 EARC s
n
0.8245 0.3252 0.0049 0.0049 0 360 EARC c
fill
n 0.8245 0.3252 0.0049 0.0049 0 360 EARC s
n
0.8325 0.3558 0.0049 0.0049 0 360 EARC c
fill
n 0.8325 0.3558 0.0049 0.0049 0 360 EARC s
n
0.8405 0.3434 0.0049 0.0049 0 360 EARC c
fill
n 0.8405 0.3434 0.0049 0.0049 0 360 EARC s
n
0.8485 0.3204 0.0049 0.0049 0 360 EARC c
fill
n 0.8485 0.3204 0.0049 0.0049 0 360 EARC s
n
0.8566 0.3342 0.0049 0.0049 0 360 EARC c
fill
n 0.8566 0.3342 0.0049 0.0049 0 360 EARC s
n
0.8646 0.3266 0.0049 0.0049 0 360 EARC c
fill
n 0.8646 0.3266 0.0049 0.0049 0 360 EARC s
n
0.8726 0.3340 0.0049 0.0049 0 360 EARC c
fill
n 0.8726 0.3340 0.0049 0.0049 0 360 EARC s
n
0.8807 0.3306 0.0049 0.0049 0 360 EARC c
fill
n 0.8807 0.3306 0.0049 0.0049 0 360 EARC s
n
0.8887 0.3026 0.0049 0.0049 0 360 EARC c
fill
n 0.8887 0.3026 0.0049 0.0049 0 360 EARC s
n
0.8967 0.3500 0.0049 0.0049 0 360 EARC c
fill
n 0.8967 0.3500 0.0049 0.0049 0 360 EARC s
n
0.9047 0.3144 0.0049 0.0049 0 360 EARC c
fill
n 0.9047 0.3144 0.0049 0.0049 0 360 EARC s
n
0.9128 0.3208 0.0049 0.0049 0 360 EARC c
fill
n 0.9128 0.3208 0.0049 0.0049 0 360 EARC s
n
0.9208 0.3128 0.0049 0.0049 0 360 EARC c
fill
n 0.9208 0.3128 0.0049 0.0049 0 360 EARC s
n
0.9288 0.3174 0.0049 0.0049 0 360 EARC c
fill
n 0.9288 0.3174 0.0049 0.0049 0 360 EARC s
n
0.9369 0.3266 0.0049 0.0049 0 360 EARC c
fill
n 0.9369 0.3266 0.0049 0.0049 0 360 EARC s
n
0.9449 0.3192 0.0049 0.0049 0 360 EARC c
fill
n 0.9449 0.3192 0.0049 0.0049 0 360 EARC s
n
0.9529 0.3134 0.0049 0.0049 0 360 EARC c
fill
n 0.9529 0.3134 0.0049 0.0049 0 360 EARC s
n
0.9609 0.3166 0.0049 0.0049 0 360 EARC c
fill
n 0.9609 0.3166 0.0049 0.0049 0 360 EARC s
n
0.9690 0.3316 0.0049 0.0049 0 360 EARC c
fill
n 0.9690 0.3316 0.0049 0.0049 0 360 EARC s
n
0.9770 0.3190 0.0049 0.0049 0 360 EARC c
fill
n 0.9770 0.3190 0.0049 0.0049 0 360 EARC s
n
0.9850 0.3166 0.0049 0.0049 0 360 EARC c
fill
n 0.9850 0.3166 0.0049 0.0049 0 360 EARC s
n
0.9931 0.3234 0.0049 0.0049 0 360 EARC c
fill
n 0.9931 0.3234 0.0049 0.0049 0 360 EARC s
n
1.0011 0.3316 0.0049 0.0049 0 360 EARC c
fill
n 1.0011 0.3316 0.0049 0.0049 0 360 EARC s
n
1.0091 0.3820 0.0049 0.0049 0 360 EARC c
fill
n 1.0091 0.3820 0.0049 0.0049 0 360 EARC s
n
1.0172 0.3396 0.0049 0.0049 0 360 EARC c
fill
n 1.0172 0.3396 0.0049 0.0049 0 360 EARC s
n
1.0252 0.3196 0.0049 0.0049 0 360 EARC c
fill
n 1.0252 0.3196 0.0049 0.0049 0 360 EARC s
n
1.0332 0.3162 0.0049 0.0049 0 360 EARC c
fill
n 1.0332 0.3162 0.0049 0.0049 0 360 EARC s
n
1.0412 0.3440 0.0049 0.0049 0 360 EARC c
fill
n 1.0412 0.3440 0.0049 0.0049 0 360 EARC s
n
1.0493 0.3470 0.0049 0.0049 0 360 EARC c
fill
n 1.0493 0.3470 0.0049 0.0049 0 360 EARC s
n
1.0573 0.3378 0.0049 0.0049 0 360 EARC c
fill
n 1.0573 0.3378 0.0049 0.0049 0 360 EARC s
n
1.0653 0.3352 0.0049 0.0049 0 360 EARC c
fill
n 1.0653 0.3352 0.0049 0.0049 0 360 EARC s
n
1.0734 0.3206 0.0049 0.0049 0 360 EARC c
fill
n 1.0734 0.3206 0.0049 0.0049 0 360 EARC s
n
1.0814 0.3406 0.0049 0.0049 0 360 EARC c
fill
n 1.0814 0.3406 0.0049 0.0049 0 360 EARC s
n
1.0894 0.3344 0.0049 0.0049 0 360 EARC c
fill
n 1.0894 0.3344 0.0049 0.0049 0 360 EARC s
n
1.0974 0.3132 0.0049 0.0049 0 360 EARC c
fill
n 1.0974 0.3132 0.0049 0.0049 0 360 EARC s
n
1.1055 0.3306 0.0049 0.0049 0 360 EARC c
fill
n 1.1055 0.3306 0.0049 0.0049 0 360 EARC s
n
1.1135 0.3534 0.0049 0.0049 0 360 EARC c
fill
n 1.1135 0.3534 0.0049 0.0049 0 360 EARC s
n
1.1215 0.3298 0.0049 0.0049 0 360 EARC c
fill
n 1.1215 0.3298 0.0049 0.0049 0 360 EARC s
n
1.1296 0.3132 0.0049 0.0049 0 360 EARC c
fill
n 1.1296 0.3132 0.0049 0.0049 0 360 EARC s
n
1.1376 0.3306 0.0049 0.0049 0 360 EARC c
fill
n 1.1376 0.3306 0.0049 0.0049 0 360 EARC s
n
1.1456 0.3604 0.0049 0.0049 0 360 EARC c
fill
n 1.1456 0.3604 0.0049 0.0049 0 360 EARC s
n
1.1536 0.3672 0.0049 0.0049 0 360 EARC c
fill
n 1.1536 0.3672 0.0049 0.0049 0 360 EARC s
n
1.1617 0.3500 0.0049 0.0049 0 360 EARC c
fill
n 1.1617 0.3500 0.0049 0.0049 0 360 EARC s
n
1.1697 0.3202 0.0049 0.0049 0 360 EARC c
fill
n 1.1697 0.3202 0.0049 0.0049 0 360 EARC s
n
1.1777 0.3154 0.0049 0.0049 0 360 EARC c
fill
n 1.1777 0.3154 0.0049 0.0049 0 360 EARC s
n
1.1858 0.3350 0.0049 0.0049 0 360 EARC c
fill
n 1.1858 0.3350 0.0049 0.0049 0 360 EARC s
n
1.1938 0.3374 0.0049 0.0049 0 360 EARC c
fill
n 1.1938 0.3374 0.0049 0.0049 0 360 EARC s
n
1.2018 0.3312 0.0049 0.0049 0 360 EARC c
fill
n 1.2018 0.3312 0.0049 0.0049 0 360 EARC s
n
1.2099 0.3346 0.0049 0.0049 0 360 EARC c
fill
n 1.2099 0.3346 0.0049 0.0049 0 360 EARC s
n
1.2179 0.3198 0.0049 0.0049 0 360 EARC c
fill
n 1.2179 0.3198 0.0049 0.0049 0 360 EARC s
n
1.2259 0.3212 0.0049 0.0049 0 360 EARC c
fill
n 1.2259 0.3212 0.0049 0.0049 0 360 EARC s
n
1.2339 0.3296 0.0049 0.0049 0 360 EARC c
fill
n 1.2339 0.3296 0.0049 0.0049 0 360 EARC s
n
1.2420 0.3472 0.0049 0.0049 0 360 EARC c
fill
n 1.2420 0.3472 0.0049 0.0049 0 360 EARC s
n
1.2500 0.3348 0.0049 0.0049 0 360 EARC c
fill
n 1.2500 0.3348 0.0049 0.0049 0 360 EARC s
[/DeviceRGB] SCS
Color2 SC
[] 0 SD
0.0023 SLW
n
0.1500 0.3334 m
0.1580 0.3314 l
0.1661 0.3290 l
0.1741 0.3354 l
0.1821 0.3470 l
0.1901 0.3280 l
0.1982 0.3658 l
0.2062 0.3004 l
0.2142 0.4268 l
0.2223 0.3412 l
0.2303 0.3170 l
0.2383 0.3186 l
0.2464 0.3336 l
0.2544 0.3422 l
0.2624 0.3184 l
0.2704 0.3204 l
0.2785 0.3478 l
0.2865 0.3170 l
0.2945 0.2800 l
0.3026 0.3196 l
0.3106 0.3104 l
0.3186 0.3144 l
0.3266 0.3134 l
0.3347 0.3030 l
0.3427 0.3378 l
0.3507 0.3126 l
0.3588 0.3676 l
0.3668 0.3702 l
0.3748 0.3082 l
0.3828 0.3094 l
0.3909 0.3084 l
0.3989 0.3290 l
0.4069 0.3228 l
0.4150 0.3112 l
0.4230 0.3240 l
0.4310 0.3320 l
0.4391 0.3362 l
0.4471 0.3008 l
0.4551 0.3398 l
0.4631 0.3416 l
0.4712 0.2910 l
0.4792 0.4006 l
0.4872 0.3336 l
0.4953 0.3724 l
0.5033 0.3234 l
0.5113 0.3222 l
0.5193 0.3402 l
0.5274 0.3442 l
0.5354 0.3596 l
0.5434 0.3506 l
0.5515 0.3394 l
0.5595 0.3294 l
0.5675 0.3410 l
0.5755 0.3536 l
0.5836 0.3548 l
0.5916 0.3188 l
0.5996 0.3252 l
0.6077 0.3430 l
0.6157 0.3186 l
0.6237 0.3346 l
0.6318 0.3366 l
0.6398 0.3386 l
0.6478 0.3344 l
0.6558 0.3232 l
0.6639 0.4158 l
0.6719 0.3498 l
0.6799 0.2994 l
0.6880 0.2832 l
0.6960 0.3542 l
0.7040 0.3346 l
0.7120 0.2990 l
0.7201 0.3554 l
0.7281 0.2990 l
0.7361 0.3084 l
0.7442 0.3082 l
0.7522 0.2980 l
0.7602 0.3210 l
0.7682 0.3170 l
0.7763 0.3110 l
0.7843 0.3514 l
0.7923 0.3608 l
0.8004 0.3908 l
0.8084 0.3906 l
0.8164 0.3574 l
0.8245 0.3466 l
0.8325 0.3558 l
0.8405 0.3476 l
0.8485 0.3558 l
0.8566 0.3130 l
0.8646 0.2924 l
0.8726 0.3180 l
0.8807 0.3236 l
0.8887 0.3076 l
0.8967 0.3524 l
0.9047 0.3274 l
0.9128 0.3388 l
0.9208 0.3298 l
0.9288 0.3316 l
0.9369 0.3278 l
0.9449 0.3290 l
0.9529 0.3108 l
0.9609 0.3354 l
0.9690 0.3388 l
0.9770 0.3138 l
0.9850 0.3194 l
0.9931 0.3366 l
1.0011 0.3240 l
1.0091 0.3502 l
1.0172 0.3710 l
1.0252 0.3008 l
1.0332 0.3108 l
1.0412 0.3374 l
1.0493 0.3308 l
1.0573 0.3280 l
1.0653 0.3378 l
1.0734 0.3200 l
1.0814 0.3390 l
1.0894 0.3188 l
1.0974 0.3016 l
1.1055 0.3230 l
1.1135 0.3444 l
1.1215 0.2986 l
1.1296 0.3182 l
1.1376 0.3238 l
1.1456 0.3476 l
1.1536 0.3316 l
1.1617 0.3522 l
1.1697 0.3146 l
1.1777 0.3316 l
1.1858 0.3290 l
1.1938 0.3300 l
1.2018 0.3248 l
1.2099 0.3244 l
1.2179 0.3362 l
1.2259 0.3194 l
1.2339 0.3268 l
1.2420 0.3414 l
1.2500 0.3334 l
s
n
0.1458 0.3292 m
0.1458 0.3376 l
0.1542 0.3376 l
0.1542 0.3292 l
c
fill
[] 0 SD
0.0015 SLW
n
0.1458 0.3292 m
0.1458 0.3376 l
0.1542 0.3376 l
0.1542 0.3292 l
0.1458 0.3292 l
c
s
n
0.1539 0.3272 m
0.1539 0.3356 l
0.1622 0.3356 l
0.1622 0.3272 l
c
fill
n
0.1539 0.3272 m
0.1539 0.3356 l
0.1622 0.3356 l
0.1622 0.3272 l
0.1539 0.3272 l
c
s
n
0.1619 0.3248 m
0.1619 0.3332 l
0.1702 0.3332 l
0.1702 0.3248 l
c
fill
n
0.1619 0.3248 m
0.1619 0.3332 l
0.1702 0.3332 l
0.1702 0.3248 l
0.1619 0.3248 l
c
s
n
0.1699 0.3312 m
0.1699 0.3396 l
0.1783 0.3396 l
0.1783 0.3312 l
c
fill
n
0.1699 0.3312 m
0.1699 0.3396 l
0.1783 0.3396 l
0.1783 0.3312 l
0.1699 0.3312 l
c
s
n
0.1780 0.3428 m
0.1780 0.3512 l
0.1863 0.3512 l
0.1863 0.3428 l
c
fill
n
0.1780 0.3428 m
0.1780 0.3512 l
0.1863 0.3512 l
0.1863 0.3428 l
0.1780 0.3428 l
c
s
n
0.1860 0.3238 m
0.1860 0.3322 l
0.1943 0.3322 l
0.1943 0.3238 l
c
fill
n
0.1860 0.3238 m
0.1860 0.3322 l
0.1943 0.3322 l
0.1943 0.3238 l
0.1860 0.3238 l
c
s
n
0.1940 0.3616 m
0.1940 0.3700 l
0.2023 0.3700 l
0.2023 0.3616 l
c
fill
n
0.1940 0.3616 m
0.1940 0.3700 l
0.2023 0.3700 l
0.2023 0.3616 l
0.1940 0.3616 l
c
s
n
0.2020 0.2962 m
0.2020 0.3046 l
0.2104 0.3046 l
0.2104 0.2962 l
c
fill
n
0.2020 0.2962 m
0.2020 0.3046 l
0.2104 0.3046 l
0.2104 0.2962 l
0.2020 0.2962 l
c
s
n
0.2101 0.4226 m
0.2101 0.4310 l
0.2184 0.4310 l
0.2184 0.4226 l
c
fill
n
0.2101 0.4226 m
0.2101 0.4310 l
0.2184 0.4310 l
0.2184 0.4226 l
0.2101 0.4226 l
c
s
n
0.2181 0.3370 m
0.2181 0.3454 l
0.2264 0.3454 l
0.2264 0.3370 l
c
fill
n
0.2181 0.3370 m
0.2181 0.3454 l
0.2264 0.3454 l
0.2264 0.3370 l
0.2181 0.3370 l
c
s
n
0.2261 0.3128 m
0.2261 0.3212 l
0.2345 0.3212 l
0.2345 0.3128 l
c
fill
n
0.2261 0.3128 m
0.2261 0.3212 l
0.2345 0.3212 l
0.2345 0.3128 l
0.2261 0.3128 l
c
s
n
0.2342 0.3144 m
0.2342 0.3228 l
0.2425 0.3228 l
0.2425 0.3144 l
c
fill
n
0.2342 0.3144 m
0.2342 0.3228 l
0.2425 0.3228 l
0.2425 0.3144 l
0.2342 0.3144 l
c
s
n
0.2422 0.3294 m
0.2422 0.3378 l
0.2505 0.3378 l
0.2505 0.3294 l
c
fill
n
0.2422 0.3294 m
0.2422 0.3378 l
0.2505 0.3378 l
0.2505 0.3294 l
0.2422 0.3294 l
c
s
n
0.2502 0.3380 m
0.2502 0.3464 l
0.2585 0.3464 l
0.2585 0.3380 l
c
fill
n
0.2502 0.3380 m
0.2502 0.3464 l
0.2585 0.3464 l
0.2585 0.3380 l
0.2502 0.3380 l
c
s
n
0.2582 0.3142 m
0.2582 0.3226 l
0.2666 0.3226 l
0.2666 0.3142 l
c
fill
n
0.2582 0.3142 m
0.2582 0.3226 l
0.2666 0.3226 l
0.2666 0.3142 l
0.2582 0.3142 l
c
s
n
0.2663 0.3162 m
0.2663 0.3246 l
0.2746 0.3246 l
0.2746 0.3162 l
c
fill
n
0.2663 0.3162 m
0.2663 0.3246 l
0.2746 0.3246 l
0.2746 0.3162 l
0.2663 0.3162 l
c
s
n
0.2743 0.3436 m
0.2743 0.3520 l
0.2826 0.3520 l
0.2826 0.3436 l
c
fill
n
0.2743 0.3436 m
0.2743 0.3520 l
0.2826 0.3520 l
0.2826 0.3436 l
0.2743 0.3436 l
c
s
n
0.2823 0.3128 m
0.2823 0.3212 l
0.2907 0.3212 l
0.2907 0.3128 l
c
fill
n
0.2823 0.3128 m
0.2823 0.3212 l
0.2907 0.3212 l
0.2907 0.3128 l
0.2823 0.3128 l
c
s
n
0.2904 0.2758 m
0.2904 0.2842 l
0.2987 0.2842 l
0.2987 0.2758 l
c
fill
n
0.2904 0.2758 m
0.2904 0.2842 l
0.2987 0.2842 l
0.2987 0.2758 l
0.2904 0.2758 l
c
s
n
0.2984 0.3154 m
0.2984 0.3238 l
0.3067 0.3238 l
0.3067 0.3154 l
c
fill
n
0.2984 0.3154 m
0.2984 0.3238 l
0.3067 0.3238 l
0.3067 0.3154 l
0.2984 0.3154 l
c
s
n
0.3064 0.3062 m
0.3064 0.3146 l
0.3147 0.3146 l
0.3147 0.3062 l
c
fill
n
0.3064 0.3062 m
0.3064 0.3146 l
0.3147 0.3146 l
0.3147 0.3062 l
0.3064 0.3062 l
c
s
n
0.3144 0.3102 m
0.3144 0.3186 l
0.3228 0.3186 l
0.3228 0.3102 l
c
fill
n
0.3144 0.3102 m
0.3144 0.3186 l
0.3228 0.3186 l
0.3228 0.3102 l
0.3144 0.3102 l
c
s
n
0.3225 0.3092 m
0.3225 0.3176 l
0.3308 0.3176 l
0.3308 0.3092 l
c
fill
n
0.3225 0.3092 m
0.3225 0.3176 l
0.3308 0.3176 l
0.3308 0.3092 l
0.3225 0.3092 l
c
s
n
0.3305 0.2988 m
0.3305 0.3072 l
0.3388 0.3072 l
0.3388 0.2988 l
c
fill
n
0.3305 0.2988 m
0.3305 0.3072 l
0.3388 0.3072 l
0.3388 0.2988 l
0.3305 0.2988 l
c
s
n
0.3385 0.3336 m
0.3385 0.3420 l
0.3469 0.3420 l
0.3469 0.3336 l
c
fill
n
0.3385 0.3336 m
0.3385 0.3420 l
0.3469 0.3420 l
0.3469 0.3336 l
0.3385 0.3336 l
c
s
n
0.3466 0.3084 m
0.3466 0.3168 l
0.3549 0.3168 l
0.3549 0.3084 l
c
fill
n
0.3466 0.3084 m
0.3466 0.3168 l
0.3549 0.3168 l
0.3549 0.3084 l
0.3466 0.3084 l
c
s
n
0.3546 0.3634 m
0.3546 0.3718 l
0.3629 0.3718 l
0.3629 0.3634 l
c
fill
n
0.3546 0.3634 m
0.3546 0.3718 l
0.3629 0.3718 l
0.3629 0.3634 l
0.3546 0.3634 l
c
s
n
0.3626 0.3660 m
0.3626 0.3744 l
0.3710 0.3744 l
0.3710 0.3660 l
c
fill
n
0.3626 0.3660 m
0.3626 0.3744 l
0.3710 0.3744 l
0.3710 0.3660 l
0.3626 0.3660 l
c
s
n
0.3707 0.3040 m
0.3707 0.3124 l
0.3790 0.3124 l
0.3790 0.3040 l
c
fill
n
0.3707 0.3040 m
0.3707 0.3124 l
0.3790 0.3124 l
0.3790 0.3040 l
0.3707 0.3040 l
c
s
n
0.3787 0.3052 m
0.3787 0.3136 l
0.3870 0.3136 l
0.3870 0.3052 l
c
fill
n
0.3787 0.3052 m
0.3787 0.3136 l
0.3870 0.3136 l
0.3870 0.3052 l
0.3787 0.3052 l
c
s
n
0.3867 0.3042 m
0.3867 0.3126 l
0.3950 0.3126 l
0.3950 0.3042 l
c
fill
n
0.3867 0.3042 m
0.3867 0.3126 l
0.3950 0.3126 l
0.3950 0.3042 l
0.3867 0.3042 l
c
s
n
0.3947 0.3248 m
0.3947 0.3332 l
0.4031 0.3332 l
0.4031 0.3248 l
c
fill
n
0.3947 0.3248 m
0.3947 0.3332 l
0.4031 0.3332 l
0.4031 0.3248 l
0.3947 0.3248 l
c
s
n
0.4028 0.3186 m
0.4028 0.3270 l
0.4111 0.3270 l
0.4111 0.3186 l
c
fill
n
0.4028 0.3186 m
0.4028 0.3270 l
0.4111 0.3270 l
0.4111 0.3186 l
0.4028 0.3186 l
c
s
n
0.4108 0.3070 m
0.4108 0.3154 l
0.4191 0.3154 l
0.4191 0.3070 l
c
fill
n
0.4108 0.3070 m
0.4108 0.3154 l
0.4191 0.3154 l
0.4191 0.3070 l
0.4108 0.3070 l
c
s
n
0.4188 0.3198 m
0.4188 0.3282 l
0.4272 0.3282 l
0.4272 0.3198 l
c
fill
n
0.4188 0.3198 m
0.4188 0.3282 l
0.4272 0.3282 l
0.4272 0.3198 l
0.4188 0.3198 l
c
s
n
0.4269 0.3278 m
0.4269 0.3362 l
0.4352 0.3362 l
0.4352 0.3278 l
c
fill
n
0.4269 0.3278 m
0.4269 0.3362 l
0.4352 0.3362 l
0.4352 0.3278 l
0.4269 0.3278 l
c
s
n
0.4349 0.3320 m
0.4349 0.3404 l
0.4432 0.3404 l
0.4432 0.3320 l
c
fill
n
0.4349 0.3320 m
0.4349 0.3404 l
0.4432 0.3404 l
0.4432 0.3320 l
0.4349 0.3320 l
c
s
n
0.4429 0.2966 m
0.4429 0.3050 l
0.4512 0.3050 l
0.4512 0.2966 l
c
fill
n
0.4429 0.2966 m
0.4429 0.3050 l
0.4512 0.3050 l
0.4512 0.2966 l
0.4429 0.2966 l
c
s
n
0.4509 0.3356 m
0.4509 0.3440 l
0.4593 0.3440 l
0.4593 0.3356 l
c
fill
n
0.4509 0.3356 m
0.4509 0.3440 l
0.4593 0.3440 l
0.4593 0.3356 l
0.4509 0.3356 l
c
s
n
0.4590 0.3374 m
0.4590 0.3458 l
0.4673 0.3458 l
0.4673 0.3374 l
c
fill
n
0.4590 0.3374 m
0.4590 0.3458 l
0.4673 0.3458 l
0.4673 0.3374 l
0.4590 0.3374 l
c
s
n
0.4670 0.2868 m
0.4670 0.2952 l
0.4753 0.2952 l
0.4753 0.2868 l
c
fill
n
0.4670 0.2868 m
0.4670 0.2952 l
0.4753 0.2952 l
0.4753 0.2868 l
0.4670 0.2868 l
c
s
n
0.4750 0.3964 m
0.4750 0.4048 l
0.4834 0.4048 l
0.4834 0.3964 l
c
fill
n
0.4750 0.3964 m
0.4750 0.4048 l
0.4834 0.4048 l
0.4834 0.3964 l
0.4750 0.3964 l
c
s
n
0.4831 0.3294 m
0.4831 0.3378 l
0.4914 0.3378 l
0.4914 0.3294 l
c
fill
n
0.4831 0.3294 m
0.4831 0.3378 l
0.4914 0.3378 l
0.4914 0.3294 l
0.4831 0.3294 l
c
s
n
0.4911 0.3682 m
0.4911 0.3766 l
0.4994 0.3766 l
0.4994 0.3682 l
c
fill
n
0.4911 0.3682 m
0.4911 0.3766 l
0.4994 0.3766 l
0.4994 0.3682 l
0.4911 0.3682 l
c
s
n
0.4991 0.3192 m
0.4991 0.3276 l
0.5074 0.3276 l
0.5074 0.3192 l
c
fill
n
0.4991 0.3192 m
0.4991 0.3276 l
0.5074 0.3276 l
0.5074 0.3192 l
0.4991 0.3192 l
c
s
n
0.5071 0.3180 m
0.5071 0.3264 l
0.5155 0.3264 l
0.5155 0.3180 l
c
fill
n
0.5071 0.3180 m
0.5071 0.3264 l
0.5155 0.3264 l
0.5155 0.3180 l
0.5071 0.3180 l
c
s
n
0.5152 0.3360 m
0.5152 0.3444 l
0.5235 0.3444 l
0.5235 0.3360 l
c
fill
n
0.5152 0.3360 m
0.5152 0.3444 l
0.5235 0.3444 l
0.5235 0.3360 l
0.5152 0.3360 l
c
s
n
0.5232 0.3400 m
0.5232 0.3484 l
0.5315 0.3484 l
0.5315 0.3400 l
c
fill
n
0.5232 0.3400 m
0.5232 0.3484 l
0.5315 0.3484 l
0.5315 0.3400 l
0.5232 0.3400 l
c
s
n
0.5312 0.3554 m
0.5312 0.3638 l
0.5396 0.3638 l
0.5396 0.3554 l
c
fill
n
0.5312 0.3554 m
0.5312 0.3638 l
0.5396 0.3638 l
0.5396 0.3554 l
0.5312 0.3554 l
c
s
n
0.5393 0.3464 m
0.5393 0.3548 l
0.5476 0.3548 l
0.5476 0.3464 l
c
fill
n
0.5393 0.3464 m
0.5393 0.3548 l
0.5476 0.3548 l
0.5476 0.3464 l
0.5393 0.3464 l
c
s
n
0.5473 0.3352 m
0.5473 0.3436 l
0.5556 0.3436 l
0.5556 0.3352 l
c
fill
n
0.5473 0.3352 m
0.5473 0.3436 l
0.5556 0.3436 l
0.5556 0.3352 l
0.5473 0.3352 l
c
s
n
0.5553 0.3252 m
0.5553 0.3336 l
0.5637 0.3336 l
0.5637 0.3252 l
c
fill
n
0.5553 0.3252 m
0.5553 0.3336 l
0.5637 0.3336 l
0.5637 0.3252 l
0.5553 0.3252 l
c
s
n
0.5634 0.3368 m
0.5634 0.3452 l
0.5717 0.3452 l
0.5717 0.3368 l
c
fill
n
0.5634 0.3368 m
0.5634 0.3452 l
0.5717 0.3452 l
0.5717 0.3368 l
0.5634 0.3368 l
c
s
n
0.5714 0.3494 m
0.5714 0.3578 l
0.5797 0.3578 l
0.5797 0.3494 l
c
fill
n
0.5714 0.3494 m
0.5714 0.3578 l
0.5797 0.3578 l
0.5797 0.3494 l
0.5714 0.3494 l
c
s
n
0.5794 0.3506 m
0.5794 0.3590 l
0.5877 0.3590 l
0.5877 0.3506 l
c
fill
n
0.5794 0.3506 m
0.5794 0.3590 l
0.5877 0.3590 l
0.5877 0.3506 l
0.5794 0.3506 l
c
s
n
0.5874 0.3146 m
0.5874 0.3230 l
0.5958 0.3230 l
0.5958 0.3146 l
c
fill
n
0.5874 0.3146 m
0.5874 0.3230 l
0.5958 0.3230 l
0.5958 0.3146 l
0.5874 0.3146 l
c
s
n
0.5955 0.3210 m
0.5955 0.3294 l
0.6038 0.3294 l
0.6038 0.3210 l
c
fill
n
0.5955 0.3210 m
0.5955 0.3294 l
0.6038 0.3294 l
0.6038 0.3210 l
0.5955 0.3210 l
c
s
n
0.6035 0.3388 m
0.6035 0.3472 l
0.6118 0.3472 l
0.6118 0.3388 l
c
fill
n
0.6035 0.3388 m
0.6035 0.3472 l
0.6118 0.3472 l
0.6118 0.3388 l
0.6035 0.3388 l
c
s
n
0.6115 0.3144 m
0.6115 0.3228 l
0.6199 0.3228 l
0.6199 0.3144 l
c
fill
n
0.6115 0.3144 m
0.6115 0.3228 l
0.6199 0.3228 l
0.6199 0.3144 l
0.6115 0.3144 l
c
s
n
0.6196 0.3304 m
0.6196 0.3388 l
0.6279 0.3388 l
0.6279 0.3304 l
c
fill
n
0.6196 0.3304 m
0.6196 0.3388 l
0.6279 0.3388 l
0.6279 0.3304 l
0.6196 0.3304 l
c
s
n
0.6276 0.3324 m
0.6276 0.3408 l
0.6359 0.3408 l
0.6359 0.3324 l
c
fill
n
0.6276 0.3324 m
0.6276 0.3408 l
0.6359 0.3408 l
0.6359 0.3324 l
0.6276 0.3324 l
c
s
n
0.6356 0.3344 m
0.6356 0.3428 l
0.6439 0.3428 l
0.6439 0.3344 l
c
fill
n
0.6356 0.3344 m
0.6356 0.3428 l
0.6439 0.3428 l
0.6439 0.3344 l
0.6356 0.3344 l
c
s
n
0.6436 0.3302 m
0.6436 0.3386 l
0.6520 0.3386 l
0.6520 0.3302 l
c
fill
n
0.6436 0.3302 m
0.6436 0.3386 l
0.6520 0.3386 l
0.6520 0.3302 l
0.6436 0.3302 l
c
s
n
0.6517 0.3190 m
0.6517 0.3274 l
0.6600 0.3274 l
0.6600 0.3190 l
c
fill
n
0.6517 0.3190 m
0.6517 0.3274 l
0.6600 0.3274 l
0.6600 0.3190 l
0.6517 0.3190 l
c
s
n
0.6597 0.4116 m
0.6597 0.4200 l
0.6680 0.4200 l
0.6680 0.4116 l
c
fill
n
0.6597 0.4116 m
0.6597 0.4200 l
0.6680 0.4200 l
0.6680 0.4116 l
0.6597 0.4116 l
c
s
n
0.6677 0.3456 m
0.6677 0.3540 l
0.6761 0.3540 l
0.6761 0.3456 l
c
fill
n
0.6677 0.3456 m
0.6677 0.3540 l
0.6761 0.3540 l
0.6761 0.3456 l
0.6677 0.3456 l
c
s
n
0.6758 0.2952 m
0.6758 0.3036 l
0.6841 0.3036 l
0.6841 0.2952 l
c
fill
n
0.6758 0.2952 m
0.6758 0.3036 l
0.6841 0.3036 l
0.6841 0.2952 l
0.6758 0.2952 l
c
s
n
0.6838 0.2790 m
0.6838 0.2874 l
0.6921 0.2874 l
0.6921 0.2790 l
c
fill
n
0.6838 0.2790 m
0.6838 0.2874 l
0.6921 0.2874 l
0.6921 0.2790 l
0.6838 0.2790 l
c
s
n
0.6918 0.3500 m
0.6918 0.3584 l
0.7002 0.3584 l
0.7002 0.3500 l
c
fill
n
0.6918 0.3500 m
0.6918 0.3584 l
0.7002 0.3584 l
0.7002 0.3500 l
0.6918 0.3500 l
c
s
n
0.6998 0.3304 m
0.6998 0.3388 l
0.7082 0.3388 l
0.7082 0.3304 l
c
fill
n
0.6998 0.3304 m
0.6998 0.3388 l
0.7082 0.3388 l
0.7082 0.3304 l
0.6998 0.3304 l
c
s
n
0.7079 0.2948 m
0.7079 0.3032 l
0.7162 0.3032 l
0.7162 0.2948 l
c
fill
n
0.7079 0.2948 m
0.7079 0.3032 l
0.7162 0.3032 l
0.7162 0.2948 l
0.7079 0.2948 l
c
s
n
0.7159 0.3512 m
0.7159 0.3596 l
0.7242 0.3596 l
0.7242 0.3512 l
c
fill
n
0.7159 0.3512 m
0.7159 0.3596 l
0.7242 0.3596 l
0.7242 0.3512 l
0.7159 0.3512 l
c
s
n
0.7239 0.2948 m
0.7239 0.3032 l
0.7323 0.3032 l
0.7323 0.2948 l
c
fill
n
0.7239 0.2948 m
0.7239 0.3032 l
0.7323 0.3032 l
0.7323 0.2948 l
0.7239 0.2948 l
c
s
n
0.7320 0.3042 m
0.7320 0.3126 l
0.7403 0.3126 l
0.7403 0.3042 l
c
fill
n
0.7320 0.3042 m
0.7320 0.3126 l
0.7403 0.3126 l
0.7403 0.3042 l
0.7320 0.3042 l
c
s
n
0.7400 0.3040 m
0.7400 0.3124 l
0.7483 0.3124 l
0.7483 0.3040 l
c
fill
n
0.7400 0.3040 m
0.7400 0.3124 l
0.7483 0.3124 l
0.7483 0.3040 l
0.7400 0.3040 l
c
s
n
0.7480 0.2938 m
0.7480 0.3022 l
0.7564 0.3022 l
0.7564 0.2938 l
c
fill
n
0.7480 0.2938 m
0.7480 0.3022 l
0.7564 0.3022 l
0.7564 0.2938 l
0.7480 0.2938 l
c
s
n
0.7561 0.3168 m
0.7561 0.3252 l
0.7644 0.3252 l
0.7644 0.3168 l
c
fill
n
0.7561 0.3168 m
0.7561 0.3252 l
0.7644 0.3252 l
0.7644 0.3168 l
0.7561 0.3168 l
c
s
n
0.7641 0.3128 m
0.7641 0.3212 l
0.7724 0.3212 l
0.7724 0.3128 l
c
fill
n
0.7641 0.3128 m
0.7641 0.3212 l
0.7724 0.3212 l
0.7724 0.3128 l
0.7641 0.3128 l
c
s
n
0.7721 0.3068 m
0.7721 0.3152 l
0.7804 0.3152 l
0.7804 0.3068 l
c
fill
n
0.7721 0.3068 m
0.7721 0.3152 l
0.7804 0.3152 l
0.7804 0.3068 l
0.7721 0.3068 l
c
s
n
0.7801 0.3472 m
0.7801 0.3556 l
0.7885 0.3556 l
0.7885 0.3472 l
c
fill
n
0.7801 0.3472 m
0.7801 0.3556 l
0.7885 0.3556 l
0.7885 0.3472 l
0.7801 0.3472 l
c
s
n
0.7882 0.3566 m
0.7882 0.3650 l
0.7965 0.3650 l
0.7965 0.3566 l
c
fill
n
0.7882 0.3566 m
0.7882 0.3650 l
0.7965 0.3650 l
0.7965 0.3566 l
0.7882 0.3566 l
c
s
n
0.7962 0.3866 m
0.7962 0.3950 l
0.8045 0.3950 l
0.8045 0.3866 l
c
fill
n
0.7962 0.3866 m
0.7962 0.3950 l
0.8045 0.3950 l
0.8045 0.3866 l
0.7962 0.3866 l
c
s
n
0.8042 0.3864 m
0.8042 0.3948 l
0.8126 0.3948 l
0.8126 0.3864 l
c
fill
n
0.8042 0.3864 m
0.8042 0.3948 l
0.8126 0.3948 l
0.8126 0.3864 l
0.8042 0.3864 l
c
s
n
0.8123 0.3532 m
0.8123 0.3616 l
0.8206 0.3616 l
0.8206 0.3532 l
c
fill
n
0.8123 0.3532 m
0.8123 0.3616 l
0.8206 0.3616 l
0.8206 0.3532 l
0.8123 0.3532 l
c
s
n
0.8203 0.3424 m
0.8203 0.3508 l
0.8286 0.3508 l
0.8286 0.3424 l
c
fill
n
0.8203 0.3424 m
0.8203 0.3508 l
0.8286 0.3508 l
0.8286 0.3424 l
0.8203 0.3424 l
c
s
n
0.8283 0.3516 m
0.8283 0.3600 l
0.8366 0.3600 l
0.8366 0.3516 l
c
fill
n
0.8283 0.3516 m
0.8283 0.3600 l
0.8366 0.3600 l
0.8366 0.3516 l
0.8283 0.3516 l
c
s
n
0.8363 0.3434 m
0.8363 0.3518 l
0.8447 0.3518 l
0.8447 0.3434 l
c
fill
n
0.8363 0.3434 m
0.8363 0.3518 l
0.8447 0.3518 l
0.8447 0.3434 l
0.8363 0.3434 l
c
s
n
0.8444 0.3516 m
0.8444 0.3600 l
0.8527 0.3600 l
0.8527 0.3516 l
c
fill
n
0.8444 0.3516 m
0.8444 0.3600 l
0.8527 0.3600 l
0.8527 0.3516 l
0.8444 0.3516 l
c
s
n
0.8524 0.3088 m
0.8524 0.3172 l
0.8607 0.3172 l
0.8607 0.3088 l
c
fill
n
0.8524 0.3088 m
0.8524 0.3172 l
0.8607 0.3172 l
0.8607 0.3088 l
0.8524 0.3088 l
c
s
n
0.8604 0.2882 m
0.8604 0.2966 l
0.8688 0.2966 l
0.8688 0.2882 l
c
fill
n
0.8604 0.2882 m
0.8604 0.2966 l
0.8688 0.2966 l
0.8688 0.2882 l
0.8604 0.2882 l
c
s
n
0.8685 0.3138 m
0.8685 0.3222 l
0.8768 0.3222 l
0.8768 0.3138 l
c
fill
n
0.8685 0.3138 m
0.8685 0.3222 l
0.8768 0.3222 l
0.8768 0.3138 l
0.8685 0.3138 l
c
s
n
0.8765 0.3194 m
0.8765 0.3278 l
0.8848 0.3278 l
0.8848 0.3194 l
c
fill
n
0.8765 0.3194 m
0.8765 0.3278 l
0.8848 0.3278 l
0.8848 0.3194 l
0.8765 0.3194 l
c
s
n
0.8845 0.3034 m
0.8845 0.3118 l
0.8929 0.3118 l
0.8929 0.3034 l
c
fill
n
0.8845 0.3034 m
0.8845 0.3118 l
0.8929 0.3118 l
0.8929 0.3034 l
0.8845 0.3034 l
c
s
n
0.8926 0.3482 m
0.8926 0.3566 l
0.9009 0.3566 l
0.9009 0.3482 l
c
fill
n
0.8926 0.3482 m
0.8926 0.3566 l
0.9009 0.3566 l
0.9009 0.3482 l
0.8926 0.3482 l
c
s
n
0.9006 0.3232 m
0.9006 0.3316 l
0.9089 0.3316 l
0.9089 0.3232 l
c
fill
n
0.9006 0.3232 m
0.9006 0.3316 l
0.9089 0.3316 l
0.9089 0.3232 l
0.9006 0.3232 l
c
s
n
0.9086 0.3346 m
0.9086 0.3430 l
0.9169 0.3430 l
0.9169 0.3346 l
c
fill
n
0.9086 0.3346 m
0.9086 0.3430 l
0.9169 0.3430 l
0.9169 0.3346 l
0.9086 0.3346 l
c
s
n
0.9166 0.3256 m
0.9166 0.3340 l
0.9250 0.3340 l
0.9250 0.3256 l
c
fill
n
0.9166 0.3256 m
0.9166 0.3340 l
0.9250 0.3340 l
0.9250 0.3256 l
0.9166 0.3256 l
c
s
n
0.9247 0.3274 m
0.9247 0.3358 l
0.9330 0.3358 l
0.9330 0.3274 l
c
fill
n
0.9247 0.3274 m
0.9247 0.3358 l
0.9330 0.3358 l
0.9330 0.3274 l
0.9247 0.3274 l
c
s
n
0.9327 0.3236 m
0.9327 0.3320 l
0.9410 0.3320 l
0.9410 0.3236 l
c
fill
n
0.9327 0.3236 m
0.9327 0.3320 l
0.9410 0.3320 l
0.9410 0.3236 l
0.9327 0.3236 l
c
s
n
0.9407 0.3248 m
0.9407 0.3332 l
0.9491 0.3332 l
0.9491 0.3248 l
c
fill
n
0.9407 0.3248 m
0.9407 0.3332 l
0.9491 0.3332 l
0.9491 0.3248 l
0.9407 0.3248 l
c
s
n
0.9488 0.3066 m
0.9488 0.3150 l
0.9571 0.3150 l
0.9571 0.3066 l
c
fill
n
0.9488 0.3066 m
0.9488 0.3150 l
0.9571 0.3150 l
0.9571 0.3066 l
0.9488 0.3066 l
c
s
n
0.9568 0.3312 m
0.9568 0.3396 l
0.9651 0.3396 l
0.9651 0.3312 l
c
fill
n
0.9568 0.3312 m
0.9568 0.3396 l
0.9651 0.3396 l
0.9651 0.3312 l
0.9568 0.3312 l
c
s
n
0.9648 0.3346 m
0.9648 0.3430 l
0.9731 0.3430 l
0.9731 0.3346 l
c
fill
n
0.9648 0.3346 m
0.9648 0.3430 l
0.9731 0.3430 l
0.9731 0.3346 l
0.9648 0.3346 l
c
s
n
0.9728 0.3096 m
0.9728 0.3180 l
0.9812 0.3180 l
0.9812 0.3096 l
c
fill
n
0.9728 0.3096 m
0.9728 0.3180 l
0.9812 0.3180 l
0.9812 0.3096 l
0.9728 0.3096 l
c
s
n
0.9809 0.3152 m
0.9809 0.3236 l
0.9892 0.3236 l
0.9892 0.3152 l
c
fill
n
0.9809 0.3152 m
0.9809 0.3236 l
0.9892 0.3236 l
0.9892 0.3152 l
0.9809 0.3152 l
c
s
n
0.9889 0.3324 m
0.9889 0.3408 l
0.9972 0.3408 l
0.9972 0.3324 l
c
fill
n
0.9889 0.3324 m
0.9889 0.3408 l
0.9972 0.3408 l
0.9972 0.3324 l
0.9889 0.3324 l
c
s
n
0.9969 0.3198 m
0.9969 0.3282 l
1.0053 0.3282 l
1.0053 0.3198 l
c
fill
n
0.9969 0.3198 m
0.9969 0.3282 l
1.0053 0.3282 l
1.0053 0.3198 l
0.9969 0.3198 l
c
s
n
1.0050 0.3460 m
1.0050 0.3544 l
1.0133 0.3544 l
1.0133 0.3460 l
c
fill
n
1.0050 0.3460 m
1.0050 0.3544 l
1.0133 0.3544 l
1.0133 0.3460 l
1.0050 0.3460 l
c
s
n
1.0130 0.3668 m
1.0130 0.3752 l
1.0213 0.3752 l
1.0213 0.3668 l
c
fill
n
1.0130 0.3668 m
1.0130 0.3752 l
1.0213 0.3752 l
1.0213 0.3668 l
1.0130 0.3668 l
c
s
n
1.0210 0.2966 m
1.0210 0.3050 l
1.0293 0.3050 l
1.0293 0.2966 l
c
fill
n
1.0210 0.2966 m
1.0210 0.3050 l
1.0293 0.3050 l
1.0293 0.2966 l
1.0210 0.2966 l
c
s
n
1.0290 0.3066 m
1.0290 0.3150 l
1.0374 0.3150 l
1.0374 0.3066 l
c
fill
n
1.0290 0.3066 m
1.0290 0.3150 l
1.0374 0.3150 l
1.0374 0.3066 l
1.0290 0.3066 l
c
s
n
1.0371 0.3332 m
1.0371 0.3416 l
1.0454 0.3416 l
1.0454 0.3332 l
c
fill
n
1.0371 0.3332 m
1.0371 0.3416 l
1.0454 0.3416 l
1.0454 0.3332 l
1.0371 0.3332 l
c
s
n
1.0451 0.3266 m
1.0451 0.3350 l
1.0534 0.3350 l
1.0534 0.3266 l
c
fill
n
1.0451 0.3266 m
1.0451 0.3350 l
1.0534 0.3350 l
1.0534 0.3266 l
1.0451 0.3266 l
c
s
n
1.0531 0.3238 m
1.0531 0.3322 l
1.0615 0.3322 l
1.0615 0.3238 l
c
fill
n
1.0531 0.3238 m
1.0531 0.3322 l
1.0615 0.3322 l
1.0615 0.3238 l
1.0531 0.3238 l
c
s
n
1.0612 0.3336 m
1.0612 0.3420 l
1.0695 0.3420 l
1.0695 0.3336 l
c
fill
n
1.0612 0.3336 m
1.0612 0.3420 l
1.0695 0.3420 l
1.0695 0.3336 l
1.0612 0.3336 l
c
s
n
1.0692 0.3158 m
1.0692 0.3242 l
1.0775 0.3242 l
1.0775 0.3158 l
c
fill
n
1.0692 0.3158 m
1.0692 0.3242 l
1.0775 0.3242 l
1.0775 0.3158 l
1.0692 0.3158 l
c
s
n
1.0772 0.3348 m
1.0772 0.3432 l
1.0856 0.3432 l
1.0856 0.3348 l
c
fill
n
1.0772 0.3348 m
1.0772 0.3432 l
1.0856 0.3432 l
1.0856 0.3348 l
1.0772 0.3348 l
c
s
n
1.0853 0.3146 m
1.0853 0.3230 l
1.0936 0.3230 l
1.0936 0.3146 l
c
fill
n
1.0853 0.3146 m
1.0853 0.3230 l
1.0936 0.3230 l
1.0936 0.3146 l
1.0853 0.3146 l
c
s
n
1.0933 0.2974 m
1.0933 0.3058 l
1.1016 0.3058 l
1.1016 0.2974 l
c
fill
n
1.0933 0.2974 m
1.0933 0.3058 l
1.1016 0.3058 l
1.1016 0.2974 l
1.0933 0.2974 l
c
s
n
1.1013 0.3188 m
1.1013 0.3272 l
1.1096 0.3272 l
1.1096 0.3188 l
c
fill
n
1.1013 0.3188 m
1.1013 0.3272 l
1.1096 0.3272 l
1.1096 0.3188 l
1.1013 0.3188 l
c
s
n
1.1093 0.3402 m
1.1093 0.3486 l
1.1177 0.3486 l
1.1177 0.3402 l
c
fill
n
1.1093 0.3402 m
1.1093 0.3486 l
1.1177 0.3486 l
1.1177 0.3402 l
1.1093 0.3402 l
c
s
n
1.1174 0.2944 m
1.1174 0.3028 l
1.1257 0.3028 l
1.1257 0.2944 l
c
fill
n
1.1174 0.2944 m
1.1174 0.3028 l
1.1257 0.3028 l
1.1257 0.2944 l
1.1174 0.2944 l
c
s
n
1.1254 0.3140 m
1.1254 0.3224 l
1.1337 0.3224 l
1.1337 0.3140 l
c
fill
n
1.1254 0.3140 m
1.1254 0.3224 l
1.1337 0.3224 l
1.1337 0.3140 l
1.1254 0.3140 l
c
s
n
1.1334 0.3196 m
1.1334 0.3280 l
1.1418 0.3280 l
1.1418 0.3196 l
c
fill
n
1.1334 0.3196 m
1.1334 0.3280 l
1.1418 0.3280 l
1.1418 0.3196 l
1.1334 0.3196 l
c
s
n
1.1415 0.3434 m
1.1415 0.3518 l
1.1498 0.3518 l
1.1498 0.3434 l
c
fill
n
1.1415 0.3434 m
1.1415 0.3518 l
1.1498 0.3518 l
1.1498 0.3434 l
1.1415 0.3434 l
c
s
n
1.1495 0.3274 m
1.1495 0.3358 l
1.1578 0.3358 l
1.1578 0.3274 l
c
fill
n
1.1495 0.3274 m
1.1495 0.3358 l
1.1578 0.3358 l
1.1578 0.3274 l
1.1495 0.3274 l
c
s
n
1.1575 0.3480 m
1.1575 0.3564 l
1.1658 0.3564 l
1.1658 0.3480 l
c
fill
n
1.1575 0.3480 m
1.1575 0.3564 l
1.1658 0.3564 l
1.1658 0.3480 l
1.1575 0.3480 l
c
s
n
1.1655 0.3104 m
1.1655 0.3188 l
1.1739 0.3188 l
1.1739 0.3104 l
c
fill
n
1.1655 0.3104 m
1.1655 0.3188 l
1.1739 0.3188 l
1.1739 0.3104 l
1.1655 0.3104 l
c
s
n
1.1736 0.3274 m
1.1736 0.3358 l
1.1819 0.3358 l
1.1819 0.3274 l
c
fill
n
1.1736 0.3274 m
1.1736 0.3358 l
1.1819 0.3358 l
1.1819 0.3274 l
1.1736 0.3274 l
c
s
n
1.1816 0.3248 m
1.1816 0.3332 l
1.1899 0.3332 l
1.1899 0.3248 l
c
fill
n
1.1816 0.3248 m
1.1816 0.3332 l
1.1899 0.3332 l
1.1899 0.3248 l
1.1816 0.3248 l
c
s
n
1.1896 0.3258 m
1.1896 0.3342 l
1.1980 0.3342 l
1.1980 0.3258 l
c
fill
n
1.1896 0.3258 m
1.1896 0.3342 l
1.1980 0.3342 l
1.1980 0.3258 l
1.1896 0.3258 l
c
s
n
1.1977 0.3206 m
1.1977 0.3290 l
1.2060 0.3290 l
1.2060 0.3206 l
c
fill
n
1.1977 0.3206 m
1.1977 0.3290 l
1.2060 0.3290 l
1.2060 0.3206 l
1.1977 0.3206 l
c
s
n
1.2057 0.3202 m
1.2057 0.3286 l
1.2140 0.3286 l
1.2140 0.3202 l
c
fill
n
1.2057 0.3202 m
1.2057 0.3286 l
1.2140 0.3286 l
1.2140 0.3202 l
1.2057 0.3202 l
c
s
n
1.2137 0.3320 m
1.2137 0.3404 l
1.2220 0.3404 l
1.2220 0.3320 l
c
fill
n
1.2137 0.3320 m
1.2137 0.3404 l
1.2220 0.3404 l
1.2220 0.3320 l
1.2137 0.3320 l
c
s
n
1.2217 0.3152 m
1.2217 0.3236 l
1.2301 0.3236 l
1.2301 0.3152 l
c
fill
n
1.2217 0.3152 m
1.2217 0.3236 l
1.2301 0.3236 l
1.2301 0.3152 l
1.2217 0.3152 l
c
s
n
1.2298 0.3226 m
1.2298 0.3310 l
1.2381 0.3310 l
1.2381 0.3226 l
c
fill
n
1.2298 0.3226 m
1.2298 0.3310 l
1.2381 0.3310 l
1.2381 0.3226 l
1.2298 0.3226 l
c
s
n
1.2378 0.3372 m
1.2378 0.3456 l
1.2461 0.3456 l
1.2461 0.3372 l
c
fill
n
1.2378 0.3372 m
1.2378 0.3456 l
1.2461 0.3456 l
1.2461 0.3372 l
1.2378 0.3372 l
c
s
n
1.2458 0.3292 m
1.2458 0.3376 l
1.2542 0.3376 l
1.2542 0.3292 l
c
fill
n
1.2458 0.3292 m
1.2458 0.3376 l
1.2542 0.3376 l
1.2542 0.3292 l
1.2458 0.3292 l
c
s
[/DeviceRGB] SCS
Color1 SC
n
0.1500 0.1500 m
1.2500 0.1500 l
s
n
0.1500 0.1500 m
0.1500 0.1634 l
s
n
0.1580 0.1500 m
0.1580 0.1634 l
s
n
0.1661 0.1500 m
0.1661 0.1634 l
s
n
0.1741 0.1500 m
0.1741 0.1634 l
s
n
0.1821 0.1500 m
0.1821 0.1634 l
s
n
0.1901 0.1500 m
0.1901 0.1634 l
s
n
0.1982 0.1500 m
0.1982 0.1634 l
s
n
0.2062 0.1500 m
0.2062 0.1634 l
s
n
0.2142 0.1500 m
0.2142 0.1634 l
s
n
0.2223 0.1500 m
0.2223 0.1634 l
s
n
0.2303 0.1500 m
0.2303 0.1634 l
s
n
0.2383 0.1500 m
0.2383 0.1634 l
s
n
0.2464 0.1500 m
0.2464 0.1634 l
s
n
0.2544 0.1500 m
0.2544 0.1634 l
s
n
0.2624 0.1500 m
0.2624 0.1634 l
s
n
0.2704 0.1500 m
0.2704 0.1634 l
s
n
0.2785 0.1500 m
0.2785 0.1634 l
s
n
0.2865 0.1500 m
0.2865 0.1634 l
s
n
0.2945 0.1500 m
0.2945 0.1634 l
s
n
0.3026 0.1500 m
0.3026 0.1634 l
s
n
0.3106 0.1500 m
0.3106 0.1634 l
s
n
0.3186 0.1500 m
0.3186 0.1634 l
s
n
0.3266 0.1500 m
0.3266 0.1634 l
s
n
0.3347 0.1500 m
0.3347 0.1634 l
s
n
0.3427 0.1500 m
0.3427 0.1634 l
s
n
0.3507 0.1500 m
0.3507 0.1634 l
s
n
0.3588 0.1500 m
0.3588 0.1634 l
s
n
0.3668 0.1500 m
0.3668 0.1634 l
s
n
0.3748 0.1500 m
0.3748 0.1634 l
s
n
0.3828 0.1500 m
0.3828 0.1634 l
s
n
0.3909 0.1500 m
0.3909 0.1634 l
s
n
0.3989 0.1500 m
0.3989 0.1634 l
s
n
0.4069 0.1500 m
0.4069 0.1634 l
s
n
0.4150 0.1500 m
0.4150 0.1634 l
s
n
0.4230 0.1500 m
0.4230 0.1634 l
s
n
0.4310 0.1500 m
0.4310 0.1634 l
s
n
0.4391 0.1500 m
0.4391 0.1634 l
s
n
0.4471 0.1500 m
0.4471 0.1634 l
s
n
0.4551 0.1500 m
0.4551 0.1634 l
s
n
0.4631 0.1500 m
0.4631 0.1634 l
s
n
0.4712 0.1500 m
0.4712 0.1634 l
s
n
0.4792 0.1500 m
0.4792 0.1634 l
s
n
0.4872 0.1500 m
0.4872 0.1634 l
s
n
0.4953 0.1500 m
0.4953 0.1634 l
s
n
0.5033 0.1500 m
0.5033 0.1634 l
s
n
0.5113 0.1500 m
0.5113 0.1634 l
s
n
0.5193 0.1500 m
0.5193 0.1634 l
s
n
0.5274 0.1500 m
0.5274 0.1634 l
s
n
0.5354 0.1500 m
0.5354 0.1634 l
s
n
0.5434 0.1500 m
0.5434 0.1634 l
s
n
0.5515 0.1500 m
0.5515 0.1634 l
s
n
0.5595 0.1500 m
0.5595 0.1634 l
s
n
0.5675 0.1500 m
0.5675 0.1634 l
s
n
0.5755 0.1500 m
0.5755 0.1634 l
s
n
0.5836 0.1500 m
0.5836 0.1634 l
s
n
0.5916 0.1500 m
0.5916 0.1634 l
s
n
0.5996 0.1500 m
0.5996 0.1634 l
s
n
0.6077 0.1500 m
0.6077 0.1634 l
s
n
0.6157 0.1500 m
0.6157 0.1634 l
s
n
0.6237 0.1500 m
0.6237 0.1634 l
s
n
0.6318 0.1500 m
0.6318 0.1634 l
s
n
0.6398 0.1500 m
0.6398 0.1634 l
s
n
0.6478 0.1500 m
0.6478 0.1634 l
s
n
0.6558 0.1500 m
0.6558 0.1634 l
s
n
0.6639 0.1500 m
0.6639 0.1634 l
s
n
0.6719 0.1500 m
0.6719 0.1634 l
s
n
0.6799 0.1500 m
0.6799 0.1634 l
s
n
0.6880 0.1500 m
0.6880 0.1634 l
s
n
0.6960 0.1500 m
0.6960 0.1634 l
s
n
0.7040 0.1500 m
0.7040 0.1634 l
s
n
0.7120 0.1500 m
0.7120 0.1634 l
s
n
0.7201 0.1500 m
0.7201 0.1634 l
s
n
0.7281 0.1500 m
0.7281 0.1634 l
s
n
0.7361 0.1500 m
0.7361 0.1634 l
s
n
0.7442 0.1500 m
0.7442 0.1634 l
s
n
0.7522 0.1500 m
0.7522 0.1634 l
s
n
0.7602 0.1500 m
0.7602 0.1634 l
s
n
0.7682 0.1500 m
0.7682 0.1634 l
s
n
0.7763 0.1500 m
0.7763 0.1634 l
s
n
0.7843 0.1500 m
0.7843 0.1634 l
s
n
0.7923 0.1500 m
0.7923 0.1634 l
s
n
0.8004 0.1500 m
0.8004 0.1634 l
s
n
0.8084 0.1500 m
0.8084 0.1634 l
s
n
0.8164 0.1500 m
0.8164 0.1634 l
s
n
0.8245 0.1500 m
0.8245 0.1634 l
s
n
0.8325 0.1500 m
0.8325 0.1634 l
s
n
0.8405 0.1500 m
0.8405 0.1634 l
s
n
0.8485 0.1500 m
0.8485 0.1634 l
s
n
0.8566 0.1500 m
0.8566 0.1634 l
s
n
0.8646 0.1500 m
0.8646 0.1634 l
s
n
0.8726 0.1500 m
0.8726 0.1634 l
s
n
0.8807 0.1500 m
0.8807 0.1634 l
s
n
0.8887 0.1500 m
0.8887 0.1634 l
s
n
0.8967 0.1500 m
0.8967 0.1634 l
s
n
0.9047 0.1500 m
0.9047 0.1634 l
s
n
0.9128 0.1500 m
0.9128 0.1634 l
s
n
0.9208 0.1500 m
0.9208 0.1634 l
s
n
0.9288 0.1500 m
0.9288 0.1634 l
s
n
0.9369 0.1500 m
0.9369 0.1634 l
s
n
0.9449 0.1500 m
0.9449 0.1634 l
s
n
0.9529 0.1500 m
0.9529 0.1634 l
s
n
0.9609 0.1500 m
0.9609 0.1634 l
s
n
0.9690 0.1500 m
0.9690 0.1634 l
s
n
0.9770 0.1500 m
0.9770 0.1634 l
s
n
0.9850 0.1500 m
0.9850 0.1634 l
s
n
0.9931 0.1500 m
0.9931 0.1634 l
s
n
1.0011 0.1500 m
1.0011 0.1634 l
s
n
1.0091 0.1500 m
1.0091 0.1634 l
s
n
1.0172 0.1500 m
1.0172 0.1634 l
s
n
1.0252 0.1500 m
1.0252 0.1634 l
s
n
1.0332 0.1500 m
1.0332 0.1634 l
s
n
1.0412 0.1500 m
1.0412 0.1634 l
s
n
1.0493 0.1500 m
1.0493 0.1634 l
s
n
1.0573 0.1500 m
1.0573 0.1634 l
s
n
1.0653 0.1500 m
1.0653 0.1634 l
s
n
1.0734 0.1500 m
1.0734 0.1634 l
s
n
1.0814 0.1500 m
1.0814 0.1634 l
s
n
1.0894 0.1500 m
1.0894 0.1634 l
s
n
1.0974 0.1500 m
1.0974 0.1634 l
s
n
1.1055 0.1500 m
1.1055 0.1634 l
s
n
1.1135 0.1500 m
1.1135 0.1634 l
s
n
1.1215 0.1500 m
1.1215 0.1634 l
s
n
1.1296 0.1500 m
1.1296 0.1634 l
s
n
1.1376 0.1500 m
1.1376 0.1634 l
s
n
1.1456 0.1500 m
1.1456 0.1634 l
s
n
1.1536 0.1500 m
1.1536 0.1634 l
s
n
1.1617 0.1500 m
1.1617 0.1634 l
s
n
1.1697 0.1500 m
1.1697 0.1634 l
s
n
1.1777 0.1500 m
1.1777 0.1634 l
s
n
1.1858 0.1500 m
1.1858 0.1634 l
s
n
1.1938 0.1500 m
1.1938 0.1634 l
s
n
1.2018 0.1500 m
1.2018 0.1634 l
s
n
1.2099 0.1500 m
1.2099 0.1634 l
s
n
1.2179 0.1500 m
1.2179 0.1634 l
s
n
1.2259 0.1500 m
1.2259 0.1634 l
s
n
1.2339 0.1500 m
1.2339 0.1634 l
s
n
1.2420 0.1500 m
1.2420 0.1634 l
s
n
1.2500 0.1500 m
1.2500 0.1634 l
s
/Times-Roman findfont
dup length dict begin
 {1 index /FID ne {def} {pop pop} ifelse} forall
 /Encoding DefEncoding def
 currentdict
end
/Font0 exch definefont pop
/Font0 FFSF
0.1524 0.1051 m
GS
[0.0000 0.0104 -0.0104 0.0000 0 0] CC
(AgAlGe) show
GR
/Font0 FFSF
0.1604 0.0889 m
GS
[0.0000 0.0104 -0.0104 0.0000 0 0] CC
(AgAlSn) show
GR
/Font0 FFSF
0.1682 0.1063 m
GS
[0.0000 0.0104 -0.0104 0.0000 0 0] CC
(AgCaBi) show
GR
/Font0 FFSF
0.1764 0.0940 m
GS
[0.0000 0.0104 -0.0104 0.0000 0 0] CC
(AgYSi) show
GR
/Font0 FFSF
0.1856 0.1118 m
GS
[0.0000 0.0104 -0.0104 0.0000 0 0] CC
(AlBeB) show
GR
/Font0 FFSF
0.1937 0.0912 m
GS
[0.0000 0.0104 -0.0104 0.0000 0 0] CC
(AlLiGe) show
GR
/Font0 FFSF
0.2017 0.1122 m
GS
[0.0000 0.0104 -0.0104 0.0000 0 0] CC
(AlLiSi) show
GR
/Font0 FFSF
0.2097 0.0904 m
GS
[0.0000 0.0104 -0.0104 0.0000 0 0] CC
(AuLiSb) show
GR
/Font0 FFSF
0.2176 0.1078 m
GS
[0.0000 0.0104 -0.0104 0.0000 0 0] CC
(BaZnTi) show
GR
/Font0 FFSF
0.2258 0.0944 m
GS
[0.0000 0.0104 -0.0104 0.0000 0 0] CC
(BeScB) show
GR
/Font0 FFSF
0.2324 0.1039 m
GS
[0.0000 0.0104 -0.0104 0.0000 0 0] CC
(BiMgCu) show
GR
/Font0 FFSF
0.2419 0.0924 m
GS
[0.0000 0.0104 -0.0104 0.0000 0 0] CC
(BiScNi) show
GR
/Font0 FFSF
0.2497 0.1125 m
GS
[0.0000 0.0104 -0.0104 0.0000 0 0] CC
(BiYNi) show
GR
/Font0 FFSF
0.2579 0.0944 m
GS
[0.0000 0.0104 -0.0104 0.0000 0 0] CC
(BiYPd) show
GR
/Font0 FFSF
0.2657 0.1086 m
GS
[0.0000 0.0104 -0.0104 0.0000 0 0] CC
(BiZrCo) show
GR
/Font0 FFSF
0.2738 0.0928 m
GS
[0.0000 0.0104 -0.0104 0.0000 0 0] CC
(BiZrNi) show
GR
/Font0 FFSF
0.2820 0.1063 m
GS
[0.0000 0.0104 -0.0104 0.0000 0 0] CC
(CaZnSn) show
GR
/Font0 FFSF
0.2898 0.0897 m
GS
[0.0000 0.0104 -0.0104 0.0000 0 0] CC
(CaZnZr) show
GR
/Font0 FFSF
0.2981 0.1133 m
GS
[0.0000 0.0104 -0.0104 0.0000 0 0] CC
(CdPLi) show
GR
/Font0 FFSF
0.3061 0.0857 m
GS
[0.0000 0.0104 -0.0104 0.0000 0 0] CC
(CoMnSb) show
GR
/Font0 FFSF
0.3141 0.1043 m
GS
[0.0000 0.0104 -0.0104 0.0000 0 0] CC
(CoNbSn) show
GR
/Font0 FFSF
0.3221 0.0857 m
GS
[0.0000 0.0104 -0.0104 0.0000 0 0] CC
(CoSnMo) show
GR
/Font0 FFSF
0.3302 0.1047 m
GS
[0.0000 0.0104 -0.0104 0.0000 0 0] CC
(CoSnNb) show
GR
/Font0 FFSF
0.3382 0.0889 m
GS
[0.0000 0.0104 -0.0104 0.0000 0 0] CC
(CoSnTc) show
GR
/Font0 FFSF
0.3462 0.1078 m
GS
[0.0000 0.0104 -0.0104 0.0000 0 0] CC
(CoSnTi) show
GR
/Font0 FFSF
0.3543 0.0904 m
GS
[0.0000 0.0104 -0.0104 0.0000 0 0] CC
(CoZrSb) show
GR
/Font0 FFSF
0.3623 0.1086 m
GS
[0.0000 0.0104 -0.0104 0.0000 0 0] CC
(CrSbNi) show
GR
/Font0 FFSF
0.3701 0.0904 m
GS
[0.0000 0.0104 -0.0104 0.0000 0 0] CC
(CsZnBi) show
GR
/Font0 FFSF
0.3783 0.1055 m
GS
[0.0000 0.0104 -0.0104 0.0000 0 0] CC
(CuAlGe) show
GR
/Font0 FFSF
0.3864 0.0893 m
GS
[0.0000 0.0104 -0.0104 0.0000 0 0] CC
(CuAlSn) show
GR
/Font0 FFSF
0.3930 0.1024 m
GS
[0.0000 0.0104 -0.0104 0.0000 0 0] CC
(CuMgAs) show
GR
/Font0 FFSF
0.4013 0.0853 m
GS
[0.0000 0.0104 -0.0104 0.0000 0 0] CC
(CuMgSn) show
GR
/Font0 FFSF
0.4105 0.1067 m
GS
[0.0000 0.0104 -0.0104 0.0000 0 0] CC
(CuScSn) show
GR
/Font0 FFSF
0.4185 0.0948 m
GS
[0.0000 0.0104 -0.0104 0.0000 0 0] CC
(CuYSi) show
GR
/Font0 FFSF
0.4265 0.1098 m
GS
[0.0000 0.0104 -0.0104 0.0000 0 0] CC
(CuYSn) show
GR
/Font0 FFSF
0.4346 0.0924 m
GS
[0.0000 0.0104 -0.0104 0.0000 0 0] CC
(FeSnTi) show
GR
/Font0 FFSF
0.4424 0.1102 m
GS
[0.0000 0.0104 -0.0104 0.0000 0 0] CC
(InLiGe) show
GR
/Font0 FFSF
0.4506 0.0904 m
GS
[0.0000 0.0104 -0.0104 0.0000 0 0] CC
(IrMnSn) show
GR
/Font0 FFSF
0.4584 0.1114 m
GS
[0.0000 0.0104 -0.0104 0.0000 0 0] CC
(KZnBi) show
GR
/Font0 FFSF
0.4667 0.0924 m
GS
[0.0000 0.0104 -0.0104 0.0000 0 0] CC
(LiAlSn) show
GR
/Font0 FFSF
0.4747 0.1129 m
GS
[0.0000 0.0104 -0.0104 0.0000 0 0] CC
(LiAuS) show
GR
/Font0 FFSF
0.4825 0.0963 m
GS
[0.0000 0.0104 -0.0104 0.0000 0 0] CC
(LiBaP) show
GR
/Font0 FFSF
0.4906 0.1137 m
GS
[0.0000 0.0104 -0.0104 0.0000 0 0] CC
(LiCaP) show
GR
/Font0 FFSF
0.4986 0.0944 m
GS
[0.0000 0.0104 -0.0104 0.0000 0 0] CC
(LiCGa) show
GR
/Font0 FFSF
0.5068 0.1137 m
GS
[0.0000 0.0104 -0.0104 0.0000 0 0] CC
(LiCuS) show
GR
/Font0 FFSF
0.5148 0.0912 m
GS
[0.0000 0.0104 -0.0104 0.0000 0 0] CC
(LiCuSe) show
GR
/Font0 FFSF
0.5227 0.1078 m
GS
[0.0000 0.0104 -0.0104 0.0000 0 0] CC
(LiCuTe) show
GR
/Font0 FFSF
0.5307 0.0904 m
GS
[0.0000 0.0104 -0.0104 0.0000 0 0] CC
(LiLaGe) show
GR
/Font0 FFSF
0.5376 0.1090 m
GS
[0.0000 0.0104 -0.0104 0.0000 0 0] CC
(LiMgN) show
GR
/Font0 FFSF
0.5470 0.0928 m
GS
[0.0000 0.0104 -0.0104 0.0000 0 0] CC
(LiSiGa) show
GR
/Font0 FFSF
0.5550 0.1114 m
GS
[0.0000 0.0104 -0.0104 0.0000 0 0] CC
(LiSnIn) show
GR
/Font0 FFSF
0.5630 0.0987 m
GS
[0.0000 0.0104 -0.0104 0.0000 0 0] CC
(LiSrP) show
GR
/Font0 FFSF
0.5710 0.1125 m
GS
[0.0000 0.0104 -0.0104 0.0000 0 0] CC
(LiYSn) show
GR
/Font0 FFSF
0.5789 0.0944 m
GS
[0.0000 0.0104 -0.0104 0.0000 0 0] CC
(LiZnN) show
GR
/Font0 FFSF
0.5857 0.1110 m
GS
[0.0000 0.0104 -0.0104 0.0000 0 0] CC
(MgPLi) show
GR
/Font0 FFSF
0.5940 0.0853 m
GS
[0.0000 0.0104 -0.0104 0.0000 0 0] CC
(MgSbCu) show
GR
/Font0 FFSF
0.6020 0.1047 m
GS
[0.0000 0.0104 -0.0104 0.0000 0 0] CC
(MgSbNi) show
GR
/Font0 FFSF
0.6100 0.0865 m
GS
[0.0000 0.0104 -0.0104 0.0000 0 0] CC
(MgSbPd) show
GR
/Font0 FFSF
0.6180 0.1059 m
GS
[0.0000 0.0104 -0.0104 0.0000 0 0] CC
(MgSbPt) show
GR
/Font0 FFSF
0.6261 0.0853 m
GS
[0.0000 0.0104 -0.0104 0.0000 0 0] CC
(MgSnCu) show
GR
/Font0 FFSF
0.6341 0.1047 m
GS
[0.0000 0.0104 -0.0104 0.0000 0 0] CC
(MgSrGe) show
GR
/Font0 FFSF
0.6421 0.0904 m
GS
[0.0000 0.0104 -0.0104 0.0000 0 0] CC
(MgSrSi) show
GR
/Font0 FFSF
0.6502 0.1055 m
GS
[0.0000 0.0104 -0.0104 0.0000 0 0] CC
(MgSrSn) show
GR
/Font0 FFSF
0.6580 0.0853 m
GS
[0.0000 0.0104 -0.0104 0.0000 0 0] CC
(MgZnHf) show
GR
/Font0 FFSF
0.6674 0.1039 m
GS
[0.0000 0.0104 -0.0104 0.0000 0 0] CC
(MnPdTe) show
GR
/Font0 FFSF
0.6752 0.0877 m
GS
[0.0000 0.0104 -0.0104 0.0000 0 0] CC
(MnPtGa) show
GR
/Font0 FFSF
0.6835 0.1067 m
GS
[0.0000 0.0104 -0.0104 0.0000 0 0] CC
(MnPtSb) show
GR
/Font0 FFSF
0.6915 0.0857 m
GS
[0.0000 0.0104 -0.0104 0.0000 0 0] CC
(MnRhSb) show
GR
/Font0 FFSF
0.6995 0.1031 m
GS
[0.0000 0.0104 -0.0104 0.0000 0 0] CC
(MnSbCo) show
GR
/Font0 FFSF
0.7075 0.0853 m
GS
[0.0000 0.0104 -0.0104 0.0000 0 0] CC
(MnSbCu) show
GR
/Font0 FFSF
0.7156 0.1078 m
GS
[0.0000 0.0104 -0.0104 0.0000 0 0] CC
(MnSbIr) show
GR
/Font0 FFSF
0.7236 0.0873 m
GS
[0.0000 0.0104 -0.0104 0.0000 0 0] CC
(MnSbNi) show
GR
/Font0 FFSF
0.7316 0.1035 m
GS
[0.0000 0.0104 -0.0104 0.0000 0 0] CC
(MnSbOs) show
GR
/Font0 FFSF
0.7397 0.0885 m
GS
[0.0000 0.0104 -0.0104 0.0000 0 0] CC
(MnSbPt) show
GR
/Font0 FFSF
0.7477 0.1035 m
GS
[0.0000 0.0104 -0.0104 0.0000 0 0] CC
(MnSbRe) show
GR
/Font0 FFSF
0.7557 0.0853 m
GS
[0.0000 0.0104 -0.0104 0.0000 0 0] CC
(MnSbRh) show
GR
/Font0 FFSF
0.7637 0.1039 m
GS
[0.0000 0.0104 -0.0104 0.0000 0 0] CC
(MnSbTa) show
GR
/Font0 FFSF
0.7718 0.0877 m
GS
[0.0000 0.0104 -0.0104 0.0000 0 0] CC
(MnSbW) show
GR
/Font0 FFSF
0.7798 0.1059 m
GS
[0.0000 0.0104 -0.0104 0.0000 0 0] CC
(MnSnPt) show
GR
/Font0 FFSF
0.7865 0.0908 m
GS
[0.0000 0.0104 -0.0104 0.0000 0 0] CC
(NaAgO) show
GR
/Font0 FFSF
0.7959 0.1059 m
GS
[0.0000 0.0104 -0.0104 0.0000 0 0] CC
(NaAlGe) show
GR
/Font0 FFSF
0.8037 0.0916 m
GS
[0.0000 0.0104 -0.0104 0.0000 0 0] CC
(NaBGe) show
GR
/Font0 FFSF
0.8106 0.1063 m
GS
[0.0000 0.0104 -0.0104 0.0000 0 0] CC
(NaMgN) show
GR
/Font0 FFSF
0.8198 0.0912 m
GS
[0.0000 0.0104 -0.0104 0.0000 0 0] CC
(NaYGe) show
GR
/Font0 FFSF
0.8280 0.1098 m
GS
[0.0000 0.0104 -0.0104 0.0000 0 0] CC
(NaYSn) show
GR
/Font0 FFSF
0.8358 0.0897 m
GS
[0.0000 0.0104 -0.0104 0.0000 0 0] CC
(NaZnBi) show
GR
/Font0 FFSF
0.8438 0.1110 m
GS
[0.0000 0.0104 -0.0104 0.0000 0 0] CC
(NaZnP) show
GR
/Font0 FFSF
0.8521 0.0885 m
GS
[0.0000 0.0104 -0.0104 0.0000 0 0] CC
(NaZnSb) show
GR
/Font0 FFSF
0.8601 0.1043 m
GS
[0.0000 0.0104 -0.0104 0.0000 0 0] CC
(NbRhSn) show
GR
/Font0 FFSF
0.8681 0.0889 m
GS
[0.0000 0.0104 -0.0104 0.0000 0 0] CC
(NbSbFe) show
GR
/Font0 FFSF
0.8762 0.1043 m
GS
[0.0000 0.0104 -0.0104 0.0000 0 0] CC
(NbSbRh) show
GR
/Font0 FFSF
0.8842 0.0873 m
GS
[0.0000 0.0104 -0.0104 0.0000 0 0] CC
(NbSbRu) show
GR
/Font0 FFSF
0.8922 0.1078 m
GS
[0.0000 0.0104 -0.0104 0.0000 0 0] CC
(NiHfSn) show
GR
/Font0 FFSF
0.9002 0.0869 m
GS
[0.0000 0.0104 -0.0104 0.0000 0 0] CC
(NiSbMn) show
GR
/Font0 FFSF
0.9083 0.1098 m
GS
[0.0000 0.0104 -0.0104 0.0000 0 0] CC
(NiSbTi) show
GR
/Font0 FFSF
0.9163 0.0924 m
GS
[0.0000 0.0104 -0.0104 0.0000 0 0] CC
(NiSnTi) show
GR
/Font0 FFSF
0.9243 0.1090 m
GS
[0.0000 0.0104 -0.0104 0.0000 0 0] CC
(NiSnZr) show
GR
/Font0 FFSF
0.9324 0.0924 m
GS
[0.0000 0.0104 -0.0104 0.0000 0 0] CC
(NiTiSn) show
GR
/Font0 FFSF
0.9404 0.1090 m
GS
[0.0000 0.0104 -0.0104 0.0000 0 0] CC
(PbYAu) show
GR
/Font0 FFSF
0.9484 0.0901 m
GS
[0.0000 0.0104 -0.0104 0.0000 0 0] CC
(PdHfSn) show
GR
/Font0 FFSF
0.9564 0.1039 m
GS
[0.0000 0.0104 -0.0104 0.0000 0 0] CC
(PdSbMn) show
GR
/Font0 FFSF
0.9645 0.0904 m
GS
[0.0000 0.0104 -0.0104 0.0000 0 0] CC
(PdTiGe) show
GR
/Font0 FFSF
0.9725 0.1086 m
GS
[0.0000 0.0104 -0.0104 0.0000 0 0] CC
(PdZrSn) show
GR
/Font0 FFSF
0.9805 0.0924 m
GS
[0.0000 0.0104 -0.0104 0.0000 0 0] CC
(PtHfSn) show
GR
/Font0 FFSF
0.9886 0.1063 m
GS
[0.0000 0.0104 -0.0104 0.0000 0 0] CC
(PtSbMn) show
GR
/Font0 FFSF
0.9966 0.0889 m
GS
[0.0000 0.0104 -0.0104 0.0000 0 0] CC
(PtSnMn) show
GR
/Font0 FFSF
1.0046 0.1102 m
GS
[0.0000 0.0104 -0.0104 0.0000 0 0] CC
(PtSnSc) show
GR
/Font0 FFSF
1.0125 0.0963 m
GS
[0.0000 0.0104 -0.0104 0.0000 0 0] CC
(PZnLi) show
GR
/Font0 FFSF
1.0207 0.1071 m
GS
[0.0000 0.0104 -0.0104 0.0000 0 0] CC
(RbZnBi) show
GR
/Font0 FFSF
1.0287 0.0853 m
GS
[0.0000 0.0104 -0.0104 0.0000 0 0] CC
(RhSbMn) show
GR
/Font0 FFSF
1.0367 0.1067 m
GS
[0.0000 0.0104 -0.0104 0.0000 0 0] CC
(RhTiGa) show
GR
/Font0 FFSF
1.0436 0.0873 m
GS
[0.0000 0.0104 -0.0104 0.0000 0 0] CC
(SbCdAg) show
GR
/Font0 FFSF
1.0528 0.1047 m
GS
[0.0000 0.0104 -0.0104 0.0000 0 0] CC
(SbCdAu) show
GR
/Font0 FFSF
1.0608 0.0877 m
GS
[0.0000 0.0104 -0.0104 0.0000 0 0] CC
(SbCuCd) show
GR
/Font0 FFSF
1.0677 0.1039 m
GS
[0.0000 0.0104 -0.0104 0.0000 0 0] CC
(SbHgAg) show
GR
/Font0 FFSF
1.0769 0.0912 m
GS
[0.0000 0.0104 -0.0104 0.0000 0 0] CC
(SbScNi) show
GR
/Font0 FFSF
1.0849 0.1078 m
GS
[0.0000 0.0104 -0.0104 0.0000 0 0] CC
(SbScPd) show
GR
/Font0 FFSF
1.0929 0.0928 m
GS
[0.0000 0.0104 -0.0104 0.0000 0 0] CC
(SbScPt) show
GR
/Font0 FFSF
1.1010 0.1067 m
GS
[0.0000 0.0104 -0.0104 0.0000 0 0] CC
(SbTaCo) show
GR
/Font0 FFSF
1.1090 0.0889 m
GS
[0.0000 0.0104 -0.0104 0.0000 0 0] CC
(SbTaRu) show
GR
/Font0 FFSF
1.1170 0.1082 m
GS
[0.0000 0.0104 -0.0104 0.0000 0 0] CC
(SbTiCo) show
GR
/Font0 FFSF
1.1251 0.0924 m
GS
[0.0000 0.0104 -0.0104 0.0000 0 0] CC
(SbTiFe) show
GR
/Font0 FFSF
1.1331 0.1098 m
GS
[0.0000 0.0104 -0.0104 0.0000 0 0] CC
(SbTiNi) show
GR
/Font0 FFSF
1.1411 0.0904 m
GS
[0.0000 0.0104 -0.0104 0.0000 0 0] CC
(SbTiRu) show
GR
/Font0 FFSF
1.1491 0.1098 m
GS
[0.0000 0.0104 -0.0104 0.0000 0 0] CC
(SbVCo) show
GR
/Font0 FFSF
1.1572 0.0940 m
GS
[0.0000 0.0104 -0.0104 0.0000 0 0] CC
(SbVFe) show
GR
/Font0 FFSF
1.1652 0.1114 m
GS
[0.0000 0.0104 -0.0104 0.0000 0 0] CC
(SbVNi) show
GR
/Font0 FFSF
1.1732 0.0924 m
GS
[0.0000 0.0104 -0.0104 0.0000 0 0] CC
(SbVRu) show
GR
/Font0 FFSF
1.1813 0.1114 m
GS
[0.0000 0.0104 -0.0104 0.0000 0 0] CC
(SbYNi) show
GR
/Font0 FFSF
1.1893 0.0955 m
GS
[0.0000 0.0104 -0.0104 0.0000 0 0] CC
(SbYPt) show
GR
/Font0 FFSF
1.1973 0.1075 m
GS
[0.0000 0.0104 -0.0104 0.0000 0 0] CC
(SbZrRu) show
GR
/Font0 FFSF
1.2054 0.0912 m
GS
[0.0000 0.0104 -0.0104 0.0000 0 0] CC
(SbZrTc) show
GR
/Font0 FFSF
1.2134 0.1063 m
GS
[0.0000 0.0104 -0.0104 0.0000 0 0] CC
(ScSnAu) show
GR
/Font0 FFSF
1.2214 0.0924 m
GS
[0.0000 0.0104 -0.0104 0.0000 0 0] CC
(SnTiNi) show
GR
/Font0 FFSF
1.2294 0.1114 m
GS
[0.0000 0.0104 -0.0104 0.0000 0 0] CC
(SnTiPt) show
GR
/Font0 FFSF
1.2375 0.0908 m
GS
[0.0000 0.0104 -0.0104 0.0000 0 0] CC
(SrAlGa) show
GR
/Font0 FFSF
1.2455 0.1102 m
GS
[0.0000 0.0104 -0.0104 0.0000 0 0] CC
(SrCdSi) show
GR
/Font0 FFSF
1.2535 0.0924 m
GS
[0.0000 0.0104 -0.0104 0.0000 0 0] CC
(TlLiGe) show
GR
n
0.1500 0.1500 m
0.1500 0.5500 l
s
n
1.2500 0.1500 m
1.2500 0.5500 l
s
n
0.1500 0.1700 m
0.1600 0.1700 l
s
n
1.2500 0.1700 m
1.2400 0.1700 l
s
n
0.1500 0.2100 m
0.1600 0.2100 l
s
n
1.2500 0.2100 m
1.2400 0.2100 l
s
n
0.1500 0.2500 m
0.1600 0.2500 l
s
n
1.2500 0.2500 m
1.2400 0.2500 l
s
n
0.1500 0.2900 m
0.1600 0.2900 l
s
n
1.2500 0.2900 m
1.2400 0.2900 l
s
n
0.1500 0.3300 m
0.1600 0.3300 l
s
n
1.2500 0.3300 m
1.2400 0.3300 l
s
n
0.1500 0.3700 m
0.1600 0.3700 l
s
n
1.2500 0.3700 m
1.2400 0.3700 l
s
n
0.1500 0.4100 m
0.1600 0.4100 l
s
n
1.2500 0.4100 m
1.2400 0.4100 l
s
n
0.1500 0.4500 m
0.1600 0.4500 l
s
n
1.2500 0.4500 m
1.2400 0.4500 l
s
n
0.1500 0.4900 m
0.1600 0.4900 l
s
n
1.2500 0.4900 m
1.2400 0.4900 l
s
n
0.1500 0.5300 m
0.1600 0.5300 l
s
n
1.2500 0.5300 m
1.2400 0.5300 l
s
n
0.1500 0.1500 m
0.1700 0.1500 l
s
n
1.2500 0.1500 m
1.2300 0.1500 l
s
n
0.1500 0.1900 m
0.1700 0.1900 l
s
n
1.2500 0.1900 m
1.2300 0.1900 l
s
n
0.1500 0.2300 m
0.1700 0.2300 l
s
n
1.2500 0.2300 m
1.2300 0.2300 l
s
n
0.1500 0.2700 m
0.1700 0.2700 l
s
n
1.2500 0.2700 m
1.2300 0.2700 l
s
n
0.1500 0.3100 m
0.1700 0.3100 l
s
n
1.2500 0.3100 m
1.2300 0.3100 l
s
n
0.1500 0.3500 m
0.1700 0.3500 l
s
n
1.2500 0.3500 m
1.2300 0.3500 l
s
n
0.1500 0.3900 m
0.1700 0.3900 l
s
n
1.2500 0.3900 m
1.2300 0.3900 l
s
n
0.1500 0.4300 m
0.1700 0.4300 l
s
n
1.2500 0.4300 m
1.2300 0.4300 l
s
n
0.1500 0.4700 m
0.1700 0.4700 l
s
n
1.2500 0.4700 m
1.2300 0.4700 l
s
n
0.1500 0.5100 m
0.1700 0.5100 l
s
n
1.2500 0.5100 m
1.2300 0.5100 l
s
n
0.1500 0.5500 m
0.1700 0.5500 l
s
n
1.2500 0.5500 m
1.2300 0.5500 l
s
/Font0 FFSF
0.1196 0.1406 m
GS
[0.0280 0.0000 0.0000 0.0280 0 0] CC
(-1) show
GR
/Font0 FFSF
0.0973 0.1808 m
GS
[0.0280 0.0000 0.0000 0.0280 0 0] CC
(-0.8) show
GR
/Font0 FFSF
0.0969 0.2206 m
GS
[0.0280 0.0000 0.0000 0.0280 0 0] CC
(-0.6) show
GR
/Font0 FFSF
0.0965 0.2608 m
GS
[0.0280 0.0000 0.0000 0.0280 0 0] CC
(-0.4) show
GR
/Font0 FFSF
0.0965 0.3008 m
GS
[0.0280 0.0000 0.0000 0.0280 0 0] CC
(-0.2) show
GR
/Font0 FFSF
0.1267 0.3408 m
GS
[0.0280 0.0000 0.0000 0.0280 0 0] CC
(0) show
GR
/Font0 FFSF
0.1055 0.3808 m
GS
[0.0280 0.0000 0.0000 0.0280 0 0] CC
(0.2) show
GR
/Font0 FFSF
0.1055 0.4208 m
GS
[0.0280 0.0000 0.0000 0.0280 0 0] CC
(0.4) show
GR
/Font0 FFSF
0.1059 0.4606 m
GS
[0.0280 0.0000 0.0000 0.0280 0 0] CC
(0.6) show
GR
/Font0 FFSF
0.1063 0.5008 m
GS
[0.0280 0.0000 0.0000 0.0280 0 0] CC
(0.8) show
GR
/Font0 FFSF
0.1290 0.5406 m
GS
[0.0280 0.0000 0.0000 0.0280 0 0] CC
(1) show
GR
/Font0 FFSF
0.0861 0.2465 m
GS
[0.0000 0.0280 -0.0280 0.0000 0 0] CC
(% error versus AE) show
GR
n
0.1500 0.1500 m
0.1500 0.5500 l
1.2500 0.5500 l
1.2500 0.1500 l
0.1500 0.1500 l
c
s
n
0.8500 0.5000 m
0.8500 0.4312 l
1.1031 0.4312 l
1.1031 0.5000 l
c
[/DeviceRGB] SCS
Color0 SC
fill
[/DeviceRGB] SCS
Color1 SC
n
0.8500 0.5000 m
0.8500 0.4312 l
1.1031 0.4312 l
1.1031 0.5000 l
0.8500 0.5000 l
c
s
/Font0 FFSF
0.9206 0.4708 m
GS
[0.0280 0.0000 0.0000 0.0280 0 0] CC
(GBRV - Abinit) show
GR
[/DeviceRGB] SCS
Color4 SC
[] 0 SD
0.0023 SLW
n
0.8657 0.4802 m
0.9057 0.4802 l
s
n
0.8657 0.4802 0.0049 0.0049 0 360 EARC c
fill
[] 0 SD
0.0015 SLW
n 0.8657 0.4802 0.0049 0.0049 0 360 EARC s
n
0.9057 0.4802 0.0049 0.0049 0 360 EARC c
fill
n 0.9057 0.4802 0.0049 0.0049 0 360 EARC s
/Font0 FFSF
[/DeviceRGB] SCS
Color1 SC
0.9206 0.4416 m
GS
[0.0280 0.0000 0.0000 0.0280 0 0] CC
(JTH v1.1) show
GR
[/DeviceRGB] SCS
Color2 SC
[] 0 SD
0.0023 SLW
n
0.8657 0.4508 m
0.9057 0.4508 l
s
n
0.8615 0.4466 m
0.8615 0.4549 l
0.8698 0.4549 l
0.8698 0.4466 l
c
fill
[] 0 SD
0.0015 SLW
n
0.8615 0.4466 m
0.8615 0.4549 l
0.8698 0.4549 l
0.8698 0.4466 l
0.8615 0.4466 l
c
s
n
0.9015 0.4466 m
0.9015 0.4549 l
0.9098 0.4549 l
0.9098 0.4466 l
c
fill
n
0.9015 0.4466 m
0.9015 0.4549 l
0.9098 0.4549 l
0.9098 0.4466 l
0.9015 0.4466 l
c
s
%%Trailer
%%BoundingBox: 40 51 770 344
%%DocumentNeededResources: font Times-Roman
%%EOF
