%!PS-Adobe-3.0 EPSF-3.0
%%BoundingBox: (atend)
%%LanguageLevel: 2
%%Creator: Grace-5.1.21
%%CreationDate: Thu Mar  8 09:35:17 2018
%%DocumentData: Clean8Bit
%%Orientation: Portrait
%%Title: fig-fcc.agr
%%For: jolletf
%%DocumentNeededResources: (atend)
%%EndComments
%%BeginProlog
/m {moveto} def
/l {lineto} def
/s {stroke} def
/n {newpath} def
/c {closepath} def
/RL {rlineto} def
/SLW {setlinewidth} def
/GS {gsave} def
/GR {grestore} def
/SC {setcolor} def
/SGRY {setgray} def
/SRGB {setrgbcolor} def
/SD {setdash} def
/SLC {setlinecap} def
/SLJ {setlinejoin} def
/SCS {setcolorspace} def
/FFSF {findfont setfont} def
/CC {concat} def
/PXL {n m 0 0 RL s} def
/Color0 {1.0000 1.0000 1.0000} def
/Color1 {0.0000 0.0000 0.0000} def
/Color2 {1.0000 0.0000 0.0000} def
/Color3 {0.0000 1.0000 0.0000} def
/Color4 {0.0000 0.0000 1.0000} def
/Color5 {1.0000 1.0000 0.0000} def
/Color6 {0.7373 0.5608 0.5608} def
/Color7 {0.8627 0.8627 0.8627} def
/Color8 {0.5804 0.0000 0.8275} def
/Color9 {0.0000 1.0000 1.0000} def
/Color10 {1.0000 0.0000 1.0000} def
/Color11 {1.0000 0.6471 0.0000} def
/Color12 {0.4471 0.1294 0.7373} def
/Color13 {0.4039 0.0275 0.2824} def
/Color14 {0.2510 0.8784 0.8157} def
/Color15 {0.0000 0.5451 0.0000} def
/Color16 {0.7529 0.7529 0.7529} def
/Color17 {0.5059 0.5059 0.5059} def
/Color18 {0.2588 0.2588 0.2588} def
/PTRN {
 /pat_bits exch def 
 <<
  /PaintType 2
  /PatternType 1 /TilingType 1
  /BBox[0 0 16 16]
  /XStep 16 /YStep 16
  /PaintProc {
   pop
   16 16 true [-1 0 0 -1 16 16] pat_bits imagemask
  }
 >>
 [0.0016 0 0 0.0016 0 0]
 makepattern
} def
/Pattern0 {<0000000000000000000000000000000000000000000000000000000000000000> PTRN} bind def
/Pattern1 {<ffffffffffffffffffffffffffffffffffffffffffffffffffffffffffffffff> PTRN} bind def
/Pattern2 {<eeeeffffbbbbffffeeeeffffbbbbffffeeeeffffbbbbffffeeeeffffbbbbffff> PTRN} bind def
/Pattern3 {<eeeebbbbeeeebbbbeeeebbbbeeeebbbbeeeebbbbeeeebbbbeeeebbbbeeeebbbb> PTRN} bind def
/Pattern4 {<5555aaaa5555aaaa5555aaaa5555aaaa5555aaaa5555aaaa5555aaaa5555aaaa> PTRN} bind def
/Pattern5 {<1111444411114444111144441111444411114444111144441111444411114444> PTRN} bind def
/Pattern6 {<1111000044440000111100004444000011110000444400001111000044440000> PTRN} bind def
/Pattern7 {<1010000000000000010100000000000010100000000000000101000000000000> PTRN} bind def
/Pattern8 {<0000000000000000000000000000000000000000000000000000000000000000> PTRN} bind def
/Pattern9 {<1e1e0f0f8787c3c3e1e1f0f078783c3c1e1e0f0f8787c3c3e1e1f0f078783c3c> PTRN} bind def
/Pattern10 {<7878f0f0e1e1c3c387870f0f1e1e3c3c7878f0f0e1e1c3c387870f0f1e1e3c3c> PTRN} bind def
/Pattern11 {<3333333333333333333333333333333333333333333333333333333333333333> PTRN} bind def
/Pattern12 {<ffffffff00000000ffffffff00000000ffffffff00000000ffffffff00000000> PTRN} bind def
/Pattern13 {<8181424224241818181824244242818181814242242418181818242442428181> PTRN} bind def
/Pattern14 {<8080404020201010080804040202010180804040202010100808040402020101> PTRN} bind def
/Pattern15 {<0101020204040808101020204040808001010202040408081010202040408080> PTRN} bind def
/Pattern16 {<2222222222222222222222222222222222222222222222222222222222222222> PTRN} bind def
/Pattern17 {<0000ffff000000000000ffff000000000000ffff000000000000ffff00000000> PTRN} bind def
/Pattern18 {<2222ffff222222222222ffff222222222222ffff222222222222ffff22222222> PTRN} bind def
/Pattern19 {<ffffffff33333333ffffffff33333333ffffffff33333333ffffffff33333333> PTRN} bind def
/Pattern20 {<0f0f0f0f0f0f0f0ff0f0f0f0f0f0f0f00f0f0f0f0f0f0f0ff0f0f0f0f0f0f0f0> PTRN} bind def
/Pattern21 {<ff00ff00ff00ff00ff00ff00ff00ff0000ff00ff00ff00ff00ff00ff00ff00ff> PTRN} bind def
/Pattern22 {<8001800180018001800180018001ffffffff8001800180018001800180018001> PTRN} bind def
/Pattern23 {<c003c003c003c003c003c003ffffffffffffffffc003c003c003c003c003c003> PTRN} bind def
/Pattern24 {<040404040404ffff404040404040ffff040404040404ffff404040404040ffff> PTRN} bind def
/Pattern25 {<180018001800180018001800ffffffff001800180018001800180018ffffffff> PTRN} bind def
/Pattern26 {<1111b8b87c7c3a3a1111a3a3c7c78b8b1111b8b87c7c3a3a1111a3a3c7c78b8b> PTRN} bind def
/Pattern27 {<101010102828c7c70101010182827c7c101010102828c7c70101010182827c7c> PTRN} bind def
/Pattern28 {<1c1c121211112121c1c12121111112121c1c121211112121c1c1212111111212> PTRN} bind def
/Pattern29 {<3e3e414180808080e3e31414080808083e3e414180808080e3e3141408080808> PTRN} bind def
/Pattern30 {<4848888884848383848488884848383848488888848483838484888848483838> PTRN} bind def
/Pattern31 {<03030404080808080c0c12122121c0c003030404080808080c0c12122121c0c0> PTRN} bind def
/ellipsedict 8 dict def
ellipsedict /mtrx matrix put
/EARC {
 ellipsedict begin
  /endangle exch def
  /startangle exch def
  /yrad exch def
  /xrad exch def
  /y exch def
  /x exch def
  /savematrix mtrx currentmatrix def
  x y translate
  xrad yrad scale
  0 0 1 startangle endangle arc
  savematrix setmatrix
 end
} def
/TL {
  /kcomp exch def
  /linewidth exch def
  /offset exch def
  GS
  0 offset rmoveto
  linewidth SLW
  dup stringwidth exch kcomp add exch RL s
  GR
} def
/KINIT
{
 /kvector exch def
 /kid 0 def
} def
/KPROC
{
 pop pop
 kvector kid get
 0 rmoveto
 /kid 1 kid add def
} def
/DefEncoding [
 /.notdef
 /.notdef
 /.notdef
 /.notdef
 /.notdef
 /.notdef
 /.notdef
 /.notdef
 /.notdef
 /.notdef
 /.notdef
 /.notdef
 /.notdef
 /.notdef
 /.notdef
 /.notdef
 /.notdef
 /.notdef
 /.notdef
 /.notdef
 /.notdef
 /.notdef
 /.notdef
 /.notdef
 /.notdef
 /.notdef
 /.notdef
 /.notdef
 /.notdef
 /.notdef
 /.notdef
 /.notdef
 /space
 /exclam
 /quotedbl
 /numbersign
 /dollar
 /percent
 /ampersand
 /quoteright
 /parenleft
 /parenright
 /asterisk
 /plus
 /comma
 /hyphen
 /period
 /slash
 /zero
 /one
 /two
 /three
 /four
 /five
 /six
 /seven
 /eight
 /nine
 /colon
 /semicolon
 /less
 /equal
 /greater
 /question
 /at
 /A
 /B
 /C
 /D
 /E
 /F
 /G
 /H
 /I
 /J
 /K
 /L
 /M
 /N
 /O
 /P
 /Q
 /R
 /S
 /T
 /U
 /V
 /W
 /X
 /Y
 /Z
 /bracketleft
 /backslash
 /bracketright
 /asciicircum
 /underscore
 /grave
 /a
 /b
 /c
 /d
 /e
 /f
 /g
 /h
 /i
 /j
 /k
 /l
 /m
 /n
 /o
 /p
 /q
 /r
 /s
 /t
 /u
 /v
 /w
 /x
 /y
 /z
 /braceleft
 /bar
 /braceright
 /asciitilde
 /.notdef
 /.notdef
 /.notdef
 /.notdef
 /.notdef
 /.notdef
 /.notdef
 /.notdef
 /.notdef
 /.notdef
 /.notdef
 /.notdef
 /.notdef
 /.notdef
 /.notdef
 /.notdef
 /.notdef
 /.notdef
 /.notdef
 /.notdef
 /.notdef
 /.notdef
 /.notdef
 /.notdef
 /.notdef
 /.notdef
 /.notdef
 /.notdef
 /.notdef
 /.notdef
 /.notdef
 /.notdef
 /.notdef
 /space
 /exclamdown
 /cent
 /sterling
 /currency
 /yen
 /brokenbar
 /section
 /dieresis
 /copyright
 /ordfeminine
 /guillemotleft
 /logicalnot
 /hyphen
 /registered
 /macron
 /degree
 /plusminus
 /twosuperior
 /threesuperior
 /acute
 /mu
 /paragraph
 /periodcentered
 /cedilla
 /onesuperior
 /ordmasculine
 /guillemotright
 /onequarter
 /onehalf
 /threequarters
 /questiondown
 /Agrave
 /Aacute
 /Acircumflex
 /Atilde
 /Adieresis
 /Aring
 /AE
 /Ccedilla
 /Egrave
 /Eacute
 /Ecircumflex
 /Edieresis
 /Igrave
 /Iacute
 /Icircumflex
 /Idieresis
 /Eth
 /Ntilde
 /Ograve
 /Oacute
 /Ocircumflex
 /Otilde
 /Odieresis
 /multiply
 /Oslash
 /Ugrave
 /Uacute
 /Ucircumflex
 /Udieresis
 /Yacute
 /Thorn
 /germandbls
 /agrave
 /aacute
 /acircumflex
 /atilde
 /adieresis
 /aring
 /ae
 /ccedilla
 /egrave
 /eacute
 /ecircumflex
 /edieresis
 /igrave
 /iacute
 /icircumflex
 /idieresis
 /eth
 /ntilde
 /ograve
 /oacute
 /ocircumflex
 /otilde
 /odieresis
 /divide
 /oslash
 /ugrave
 /uacute
 /ucircumflex
 /udieresis
 /yacute
 /thorn
 /ydieresis
] def
%%EndProlog
%%BeginSetup
%%EndSetup
612.00 612.00 scale
[/DeviceRGB] SCS
Color1 SC
[] 0 SD
0.0015 SLW
0 SLC
0 SLJ
n
0.1500 0.1500 m
1.1500 0.1500 l
s
n
0.1500 0.1900 m
1.1500 0.1900 l
s
n
0.1500 0.2300 m
1.1500 0.2300 l
s
n
0.1500 0.2700 m
1.1500 0.2700 l
s
n
0.1500 0.3100 m
1.1500 0.3100 l
s
n
0.1500 0.3500 m
1.1500 0.3500 l
s
n
0.1500 0.3900 m
1.1500 0.3900 l
s
n
0.1500 0.4300 m
1.1500 0.4300 l
s
n
0.1500 0.4700 m
1.1500 0.4700 l
s
n
0.1500 0.5100 m
1.1500 0.5100 l
s
n
0.1500 0.5500 m
1.1500 0.5500 l
s
[/DeviceRGB] SCS
Color4 SC
[] 0 SD
0.0023 SLW
n
0.1500 0.3588 m
0.1667 0.3408 l
0.1833 0.3626 l
0.2000 0.3570 l
0.2167 0.3436 l
0.2333 0.3374 l
0.2500 0.2456 l
0.2667 0.3348 l
0.2833 0.3720 l
0.3000 0.3500 l
0.3167 0.3344 l
0.3333 0.3450 l
0.3500 0.3002 l
0.3667 0.3022 l
0.3833 0.3210 l
0.4000 0.3586 l
0.4167 0.3500 l
0.4333 0.3448 l
0.4500 0.3500 l
0.4667 0.3442 l
0.4833 0.3732 l
0.5000 0.3500 l
0.5167 0.3272 l
0.5333 0.3500 l
0.5500 0.3704 l
0.5667 0.3688 l
0.5833 0.3406 l
0.6000 0.3688 l
0.6167 0.3316 l
0.6333 0.3288 l
0.6500 0.2748 l
0.6667 0.3168 l
0.6833 0.3302 l
0.7000 0.3412 l
0.7167 0.3406 l
0.7333 0.3300 l
0.7500 0.3346 l
0.7667 0.3342 l
0.7833 0.3604 l
0.8000 0.3298 l
0.8167 0.3692 l
0.8333 0.3322 l
0.8500 0.3458 l
0.8667 0.3376 l
0.8833 0.3376 l
0.9000 0.3458 l
0.9167 0.3270 l
0.9333 0.2630 l
0.9500 0.3184 l
0.9667 0.3500 l
0.9833 0.3590 l
1.0000 0.3452 l
1.0167 0.3450 l
1.0333 0.3448 l
1.0500 0.3344 l
1.0667 0.3190 l
1.0833 0.3248 l
1.1000 0.3356 l
1.1167 0.3620 l
1.1333 0.3460 l
1.1500 0.3540 l
s
n
0.1500 0.3588 0.0049 0.0049 0 360 EARC c
fill
[] 0 SD
0.0015 SLW
n 0.1500 0.3588 0.0049 0.0049 0 360 EARC s
n
0.1667 0.3408 0.0049 0.0049 0 360 EARC c
fill
n 0.1667 0.3408 0.0049 0.0049 0 360 EARC s
n
0.1833 0.3626 0.0049 0.0049 0 360 EARC c
fill
n 0.1833 0.3626 0.0049 0.0049 0 360 EARC s
n
0.2000 0.3570 0.0049 0.0049 0 360 EARC c
fill
n 0.2000 0.3570 0.0049 0.0049 0 360 EARC s
n
0.2167 0.3436 0.0049 0.0049 0 360 EARC c
fill
n 0.2167 0.3436 0.0049 0.0049 0 360 EARC s
n
0.2333 0.3374 0.0049 0.0049 0 360 EARC c
fill
n 0.2333 0.3374 0.0049 0.0049 0 360 EARC s
n
0.2500 0.2456 0.0049 0.0049 0 360 EARC c
fill
n 0.2500 0.2456 0.0049 0.0049 0 360 EARC s
n
0.2667 0.3348 0.0049 0.0049 0 360 EARC c
fill
n 0.2667 0.3348 0.0049 0.0049 0 360 EARC s
n
0.2833 0.3720 0.0049 0.0049 0 360 EARC c
fill
n 0.2833 0.3720 0.0049 0.0049 0 360 EARC s
n
0.3000 0.3500 0.0049 0.0049 0 360 EARC c
fill
n 0.3000 0.3500 0.0049 0.0049 0 360 EARC s
n
0.3167 0.3344 0.0049 0.0049 0 360 EARC c
fill
n 0.3167 0.3344 0.0049 0.0049 0 360 EARC s
n
0.3333 0.3450 0.0049 0.0049 0 360 EARC c
fill
n 0.3333 0.3450 0.0049 0.0049 0 360 EARC s
n
0.3500 0.3002 0.0049 0.0049 0 360 EARC c
fill
n 0.3500 0.3002 0.0049 0.0049 0 360 EARC s
n
0.3667 0.3022 0.0049 0.0049 0 360 EARC c
fill
n 0.3667 0.3022 0.0049 0.0049 0 360 EARC s
n
0.3833 0.3210 0.0049 0.0049 0 360 EARC c
fill
n 0.3833 0.3210 0.0049 0.0049 0 360 EARC s
n
0.4000 0.3586 0.0049 0.0049 0 360 EARC c
fill
n 0.4000 0.3586 0.0049 0.0049 0 360 EARC s
n
0.4167 0.3500 0.0049 0.0049 0 360 EARC c
fill
n 0.4167 0.3500 0.0049 0.0049 0 360 EARC s
n
0.4333 0.3448 0.0049 0.0049 0 360 EARC c
fill
n 0.4333 0.3448 0.0049 0.0049 0 360 EARC s
n
0.4500 0.3500 0.0049 0.0049 0 360 EARC c
fill
n 0.4500 0.3500 0.0049 0.0049 0 360 EARC s
n
0.4667 0.3442 0.0049 0.0049 0 360 EARC c
fill
n 0.4667 0.3442 0.0049 0.0049 0 360 EARC s
n
0.4833 0.3732 0.0049 0.0049 0 360 EARC c
fill
n 0.4833 0.3732 0.0049 0.0049 0 360 EARC s
n
0.5000 0.3500 0.0049 0.0049 0 360 EARC c
fill
n 0.5000 0.3500 0.0049 0.0049 0 360 EARC s
n
0.5167 0.3272 0.0049 0.0049 0 360 EARC c
fill
n 0.5167 0.3272 0.0049 0.0049 0 360 EARC s
n
0.5333 0.3500 0.0049 0.0049 0 360 EARC c
fill
n 0.5333 0.3500 0.0049 0.0049 0 360 EARC s
n
0.5500 0.3704 0.0049 0.0049 0 360 EARC c
fill
n 0.5500 0.3704 0.0049 0.0049 0 360 EARC s
n
0.5667 0.3688 0.0049 0.0049 0 360 EARC c
fill
n 0.5667 0.3688 0.0049 0.0049 0 360 EARC s
n
0.5833 0.3406 0.0049 0.0049 0 360 EARC c
fill
n 0.5833 0.3406 0.0049 0.0049 0 360 EARC s
n
0.6000 0.3688 0.0049 0.0049 0 360 EARC c
fill
n 0.6000 0.3688 0.0049 0.0049 0 360 EARC s
n
0.6167 0.3316 0.0049 0.0049 0 360 EARC c
fill
n 0.6167 0.3316 0.0049 0.0049 0 360 EARC s
n
0.6333 0.3288 0.0049 0.0049 0 360 EARC c
fill
n 0.6333 0.3288 0.0049 0.0049 0 360 EARC s
n
0.6500 0.2748 0.0049 0.0049 0 360 EARC c
fill
n 0.6500 0.2748 0.0049 0.0049 0 360 EARC s
n
0.6667 0.3168 0.0049 0.0049 0 360 EARC c
fill
n 0.6667 0.3168 0.0049 0.0049 0 360 EARC s
n
0.6833 0.3302 0.0049 0.0049 0 360 EARC c
fill
n 0.6833 0.3302 0.0049 0.0049 0 360 EARC s
n
0.7000 0.3412 0.0049 0.0049 0 360 EARC c
fill
n 0.7000 0.3412 0.0049 0.0049 0 360 EARC s
n
0.7167 0.3406 0.0049 0.0049 0 360 EARC c
fill
n 0.7167 0.3406 0.0049 0.0049 0 360 EARC s
n
0.7333 0.3300 0.0049 0.0049 0 360 EARC c
fill
n 0.7333 0.3300 0.0049 0.0049 0 360 EARC s
n
0.7500 0.3346 0.0049 0.0049 0 360 EARC c
fill
n 0.7500 0.3346 0.0049 0.0049 0 360 EARC s
n
0.7667 0.3342 0.0049 0.0049 0 360 EARC c
fill
n 0.7667 0.3342 0.0049 0.0049 0 360 EARC s
n
0.7833 0.3604 0.0049 0.0049 0 360 EARC c
fill
n 0.7833 0.3604 0.0049 0.0049 0 360 EARC s
n
0.8000 0.3298 0.0049 0.0049 0 360 EARC c
fill
n 0.8000 0.3298 0.0049 0.0049 0 360 EARC s
n
0.8167 0.3692 0.0049 0.0049 0 360 EARC c
fill
n 0.8167 0.3692 0.0049 0.0049 0 360 EARC s
n
0.8333 0.3322 0.0049 0.0049 0 360 EARC c
fill
n 0.8333 0.3322 0.0049 0.0049 0 360 EARC s
n
0.8500 0.3458 0.0049 0.0049 0 360 EARC c
fill
n 0.8500 0.3458 0.0049 0.0049 0 360 EARC s
n
0.8667 0.3376 0.0049 0.0049 0 360 EARC c
fill
n 0.8667 0.3376 0.0049 0.0049 0 360 EARC s
n
0.8833 0.3376 0.0049 0.0049 0 360 EARC c
fill
n 0.8833 0.3376 0.0049 0.0049 0 360 EARC s
n
0.9000 0.3458 0.0049 0.0049 0 360 EARC c
fill
n 0.9000 0.3458 0.0049 0.0049 0 360 EARC s
n
0.9167 0.3270 0.0049 0.0049 0 360 EARC c
fill
n 0.9167 0.3270 0.0049 0.0049 0 360 EARC s
n
0.9333 0.2630 0.0049 0.0049 0 360 EARC c
fill
n 0.9333 0.2630 0.0049 0.0049 0 360 EARC s
n
0.9500 0.3184 0.0049 0.0049 0 360 EARC c
fill
n 0.9500 0.3184 0.0049 0.0049 0 360 EARC s
n
0.9667 0.3500 0.0049 0.0049 0 360 EARC c
fill
n 0.9667 0.3500 0.0049 0.0049 0 360 EARC s
n
0.9833 0.3590 0.0049 0.0049 0 360 EARC c
fill
n 0.9833 0.3590 0.0049 0.0049 0 360 EARC s
n
1.0000 0.3452 0.0049 0.0049 0 360 EARC c
fill
n 1.0000 0.3452 0.0049 0.0049 0 360 EARC s
n
1.0167 0.3450 0.0049 0.0049 0 360 EARC c
fill
n 1.0167 0.3450 0.0049 0.0049 0 360 EARC s
n
1.0333 0.3448 0.0049 0.0049 0 360 EARC c
fill
n 1.0333 0.3448 0.0049 0.0049 0 360 EARC s
n
1.0500 0.3344 0.0049 0.0049 0 360 EARC c
fill
n 1.0500 0.3344 0.0049 0.0049 0 360 EARC s
n
1.0667 0.3190 0.0049 0.0049 0 360 EARC c
fill
n 1.0667 0.3190 0.0049 0.0049 0 360 EARC s
n
1.0833 0.3248 0.0049 0.0049 0 360 EARC c
fill
n 1.0833 0.3248 0.0049 0.0049 0 360 EARC s
n
1.1000 0.3356 0.0049 0.0049 0 360 EARC c
fill
n 1.1000 0.3356 0.0049 0.0049 0 360 EARC s
n
1.1167 0.3620 0.0049 0.0049 0 360 EARC c
fill
n 1.1167 0.3620 0.0049 0.0049 0 360 EARC s
n
1.1333 0.3460 0.0049 0.0049 0 360 EARC c
fill
n 1.1333 0.3460 0.0049 0.0049 0 360 EARC s
n
1.1500 0.3540 0.0049 0.0049 0 360 EARC c
fill
n 1.1500 0.3540 0.0049 0.0049 0 360 EARC s
[/DeviceRGB] SCS
Color2 SC
[] 0 SD
0.0023 SLW
n
0.1500 0.3530 m
0.1667 0.3264 l
0.1833 0.3460 l
0.2000 0.3476 l
0.2167 0.3474 l
0.2333 0.2936 l
0.2500 0.2500 l
0.2667 0.3462 l
0.2833 0.3648 l
0.3000 0.3406 l
0.3167 0.3448 l
0.3333 0.3500 l
0.3500 0.3008 l
0.3667 0.2942 l
0.3833 0.3154 l
0.4000 0.3342 l
0.4167 0.3562 l
0.4333 0.3532 l
0.4500 0.3210 l
0.4667 0.3698 l
0.4833 0.3330 l
0.5000 0.3654 l
0.5167 0.3490 l
0.5333 0.3348 l
0.5500 0.3318 l
0.5667 0.3442 l
0.5833 0.3716 l
0.6000 0.3436 l
0.6167 0.3344 l
0.6333 0.3062 l
0.6500 0.2882 l
0.6667 0.3090 l
0.6833 0.3324 l
0.7000 0.3416 l
0.7167 0.3370 l
0.7333 0.3408 l
0.7500 0.3276 l
0.7667 0.3342 l
0.7833 0.3278 l
0.8000 0.3422 l
0.8167 0.3466 l
0.8333 0.3276 l
0.8500 0.3528 l
0.8667 0.3634 l
0.8833 0.3464 l
0.9000 0.3596 l
0.9167 0.3468 l
0.9333 0.2908 l
0.9500 0.3616 l
0.9667 0.3684 l
0.9833 0.3410 l
1.0000 0.3370 l
1.0167 0.3526 l
1.0333 0.3392 l
1.0500 0.3414 l
1.0667 0.3186 l
1.0833 0.3468 l
1.1000 0.3464 l
1.1167 0.3482 l
1.1333 0.3478 l
1.1500 0.3410 l
s
n
0.1458 0.3488 m
0.1458 0.3572 l
0.1542 0.3572 l
0.1542 0.3488 l
c
fill
[] 0 SD
0.0015 SLW
n
0.1458 0.3488 m
0.1458 0.3572 l
0.1542 0.3572 l
0.1542 0.3488 l
0.1458 0.3488 l
c
s
n
0.1625 0.3222 m
0.1625 0.3306 l
0.1708 0.3306 l
0.1708 0.3222 l
c
fill
n
0.1625 0.3222 m
0.1625 0.3306 l
0.1708 0.3306 l
0.1708 0.3222 l
0.1625 0.3222 l
c
s
n
0.1792 0.3418 m
0.1792 0.3502 l
0.1875 0.3502 l
0.1875 0.3418 l
c
fill
n
0.1792 0.3418 m
0.1792 0.3502 l
0.1875 0.3502 l
0.1875 0.3418 l
0.1792 0.3418 l
c
s
n
0.1958 0.3434 m
0.1958 0.3518 l
0.2042 0.3518 l
0.2042 0.3434 l
c
fill
n
0.1958 0.3434 m
0.1958 0.3518 l
0.2042 0.3518 l
0.2042 0.3434 l
0.1958 0.3434 l
c
s
n
0.2125 0.3432 m
0.2125 0.3516 l
0.2208 0.3516 l
0.2208 0.3432 l
c
fill
n
0.2125 0.3432 m
0.2125 0.3516 l
0.2208 0.3516 l
0.2208 0.3432 l
0.2125 0.3432 l
c
s
n
0.2292 0.2894 m
0.2292 0.2978 l
0.2375 0.2978 l
0.2375 0.2894 l
c
fill
n
0.2292 0.2894 m
0.2292 0.2978 l
0.2375 0.2978 l
0.2375 0.2894 l
0.2292 0.2894 l
c
s
n
0.2458 0.2458 m
0.2458 0.2542 l
0.2542 0.2542 l
0.2542 0.2458 l
c
fill
n
0.2458 0.2458 m
0.2458 0.2542 l
0.2542 0.2542 l
0.2542 0.2458 l
0.2458 0.2458 l
c
s
n
0.2625 0.3420 m
0.2625 0.3504 l
0.2708 0.3504 l
0.2708 0.3420 l
c
fill
n
0.2625 0.3420 m
0.2625 0.3504 l
0.2708 0.3504 l
0.2708 0.3420 l
0.2625 0.3420 l
c
s
n
0.2792 0.3606 m
0.2792 0.3690 l
0.2875 0.3690 l
0.2875 0.3606 l
c
fill
n
0.2792 0.3606 m
0.2792 0.3690 l
0.2875 0.3690 l
0.2875 0.3606 l
0.2792 0.3606 l
c
s
n
0.2958 0.3364 m
0.2958 0.3448 l
0.3042 0.3448 l
0.3042 0.3364 l
c
fill
n
0.2958 0.3364 m
0.2958 0.3448 l
0.3042 0.3448 l
0.3042 0.3364 l
0.2958 0.3364 l
c
s
n
0.3125 0.3406 m
0.3125 0.3490 l
0.3208 0.3490 l
0.3208 0.3406 l
c
fill
n
0.3125 0.3406 m
0.3125 0.3490 l
0.3208 0.3490 l
0.3208 0.3406 l
0.3125 0.3406 l
c
s
n
0.3292 0.3458 m
0.3292 0.3542 l
0.3375 0.3542 l
0.3375 0.3458 l
c
fill
n
0.3292 0.3458 m
0.3292 0.3542 l
0.3375 0.3542 l
0.3375 0.3458 l
0.3292 0.3458 l
c
s
n
0.3458 0.2966 m
0.3458 0.3050 l
0.3542 0.3050 l
0.3542 0.2966 l
c
fill
n
0.3458 0.2966 m
0.3458 0.3050 l
0.3542 0.3050 l
0.3542 0.2966 l
0.3458 0.2966 l
c
s
n
0.3625 0.2900 m
0.3625 0.2984 l
0.3708 0.2984 l
0.3708 0.2900 l
c
fill
n
0.3625 0.2900 m
0.3625 0.2984 l
0.3708 0.2984 l
0.3708 0.2900 l
0.3625 0.2900 l
c
s
n
0.3792 0.3112 m
0.3792 0.3196 l
0.3875 0.3196 l
0.3875 0.3112 l
c
fill
n
0.3792 0.3112 m
0.3792 0.3196 l
0.3875 0.3196 l
0.3875 0.3112 l
0.3792 0.3112 l
c
s
n
0.3958 0.3300 m
0.3958 0.3384 l
0.4042 0.3384 l
0.4042 0.3300 l
c
fill
n
0.3958 0.3300 m
0.3958 0.3384 l
0.4042 0.3384 l
0.4042 0.3300 l
0.3958 0.3300 l
c
s
n
0.4125 0.3520 m
0.4125 0.3604 l
0.4208 0.3604 l
0.4208 0.3520 l
c
fill
n
0.4125 0.3520 m
0.4125 0.3604 l
0.4208 0.3604 l
0.4208 0.3520 l
0.4125 0.3520 l
c
s
n
0.4292 0.3490 m
0.4292 0.3574 l
0.4375 0.3574 l
0.4375 0.3490 l
c
fill
n
0.4292 0.3490 m
0.4292 0.3574 l
0.4375 0.3574 l
0.4375 0.3490 l
0.4292 0.3490 l
c
s
n
0.4458 0.3168 m
0.4458 0.3252 l
0.4542 0.3252 l
0.4542 0.3168 l
c
fill
n
0.4458 0.3168 m
0.4458 0.3252 l
0.4542 0.3252 l
0.4542 0.3168 l
0.4458 0.3168 l
c
s
n
0.4625 0.3656 m
0.4625 0.3740 l
0.4708 0.3740 l
0.4708 0.3656 l
c
fill
n
0.4625 0.3656 m
0.4625 0.3740 l
0.4708 0.3740 l
0.4708 0.3656 l
0.4625 0.3656 l
c
s
n
0.4792 0.3288 m
0.4792 0.3372 l
0.4875 0.3372 l
0.4875 0.3288 l
c
fill
n
0.4792 0.3288 m
0.4792 0.3372 l
0.4875 0.3372 l
0.4875 0.3288 l
0.4792 0.3288 l
c
s
n
0.4958 0.3612 m
0.4958 0.3696 l
0.5042 0.3696 l
0.5042 0.3612 l
c
fill
n
0.4958 0.3612 m
0.4958 0.3696 l
0.5042 0.3696 l
0.5042 0.3612 l
0.4958 0.3612 l
c
s
n
0.5125 0.3448 m
0.5125 0.3532 l
0.5208 0.3532 l
0.5208 0.3448 l
c
fill
n
0.5125 0.3448 m
0.5125 0.3532 l
0.5208 0.3532 l
0.5208 0.3448 l
0.5125 0.3448 l
c
s
n
0.5292 0.3306 m
0.5292 0.3390 l
0.5375 0.3390 l
0.5375 0.3306 l
c
fill
n
0.5292 0.3306 m
0.5292 0.3390 l
0.5375 0.3390 l
0.5375 0.3306 l
0.5292 0.3306 l
c
s
n
0.5458 0.3276 m
0.5458 0.3360 l
0.5542 0.3360 l
0.5542 0.3276 l
c
fill
n
0.5458 0.3276 m
0.5458 0.3360 l
0.5542 0.3360 l
0.5542 0.3276 l
0.5458 0.3276 l
c
s
n
0.5625 0.3400 m
0.5625 0.3484 l
0.5708 0.3484 l
0.5708 0.3400 l
c
fill
n
0.5625 0.3400 m
0.5625 0.3484 l
0.5708 0.3484 l
0.5708 0.3400 l
0.5625 0.3400 l
c
s
n
0.5792 0.3674 m
0.5792 0.3758 l
0.5875 0.3758 l
0.5875 0.3674 l
c
fill
n
0.5792 0.3674 m
0.5792 0.3758 l
0.5875 0.3758 l
0.5875 0.3674 l
0.5792 0.3674 l
c
s
n
0.5958 0.3394 m
0.5958 0.3478 l
0.6042 0.3478 l
0.6042 0.3394 l
c
fill
n
0.5958 0.3394 m
0.5958 0.3478 l
0.6042 0.3478 l
0.6042 0.3394 l
0.5958 0.3394 l
c
s
n
0.6125 0.3302 m
0.6125 0.3386 l
0.6208 0.3386 l
0.6208 0.3302 l
c
fill
n
0.6125 0.3302 m
0.6125 0.3386 l
0.6208 0.3386 l
0.6208 0.3302 l
0.6125 0.3302 l
c
s
n
0.6292 0.3020 m
0.6292 0.3104 l
0.6375 0.3104 l
0.6375 0.3020 l
c
fill
n
0.6292 0.3020 m
0.6292 0.3104 l
0.6375 0.3104 l
0.6375 0.3020 l
0.6292 0.3020 l
c
s
n
0.6458 0.2840 m
0.6458 0.2924 l
0.6542 0.2924 l
0.6542 0.2840 l
c
fill
n
0.6458 0.2840 m
0.6458 0.2924 l
0.6542 0.2924 l
0.6542 0.2840 l
0.6458 0.2840 l
c
s
n
0.6625 0.3048 m
0.6625 0.3132 l
0.6708 0.3132 l
0.6708 0.3048 l
c
fill
n
0.6625 0.3048 m
0.6625 0.3132 l
0.6708 0.3132 l
0.6708 0.3048 l
0.6625 0.3048 l
c
s
n
0.6792 0.3282 m
0.6792 0.3366 l
0.6875 0.3366 l
0.6875 0.3282 l
c
fill
n
0.6792 0.3282 m
0.6792 0.3366 l
0.6875 0.3366 l
0.6875 0.3282 l
0.6792 0.3282 l
c
s
n
0.6958 0.3374 m
0.6958 0.3458 l
0.7042 0.3458 l
0.7042 0.3374 l
c
fill
n
0.6958 0.3374 m
0.6958 0.3458 l
0.7042 0.3458 l
0.7042 0.3374 l
0.6958 0.3374 l
c
s
n
0.7125 0.3328 m
0.7125 0.3412 l
0.7208 0.3412 l
0.7208 0.3328 l
c
fill
n
0.7125 0.3328 m
0.7125 0.3412 l
0.7208 0.3412 l
0.7208 0.3328 l
0.7125 0.3328 l
c
s
n
0.7292 0.3366 m
0.7292 0.3450 l
0.7375 0.3450 l
0.7375 0.3366 l
c
fill
n
0.7292 0.3366 m
0.7292 0.3450 l
0.7375 0.3450 l
0.7375 0.3366 l
0.7292 0.3366 l
c
s
n
0.7458 0.3234 m
0.7458 0.3318 l
0.7542 0.3318 l
0.7542 0.3234 l
c
fill
n
0.7458 0.3234 m
0.7458 0.3318 l
0.7542 0.3318 l
0.7542 0.3234 l
0.7458 0.3234 l
c
s
n
0.7625 0.3300 m
0.7625 0.3384 l
0.7708 0.3384 l
0.7708 0.3300 l
c
fill
n
0.7625 0.3300 m
0.7625 0.3384 l
0.7708 0.3384 l
0.7708 0.3300 l
0.7625 0.3300 l
c
s
n
0.7792 0.3236 m
0.7792 0.3320 l
0.7875 0.3320 l
0.7875 0.3236 l
c
fill
n
0.7792 0.3236 m
0.7792 0.3320 l
0.7875 0.3320 l
0.7875 0.3236 l
0.7792 0.3236 l
c
s
n
0.7958 0.3380 m
0.7958 0.3464 l
0.8042 0.3464 l
0.8042 0.3380 l
c
fill
n
0.7958 0.3380 m
0.7958 0.3464 l
0.8042 0.3464 l
0.8042 0.3380 l
0.7958 0.3380 l
c
s
n
0.8125 0.3424 m
0.8125 0.3508 l
0.8208 0.3508 l
0.8208 0.3424 l
c
fill
n
0.8125 0.3424 m
0.8125 0.3508 l
0.8208 0.3508 l
0.8208 0.3424 l
0.8125 0.3424 l
c
s
n
0.8292 0.3234 m
0.8292 0.3318 l
0.8375 0.3318 l
0.8375 0.3234 l
c
fill
n
0.8292 0.3234 m
0.8292 0.3318 l
0.8375 0.3318 l
0.8375 0.3234 l
0.8292 0.3234 l
c
s
n
0.8458 0.3486 m
0.8458 0.3570 l
0.8542 0.3570 l
0.8542 0.3486 l
c
fill
n
0.8458 0.3486 m
0.8458 0.3570 l
0.8542 0.3570 l
0.8542 0.3486 l
0.8458 0.3486 l
c
s
n
0.8625 0.3592 m
0.8625 0.3676 l
0.8708 0.3676 l
0.8708 0.3592 l
c
fill
n
0.8625 0.3592 m
0.8625 0.3676 l
0.8708 0.3676 l
0.8708 0.3592 l
0.8625 0.3592 l
c
s
n
0.8792 0.3422 m
0.8792 0.3506 l
0.8875 0.3506 l
0.8875 0.3422 l
c
fill
n
0.8792 0.3422 m
0.8792 0.3506 l
0.8875 0.3506 l
0.8875 0.3422 l
0.8792 0.3422 l
c
s
n
0.8958 0.3554 m
0.8958 0.3638 l
0.9042 0.3638 l
0.9042 0.3554 l
c
fill
n
0.8958 0.3554 m
0.8958 0.3638 l
0.9042 0.3638 l
0.9042 0.3554 l
0.8958 0.3554 l
c
s
n
0.9125 0.3426 m
0.9125 0.3510 l
0.9208 0.3510 l
0.9208 0.3426 l
c
fill
n
0.9125 0.3426 m
0.9125 0.3510 l
0.9208 0.3510 l
0.9208 0.3426 l
0.9125 0.3426 l
c
s
n
0.9292 0.2866 m
0.9292 0.2950 l
0.9375 0.2950 l
0.9375 0.2866 l
c
fill
n
0.9292 0.2866 m
0.9292 0.2950 l
0.9375 0.2950 l
0.9375 0.2866 l
0.9292 0.2866 l
c
s
n
0.9458 0.3574 m
0.9458 0.3658 l
0.9542 0.3658 l
0.9542 0.3574 l
c
fill
n
0.9458 0.3574 m
0.9458 0.3658 l
0.9542 0.3658 l
0.9542 0.3574 l
0.9458 0.3574 l
c
s
n
0.9625 0.3642 m
0.9625 0.3726 l
0.9708 0.3726 l
0.9708 0.3642 l
c
fill
n
0.9625 0.3642 m
0.9625 0.3726 l
0.9708 0.3726 l
0.9708 0.3642 l
0.9625 0.3642 l
c
s
n
0.9792 0.3368 m
0.9792 0.3452 l
0.9875 0.3452 l
0.9875 0.3368 l
c
fill
n
0.9792 0.3368 m
0.9792 0.3452 l
0.9875 0.3452 l
0.9875 0.3368 l
0.9792 0.3368 l
c
s
n
0.9958 0.3328 m
0.9958 0.3412 l
1.0042 0.3412 l
1.0042 0.3328 l
c
fill
n
0.9958 0.3328 m
0.9958 0.3412 l
1.0042 0.3412 l
1.0042 0.3328 l
0.9958 0.3328 l
c
s
n
1.0125 0.3484 m
1.0125 0.3568 l
1.0208 0.3568 l
1.0208 0.3484 l
c
fill
n
1.0125 0.3484 m
1.0125 0.3568 l
1.0208 0.3568 l
1.0208 0.3484 l
1.0125 0.3484 l
c
s
n
1.0292 0.3350 m
1.0292 0.3434 l
1.0375 0.3434 l
1.0375 0.3350 l
c
fill
n
1.0292 0.3350 m
1.0292 0.3434 l
1.0375 0.3434 l
1.0375 0.3350 l
1.0292 0.3350 l
c
s
n
1.0458 0.3372 m
1.0458 0.3456 l
1.0542 0.3456 l
1.0542 0.3372 l
c
fill
n
1.0458 0.3372 m
1.0458 0.3456 l
1.0542 0.3456 l
1.0542 0.3372 l
1.0458 0.3372 l
c
s
n
1.0625 0.3144 m
1.0625 0.3228 l
1.0708 0.3228 l
1.0708 0.3144 l
c
fill
n
1.0625 0.3144 m
1.0625 0.3228 l
1.0708 0.3228 l
1.0708 0.3144 l
1.0625 0.3144 l
c
s
n
1.0792 0.3426 m
1.0792 0.3510 l
1.0875 0.3510 l
1.0875 0.3426 l
c
fill
n
1.0792 0.3426 m
1.0792 0.3510 l
1.0875 0.3510 l
1.0875 0.3426 l
1.0792 0.3426 l
c
s
n
1.0958 0.3422 m
1.0958 0.3506 l
1.1042 0.3506 l
1.1042 0.3422 l
c
fill
n
1.0958 0.3422 m
1.0958 0.3506 l
1.1042 0.3506 l
1.1042 0.3422 l
1.0958 0.3422 l
c
s
n
1.1125 0.3440 m
1.1125 0.3524 l
1.1208 0.3524 l
1.1208 0.3440 l
c
fill
n
1.1125 0.3440 m
1.1125 0.3524 l
1.1208 0.3524 l
1.1208 0.3440 l
1.1125 0.3440 l
c
s
n
1.1292 0.3436 m
1.1292 0.3520 l
1.1375 0.3520 l
1.1375 0.3436 l
c
fill
n
1.1292 0.3436 m
1.1292 0.3520 l
1.1375 0.3520 l
1.1375 0.3436 l
1.1292 0.3436 l
c
s
n
1.1458 0.3368 m
1.1458 0.3452 l
1.1542 0.3452 l
1.1542 0.3368 l
c
fill
n
1.1458 0.3368 m
1.1458 0.3452 l
1.1542 0.3452 l
1.1542 0.3368 l
1.1458 0.3368 l
c
s
[/DeviceRGB] SCS
Color1 SC
n
0.1500 0.1500 m
1.1500 0.1500 l
s
n
0.1500 0.1500 m
0.1500 0.1634 l
s
n
0.1667 0.1500 m
0.1667 0.1634 l
s
n
0.1833 0.1500 m
0.1833 0.1634 l
s
n
0.2000 0.1500 m
0.2000 0.1634 l
s
n
0.2167 0.1500 m
0.2167 0.1634 l
s
n
0.2333 0.1500 m
0.2333 0.1634 l
s
n
0.2500 0.1500 m
0.2500 0.1634 l
s
n
0.2667 0.1500 m
0.2667 0.1634 l
s
n
0.2833 0.1500 m
0.2833 0.1634 l
s
n
0.3000 0.1500 m
0.3000 0.1634 l
s
n
0.3167 0.1500 m
0.3167 0.1634 l
s
n
0.3333 0.1500 m
0.3333 0.1634 l
s
n
0.3500 0.1500 m
0.3500 0.1634 l
s
n
0.3667 0.1500 m
0.3667 0.1634 l
s
n
0.3833 0.1500 m
0.3833 0.1634 l
s
n
0.4000 0.1500 m
0.4000 0.1634 l
s
n
0.4167 0.1500 m
0.4167 0.1634 l
s
n
0.4333 0.1500 m
0.4333 0.1634 l
s
n
0.4500 0.1500 m
0.4500 0.1634 l
s
n
0.4667 0.1500 m
0.4667 0.1634 l
s
n
0.4833 0.1500 m
0.4833 0.1634 l
s
n
0.5000 0.1500 m
0.5000 0.1634 l
s
n
0.5167 0.1500 m
0.5167 0.1634 l
s
n
0.5333 0.1500 m
0.5333 0.1634 l
s
n
0.5500 0.1500 m
0.5500 0.1634 l
s
n
0.5667 0.1500 m
0.5667 0.1634 l
s
n
0.5833 0.1500 m
0.5833 0.1634 l
s
n
0.6000 0.1500 m
0.6000 0.1634 l
s
n
0.6167 0.1500 m
0.6167 0.1634 l
s
n
0.6333 0.1500 m
0.6333 0.1634 l
s
n
0.6500 0.1500 m
0.6500 0.1634 l
s
n
0.6667 0.1500 m
0.6667 0.1634 l
s
n
0.6833 0.1500 m
0.6833 0.1634 l
s
n
0.7000 0.1500 m
0.7000 0.1634 l
s
n
0.7167 0.1500 m
0.7167 0.1634 l
s
n
0.7333 0.1500 m
0.7333 0.1634 l
s
n
0.7500 0.1500 m
0.7500 0.1634 l
s
n
0.7667 0.1500 m
0.7667 0.1634 l
s
n
0.7833 0.1500 m
0.7833 0.1634 l
s
n
0.8000 0.1500 m
0.8000 0.1634 l
s
n
0.8167 0.1500 m
0.8167 0.1634 l
s
n
0.8333 0.1500 m
0.8333 0.1634 l
s
n
0.8500 0.1500 m
0.8500 0.1634 l
s
n
0.8667 0.1500 m
0.8667 0.1634 l
s
n
0.8833 0.1500 m
0.8833 0.1634 l
s
n
0.9000 0.1500 m
0.9000 0.1634 l
s
n
0.9167 0.1500 m
0.9167 0.1634 l
s
n
0.9333 0.1500 m
0.9333 0.1634 l
s
n
0.9500 0.1500 m
0.9500 0.1634 l
s
n
0.9667 0.1500 m
0.9667 0.1634 l
s
n
0.9833 0.1500 m
0.9833 0.1634 l
s
n
1.0000 0.1500 m
1.0000 0.1634 l
s
n
1.0167 0.1500 m
1.0167 0.1634 l
s
n
1.0333 0.1500 m
1.0333 0.1634 l
s
n
1.0500 0.1500 m
1.0500 0.1634 l
s
n
1.0667 0.1500 m
1.0667 0.1634 l
s
n
1.0833 0.1500 m
1.0833 0.1634 l
s
n
1.1000 0.1500 m
1.1000 0.1634 l
s
n
1.1167 0.1500 m
1.1167 0.1634 l
s
n
1.1333 0.1500 m
1.1333 0.1634 l
s
n
1.1500 0.1500 m
1.1500 0.1634 l
s
n
0.1500 0.1500 m
0.1500 0.1634 l
s
/Times-Roman findfont
dup length dict begin
 {1 index /FID ne {def} {pop pop} ifelse} forall
 /Encoding DefEncoding def
 currentdict
end
/Font0 exch definefont pop
/Font0 FFSF
0.1439 0.1286 m
GS
[0.0174 0.0000 0.0000 0.0174 0 0] CC
(H) show
GR
/Font0 FFSF
0.1592 0.1058 m
GS
[0.0174 0.0000 0.0000 0.0174 0 0] CC
(Li) show
GR
/Font0 FFSF
0.1737 0.1286 m
GS
[0.0174 0.0000 0.0000 0.0174 0 0] CC
(Be) show
GR
/Font0 FFSF
0.1949 0.1062 m
GS
[0.0174 0.0000 0.0000 0.0174 0 0] CC
(B) show
GR
/Font0 FFSF
0.2112 0.1282 m
GS
[0.0174 0.0000 0.0000 0.0174 0 0] CC
(C) show
GR
/Font0 FFSF
0.2275 0.1058 m
GS
[0.0174 0.0000 0.0000 0.0174 0 0] CC
(O) show
GR
/Font0 FFSF
0.2453 0.1286 m
GS
[0.0174 0.0000 0.0000 0.0174 0 0] CC
(F) show
GR
/Font0 FFSF
0.2565 0.1062 m
GS
[0.0174 0.0000 0.0000 0.0174 0 0] CC
(Na) show
GR
/Font0 FFSF
0.2716 0.1286 m
GS
[0.0174 0.0000 0.0000 0.0174 0 0] CC
(Mg) show
GR
/Font0 FFSF
0.2916 0.1058 m
GS
[0.0174 0.0000 0.0000 0.0174 0 0] CC
(Al) show
GR
/Font0 FFSF
0.3096 0.1282 m
GS
[0.0174 0.0000 0.0000 0.0174 0 0] CC
(Si) show
GR
/Font0 FFSF
0.3290 0.1058 m
GS
[0.0174 0.0000 0.0000 0.0174 0 0] CC
(S) show
GR
/Font0 FFSF
0.3420 0.1282 m
GS
[0.0174 0.0000 0.0000 0.0174 0 0] CC
(Cl) show
GR
/Font0 FFSF
0.3604 0.1062 m
GS
[0.0174 0.0000 0.0000 0.0174 0 0] CC
(K) show
GR
/Font0 FFSF
0.3735 0.1282 m
GS
[0.0174 0.0000 0.0000 0.0174 0 0] CC
(Ca) show
GR
/Font0 FFSF
0.3916 0.1058 m
GS
[0.0174 0.0000 0.0000 0.0174 0 0] CC
(Sc) show
GR
/Font0 FFSF
0.4092 0.1282 m
GS
[0.0174 0.0000 0.0000 0.0174 0 0] CC
(Ti) show
GR
/Font0 FFSF
0.4273 0.1062 m
GS
[0.0174 0.0000 0.0000 0.0174 0 0] CC
(V) show
GR
/Font0 FFSF
0.4412 0.1282 m
GS
[0.0174 0.0000 0.0000 0.0174 0 0] CC
(Cr) show
GR
/Font0 FFSF
0.4549 0.1062 m
GS
[0.0174 0.0000 0.0000 0.0174 0 0] CC
(Mn) show
GR
/Font0 FFSF
0.4747 0.1286 m
GS
[0.0174 0.0000 0.0000 0.0174 0 0] CC
(Fe) show
GR
/Font0 FFSF
0.4900 0.1058 m
GS
[0.0174 0.0000 0.0000 0.0174 0 0] CC
(Co) show
GR
/Font0 FFSF
0.5082 0.1282 m
GS
[0.0174 0.0000 0.0000 0.0174 0 0] CC
(Ni) show
GR
/Font0 FFSF
0.5233 0.1058 m
GS
[0.0174 0.0000 0.0000 0.0174 0 0] CC
(Cu) show
GR
/Font0 FFSF
0.5406 0.1286 m
GS
[0.0174 0.0000 0.0000 0.0174 0 0] CC
(Zn) show
GR
/Font0 FFSF
0.5565 0.1058 m
GS
[0.0174 0.0000 0.0000 0.0174 0 0] CC
(Ga) show
GR
/Font0 FFSF
0.5733 0.1282 m
GS
[0.0174 0.0000 0.0000 0.0174 0 0] CC
(Ge) show
GR
/Font0 FFSF
0.5908 0.1058 m
GS
[0.0174 0.0000 0.0000 0.0174 0 0] CC
(As) show
GR
/Font0 FFSF
0.6080 0.1282 m
GS
[0.0174 0.0000 0.0000 0.0174 0 0] CC
(Se) show
GR
/Font0 FFSF
0.6245 0.1062 m
GS
[0.0174 0.0000 0.0000 0.0174 0 0] CC
(Br) show
GR
/Font0 FFSF
0.6400 0.1282 m
GS
[0.0174 0.0000 0.0000 0.0174 0 0] CC
(Rb) show
GR
/Font0 FFSF
0.6588 0.1058 m
GS
[0.0174 0.0000 0.0000 0.0174 0 0] CC
(Sr) show
GR
/Font0 FFSF
0.6773 0.1286 m
GS
[0.0174 0.0000 0.0000 0.0174 0 0] CC
(Y) show
GR
/Font0 FFSF
0.6918 0.1062 m
GS
[0.0174 0.0000 0.0000 0.0174 0 0] CC
(Zr) show
GR
/Font0 FFSF
0.7063 0.1282 m
GS
[0.0174 0.0000 0.0000 0.0174 0 0] CC
(Nb) show
GR
/Font0 FFSF
0.7216 0.1062 m
GS
[0.0174 0.0000 0.0000 0.0174 0 0] CC
(Mo) show
GR
/Font0 FFSF
0.7412 0.1286 m
GS
[0.0174 0.0000 0.0000 0.0174 0 0] CC
(Tc) show
GR
/Font0 FFSF
0.7567 0.1062 m
GS
[0.0174 0.0000 0.0000 0.0174 0 0] CC
(Ru) show
GR
/Font0 FFSF
0.7731 0.1282 m
GS
[0.0174 0.0000 0.0000 0.0174 0 0] CC
(Rh) show
GR
/Font0 FFSF
0.7908 0.1058 m
GS
[0.0174 0.0000 0.0000 0.0174 0 0] CC
(Pd) show
GR
/Font0 FFSF
0.8063 0.1282 m
GS
[0.0174 0.0000 0.0000 0.0174 0 0] CC
(Ag) show
GR
/Font0 FFSF
0.8231 0.1058 m
GS
[0.0174 0.0000 0.0000 0.0174 0 0] CC
(Cd) show
GR
/Font0 FFSF
0.8429 0.1286 m
GS
[0.0174 0.0000 0.0000 0.0174 0 0] CC
(In) show
GR
/Font0 FFSF
0.8576 0.1058 m
GS
[0.0174 0.0000 0.0000 0.0174 0 0] CC
(Sn) show
GR
/Font0 FFSF
0.8743 0.1282 m
GS
[0.0174 0.0000 0.0000 0.0174 0 0] CC
(Sb) show
GR
/Font0 FFSF
0.8910 0.1062 m
GS
[0.0174 0.0000 0.0000 0.0174 0 0] CC
(Te) show
GR
/Font0 FFSF
0.9139 0.1286 m
GS
[0.0174 0.0000 0.0000 0.0174 0 0] CC
(I) show
GR
/Font0 FFSF
0.9245 0.1058 m
GS
[0.0174 0.0000 0.0000 0.0174 0 0] CC
(Cs) show
GR
/Font0 FFSF
0.9402 0.1286 m
GS
[0.0174 0.0000 0.0000 0.0174 0 0] CC
(Ba) show
GR
/Font0 FFSF
0.9575 0.1062 m
GS
[0.0174 0.0000 0.0000 0.0174 0 0] CC
(La) show
GR
/Font0 FFSF
0.9737 0.1282 m
GS
[0.0174 0.0000 0.0000 0.0174 0 0] CC
(Hf) show
GR
/Font0 FFSF
0.9908 0.1062 m
GS
[0.0174 0.0000 0.0000 0.0174 0 0] CC
(Ta) show
GR
/Font0 FFSF
1.0086 0.1286 m
GS
[0.0174 0.0000 0.0000 0.0174 0 0] CC
(W) show
GR
/Font0 FFSF
1.0237 0.1062 m
GS
[0.0174 0.0000 0.0000 0.0174 0 0] CC
(Re) show
GR
/Font0 FFSF
1.0408 0.1282 m
GS
[0.0174 0.0000 0.0000 0.0174 0 0] CC
(Os) show
GR
/Font0 FFSF
1.0608 0.1062 m
GS
[0.0174 0.0000 0.0000 0.0174 0 0] CC
(Ir) show
GR
/Font0 FFSF
1.0761 0.1286 m
GS
[0.0174 0.0000 0.0000 0.0174 0 0] CC
(Pt) show
GR
/Font0 FFSF
1.0896 0.1058 m
GS
[0.0174 0.0000 0.0000 0.0174 0 0] CC
(Au) show
GR
/Font0 FFSF
1.1092 0.1282 m
GS
[0.0174 0.0000 0.0000 0.0174 0 0] CC
(Tl) show
GR
/Font0 FFSF
1.1243 0.1058 m
GS
[0.0174 0.0000 0.0000 0.0174 0 0] CC
(Pb) show
GR
/Font0 FFSF
1.1420 0.1282 m
GS
[0.0174 0.0000 0.0000 0.0174 0 0] CC
(Bi) show
GR
n
0.1500 0.1500 m
0.1500 0.5500 l
s
n
1.1500 0.1500 m
1.1500 0.5500 l
s
n
0.1500 0.1700 m
0.1600 0.1700 l
s
n
1.1500 0.1700 m
1.1400 0.1700 l
s
n
0.1500 0.2100 m
0.1600 0.2100 l
s
n
1.1500 0.2100 m
1.1400 0.2100 l
s
n
0.1500 0.2500 m
0.1600 0.2500 l
s
n
1.1500 0.2500 m
1.1400 0.2500 l
s
n
0.1500 0.2900 m
0.1600 0.2900 l
s
n
1.1500 0.2900 m
1.1400 0.2900 l
s
n
0.1500 0.3300 m
0.1600 0.3300 l
s
n
1.1500 0.3300 m
1.1400 0.3300 l
s
n
0.1500 0.3700 m
0.1600 0.3700 l
s
n
1.1500 0.3700 m
1.1400 0.3700 l
s
n
0.1500 0.4100 m
0.1600 0.4100 l
s
n
1.1500 0.4100 m
1.1400 0.4100 l
s
n
0.1500 0.4500 m
0.1600 0.4500 l
s
n
1.1500 0.4500 m
1.1400 0.4500 l
s
n
0.1500 0.4900 m
0.1600 0.4900 l
s
n
1.1500 0.4900 m
1.1400 0.4900 l
s
n
0.1500 0.5300 m
0.1600 0.5300 l
s
n
1.1500 0.5300 m
1.1400 0.5300 l
s
n
0.1500 0.1500 m
0.1700 0.1500 l
s
n
1.1500 0.1500 m
1.1300 0.1500 l
s
n
0.1500 0.1900 m
0.1700 0.1900 l
s
n
1.1500 0.1900 m
1.1300 0.1900 l
s
n
0.1500 0.2300 m
0.1700 0.2300 l
s
n
1.1500 0.2300 m
1.1300 0.2300 l
s
n
0.1500 0.2700 m
0.1700 0.2700 l
s
n
1.1500 0.2700 m
1.1300 0.2700 l
s
n
0.1500 0.3100 m
0.1700 0.3100 l
s
n
1.1500 0.3100 m
1.1300 0.3100 l
s
n
0.1500 0.3500 m
0.1700 0.3500 l
s
n
1.1500 0.3500 m
1.1300 0.3500 l
s
n
0.1500 0.3900 m
0.1700 0.3900 l
s
n
1.1500 0.3900 m
1.1300 0.3900 l
s
n
0.1500 0.4300 m
0.1700 0.4300 l
s
n
1.1500 0.4300 m
1.1300 0.4300 l
s
n
0.1500 0.4700 m
0.1700 0.4700 l
s
n
1.1500 0.4700 m
1.1300 0.4700 l
s
n
0.1500 0.5100 m
0.1700 0.5100 l
s
n
1.1500 0.5100 m
1.1300 0.5100 l
s
n
0.1500 0.5500 m
0.1700 0.5500 l
s
n
1.1500 0.5500 m
1.1300 0.5500 l
s
/Font0 FFSF
0.1196 0.1406 m
GS
[0.0280 0.0000 0.0000 0.0280 0 0] CC
(-1) show
GR
/Font0 FFSF
0.0973 0.1808 m
GS
[0.0280 0.0000 0.0000 0.0280 0 0] CC
(-0.8) show
GR
/Font0 FFSF
0.0969 0.2206 m
GS
[0.0280 0.0000 0.0000 0.0280 0 0] CC
(-0.6) show
GR
/Font0 FFSF
0.0965 0.2608 m
GS
[0.0280 0.0000 0.0000 0.0280 0 0] CC
(-0.4) show
GR
/Font0 FFSF
0.0965 0.3008 m
GS
[0.0280 0.0000 0.0000 0.0280 0 0] CC
(-0.2) show
GR
/Font0 FFSF
0.1267 0.3408 m
GS
[0.0280 0.0000 0.0000 0.0280 0 0] CC
(0) show
GR
/Font0 FFSF
0.1055 0.3808 m
GS
[0.0280 0.0000 0.0000 0.0280 0 0] CC
(0.2) show
GR
/Font0 FFSF
0.1055 0.4208 m
GS
[0.0280 0.0000 0.0000 0.0280 0 0] CC
(0.4) show
GR
/Font0 FFSF
0.1059 0.4606 m
GS
[0.0280 0.0000 0.0000 0.0280 0 0] CC
(0.6) show
GR
/Font0 FFSF
0.1063 0.5008 m
GS
[0.0280 0.0000 0.0000 0.0280 0 0] CC
(0.8) show
GR
/Font0 FFSF
0.1290 0.5406 m
GS
[0.0280 0.0000 0.0000 0.0280 0 0] CC
(1) show
GR
/Font0 FFSF
0.0861 0.2465 m
GS
[0.0000 0.0280 -0.0280 0.0000 0 0] CC
(% error versus AE) show
GR
n
0.1500 0.1500 m
0.1500 0.5500 l
1.1500 0.5500 l
1.1500 0.1500 l
0.1500 0.1500 l
c
s
n
0.8500 0.5000 m
0.8500 0.4312 l
1.0964 0.4312 l
1.0964 0.5000 l
c
[/DeviceRGB] SCS
Color0 SC
fill
[/DeviceRGB] SCS
Color1 SC
n
0.8500 0.5000 m
0.8500 0.4312 l
1.0964 0.4312 l
1.0964 0.5000 l
0.8500 0.5000 l
c
s
/Font0 FFSF
0.9206 0.4708 m
GS
[0.0280 0.0000 0.0000 0.0280 0 0] CC
(GBRV- Abinit) show
GR
[/DeviceRGB] SCS
Color4 SC
[] 0 SD
0.0023 SLW
n
0.8657 0.4802 m
0.9057 0.4802 l
s
n
0.8657 0.4802 0.0049 0.0049 0 360 EARC c
fill
[] 0 SD
0.0015 SLW
n 0.8657 0.4802 0.0049 0.0049 0 360 EARC s
n
0.9057 0.4802 0.0049 0.0049 0 360 EARC c
fill
n 0.9057 0.4802 0.0049 0.0049 0 360 EARC s
/Font0 FFSF
[/DeviceRGB] SCS
Color1 SC
0.9206 0.4416 m
GS
[0.0280 0.0000 0.0000 0.0280 0 0] CC
(JTH v1.1) show
GR
[/DeviceRGB] SCS
Color2 SC
[] 0 SD
0.0023 SLW
n
0.8657 0.4508 m
0.9057 0.4508 l
s
n
0.8615 0.4466 m
0.8615 0.4549 l
0.8698 0.4549 l
0.8698 0.4466 l
c
fill
[] 0 SD
0.0015 SLW
n
0.8615 0.4466 m
0.8615 0.4549 l
0.8698 0.4549 l
0.8698 0.4466 l
0.8615 0.4466 l
c
s
n
0.9015 0.4466 m
0.9015 0.4549 l
0.9098 0.4549 l
0.9098 0.4466 l
c
fill
n
0.9015 0.4466 m
0.9015 0.4549 l
0.9098 0.4549 l
0.9098 0.4466 l
0.9015 0.4466 l
c
s
%%Trailer
%%BoundingBox: 40 63 710 344
%%DocumentNeededResources: font Times-Roman
%%EOF
