\relax 
\citation{Lejaeghere}
\citation{Jollet}
\citation{Garrity}
\citation{web4}
\citation{web2}
\citation{web1}
\citation{Abinit16}
\citation{Lejaeghere}
\citation{Lejaeghere}
\citation{Jollet}
\citation{web1}
\select@language{english}
\@writefile{toc}{\select@language{english}}
\@writefile{lof}{\select@language{english}}
\@writefile{lot}{\select@language{english}}
\newlabel{FirstPage}{{}{1}{}{}{}}
\@writefile{toc}{\contentsline {section}{\numberline {I}JTH-v1.1 PAW table for ABINIT}{1}{}}
\@writefile{toc}{\contentsline {section}{\numberline {II}PAW atomic data validation against the delta factor}{1}{}}
\citation{web5}
\@writefile{toc}{\contentsline {section}{\numberline {III}PAW atomic data validation against fcc, bcc, rocksalt, perovskite, half-heusler and zinc-blende structures}{6}{}}
\citation{web5}
\newlabel{tab1}{{III}{9}{}{}{}}
\@writefile{lot}{\contentsline {table}{\numberline {I}{\ignorespaces Summary of PAW data files testing (RMS errors reltative to AE calculations and $\Delta $ factor for zinc-blende structures) }}{9}{}}
\newlabel{tab1}{{I}{9}{}{}{}}
\@writefile{lof}{\contentsline {figure}{\numberline {1}{\ignorespaces Percent difference in AE versus PAW data calculations for fcc lattice constant}}{9}{}}
\newlabel{fig1}{{1}{9}{}{}{}}
\@writefile{lof}{\contentsline {figure}{\numberline {2}{\ignorespaces Percent difference in AE versus PAW data calculations for bcc lattice constant}}{10}{}}
\newlabel{fig2}{{2}{10}{}{}{}}
\@writefile{lof}{\contentsline {figure}{\numberline {3}{\ignorespaces Percent difference in AE versus PAW data calculations for rocksalt lattice constant}}{10}{}}
\newlabel{fig3}{{3}{10}{}{}{}}
\@writefile{lof}{\contentsline {figure}{\numberline {4}{\ignorespaces Percent difference in AE versus PAW data calculations for perovskite lattice constant}}{10}{}}
\newlabel{fig4}{{4}{10}{}{}{}}
\@writefile{lof}{\contentsline {figure}{\numberline {5}{\ignorespaces Percent difference in AE versus PAW data calculations for half-heusler lattice constant}}{11}{}}
\newlabel{fig5}{{5}{11}{}{}{}}
\citation{web5}
\citation{web5}
\citation{web3}
\@writefile{lof}{\contentsline {figure}{\numberline {6}{\ignorespaces $\Delta $ factor for zinc- blende structure}}{12}{}}
\newlabel{fig6}{{6}{12}{}{}{}}
\newlabel{tab2}{{III}{12}{}{}{}}
\@writefile{lot}{\contentsline {table}{\numberline {II}{\ignorespaces Magnetic moments of transition metal oxides }}{12}{}}
\newlabel{tab2}{{II}{12}{}{}{}}
\newlabel{tab3}{{III}{12}{}{}{}}
\@writefile{lot}{\contentsline {table}{\numberline {III}{\ignorespaces fcc lattice parameters obtained with JTHv1.1 atomic data in Abinit for the rare-earth elements }}{12}{}}
\newlabel{tab3}{{III}{12}{}{}{}}
\bibdata{JTH}
\bibcite{Lejaeghere}{{1}{2014}{{Lejaeghere et~al.}}{{Lejaeghere, {Van Speybroeck}, {Van Oost}, and Cottenier}}}
\bibcite{Jollet}{{2}{2014}{{Jollet et~al.}}{{Jollet, Torrent, and Holzwarth}}}
\bibcite{Garrity}{{3}{2014}{{Garrity et~al.}}{{Garrity, Bennett, Rabe, and Vanderbilt}}}
\bibcite{web4}{{4}{2014{}}{{web}}{{}}}
\bibcite{web2}{{5}{2016}{{web}}{{}}}
\bibcite{web1}{{6}{2014{}}{{web}}{{}}}
\bibcite{Abinit16}{{7}{2016}{{Gonze et~al.}}{{Gonze, Jollet, Araujo, Adams, Amadon, Applencourt, Audouze, Beuken, Bieder, Bokhanchuk et~al.}}}
\bibcite{web5}{{8}{2014{}}{{web}}{{}}}
\bibcite{web3}{{9}{2014{}}{{web}}{{}}}
\global \chardef \firstnote@num9\relax 
\bibstyle{apsrev}
\@writefile{toc}{\contentsline {section}{\numberline {IV}Conclusions}{13}{}}
\@writefile{toc}{\contentsline {section}{\numberline {V}Acknowledgments}{13}{}}
\@writefile{toc}{\contentsline {section}{\numberline {}References}{13}{}}
\newlabel{LastBibItem}{{9}{13}{}{}{}}
\newlabel{LastPage}{{}{13}}
